﻿"Symbol";"Value";"Unit";
"REFERENCE";"DIN 41612 C - 96ABCR";"";
"TraceParts.PartStandardAcronym";"DIN";"";
"TraceParts.PartStatus";"Published";"";
"DESIGN";"DIN 41612, type C, male, 32 to 96 pin, pitch 2,54 mm, DIN 41612 male C-96ABCR";"";
"TraceParts.PartNumber";"32-30052013-061578";"";
"TraceParts.PartLanguage";"en";"";
"STANDARD";"DIN 41612";"";
"TraceParts.InstanceId";"32-30052013-0615788OENHLPEGE9XL99MH74D51B2D";"";
"TraceParts.PartTitle";"DIN 41612, type C, male, 32 to 96 pin, pitch 2,54 mm";"";
"TraceParts.PartVersion";"1.0.9";"";
"TRACEPARTS";"TRACEPARTS";"";
"TraceParts.PartStatusId";"";"";
"TraceParts.ClassPath";"DIN:32-30052013-061578";"";
