PCBNEW-LibModule-V1  2020-02-05 03:43:37
# encoding utf-8
Units mm
$INDEX
SOIC127P780X200-20N
$EndINDEX
$MODULE SOIC127P780X200-20N
Po 0 0 0 15 5e3a39e9 00000000 ~~
Li SOIC127P780X200-20N
Cd NS
Kw Integrated Circuit
Sc 0
At SMD
AR 
Op 0 0 0
T0 0 0 1.27 1.27 0 0.254 N V 21 N "IC**"
T1 0 0 1.27 1.27 0 0.254 N I 21 N "SOIC127P780X200-20N"
DS -4.725 -6.7 4.725 -6.7 0.05 24
DS 4.725 -6.7 4.725 6.7 0.05 24
DS 4.725 6.7 -4.725 6.7 0.05 24
DS -4.725 6.7 -4.725 -6.7 0.05 24
DS -2.65 -6.3 2.65 -6.3 0.1 24
DS 2.65 -6.3 2.65 6.3 0.1 24
DS 2.65 6.3 -2.65 6.3 0.1 24
DS -2.65 6.3 -2.65 -6.3 0.1 24
DS -2.65 -5.03 -1.38 -6.3 0.1 24
DS -2.3 -6.3 2.3 -6.3 0.2 21
DS 2.3 -6.3 2.3 6.3 0.2 21
DS 2.3 6.3 -2.3 6.3 0.2 21
DS -2.3 6.3 -2.3 -6.3 0.2 21
DS -4.475 -6.415 -2.65 -6.415 0.2 21
$PAD
Po -3.562 -5.715
Sh "1" R 0.7 1.825 0 0 900
At SMD N 00888000
Ne 0 ""
$EndPAD
$PAD
Po -3.562 -4.445
Sh "2" R 0.7 1.825 0 0 900
At SMD N 00888000
Ne 0 ""
$EndPAD
$PAD
Po -3.562 -3.175
Sh "3" R 0.7 1.825 0 0 900
At SMD N 00888000
Ne 0 ""
$EndPAD
$PAD
Po -3.562 -1.905
Sh "4" R 0.7 1.825 0 0 900
At SMD N 00888000
Ne 0 ""
$EndPAD
$PAD
Po -3.562 -0.635
Sh "5" R 0.7 1.825 0 0 900
At SMD N 00888000
Ne 0 ""
$EndPAD
$PAD
Po -3.562 0.635
Sh "6" R 0.7 1.825 0 0 900
At SMD N 00888000
Ne 0 ""
$EndPAD
$PAD
Po -3.562 1.905
Sh "7" R 0.7 1.825 0 0 900
At SMD N 00888000
Ne 0 ""
$EndPAD
$PAD
Po -3.562 3.175
Sh "8" R 0.7 1.825 0 0 900
At SMD N 00888000
Ne 0 ""
$EndPAD
$PAD
Po -3.562 4.445
Sh "9" R 0.7 1.825 0 0 900
At SMD N 00888000
Ne 0 ""
$EndPAD
$PAD
Po -3.562 5.715
Sh "10" R 0.7 1.825 0 0 900
At SMD N 00888000
Ne 0 ""
$EndPAD
$PAD
Po 3.562 5.715
Sh "11" R 0.7 1.825 0 0 900
At SMD N 00888000
Ne 0 ""
$EndPAD
$PAD
Po 3.562 4.445
Sh "12" R 0.7 1.825 0 0 900
At SMD N 00888000
Ne 0 ""
$EndPAD
$PAD
Po 3.562 3.175
Sh "13" R 0.7 1.825 0 0 900
At SMD N 00888000
Ne 0 ""
$EndPAD
$PAD
Po 3.562 1.905
Sh "14" R 0.7 1.825 0 0 900
At SMD N 00888000
Ne 0 ""
$EndPAD
$PAD
Po 3.562 0.635
Sh "15" R 0.7 1.825 0 0 900
At SMD N 00888000
Ne 0 ""
$EndPAD
$PAD
Po 3.562 -0.635
Sh "16" R 0.7 1.825 0 0 900
At SMD N 00888000
Ne 0 ""
$EndPAD
$PAD
Po 3.562 -1.905
Sh "17" R 0.7 1.825 0 0 900
At SMD N 00888000
Ne 0 ""
$EndPAD
$PAD
Po 3.562 -3.175
Sh "18" R 0.7 1.825 0 0 900
At SMD N 00888000
Ne 0 ""
$EndPAD
$PAD
Po 3.562 -4.445
Sh "19" R 0.7 1.825 0 0 900
At SMD N 00888000
Ne 0 ""
$EndPAD
$PAD
Po 3.562 -5.715
Sh "20" R 0.7 1.825 0 0 900
At SMD N 00888000
Ne 0 ""
$EndPAD
$EndMODULE SOIC127P780X200-20N
$EndLIBRARY
