














                                          GenREF

                                          v1.00



                                  MDOS Reference guide.

























                                    (C) Copyright 1989

                                     J. Paul Charlton

                                   ALL RIGHTS RESERVED















               [1m____________________________________________________________[0m
                                    [1mMEMORY ‐ CONTENTS[0m
               [1m____________________________________________________________[0m

                                                                 Page

               Memory management overview........................1

               Calling memory functions..........................2

               Available memory..................................3

               Allocate memory...................................3

               Release memory....................................9

               Map memory........................................12

               Get memory list...................................14

               Declare shared memory.............................16

               Release shared memory.............................18

               Use shared memory.................................19

               Get size of shared group..........................20

               Free task.........................................21

               Get memory page...................................21

               Free memory page..................................22

               Free memory node..................................23

               Link memory node..................................23

               Get memory list (system)..........................24






























               [1m____________________________________________________________[0m
                                [1mMEMORY MANAGEMENT OVERVIEW[0m
               [1m____________________________________________________________[0m

                  The  memory  management  routines in MDOS are provided to
               aid a programmer in writing applications  which  are  larger
               than  the 64 Kbytes directly addressable by the CPU’s 16 ad‐
               dress lines.  They also serve the purpose of providing  each
               task with it’s own private address space, separate from mem‐
               ory accessible to other tasks.

                  Each task under MDOS can have 2 Mbytes of virtual memory,
               using 21 address bits.  The 21 addresses bits consist of two
               fields.  The first field includes the eight most significant
               address bits, and is referred to as the virtual page number.
               The second field consists of the thirteen least  significant
               address bits, and is referred to as the page offset.

                  The physical memory in the Geneve computer has 21 address
               lines, for a maximum of 2 MBytes of physical  memory.   Like
               virtual memory, each physical address can be thought of as a
               21 bit address of two fields, with the first eight bit field
               called  the physical page number, and the final thirteen bit
               field referred to as the page offset.

               [1mNOTE: [22mIt can be easy to confuse physical pages with  virtual
               pages,  so  be  careful when reading the opcode descriptions
               below.

                  The 16 address lines provided by the 9995  processor  can
               be  thought of two fields.  The first field is the most sig‐
               nificant three bits of the address and is called the "window
               number".   The  least significant thirteen bits are the page
               offset.  These 16 address bits can be  referred  to  as  the
               linear address space of the CPU.

                  The  virtual  address  space and the linear address space
               are of the most interest to people writing tasks  which  run
               under  MDOS.   The memory management routines provide trans‐
               parent methods of assigning physical memory pages into  your
               task’s  virtual  address  space  and  transparent methods of
               viewing any 8k block of a task’s virtual address space with‐
               in  one  of the seven usable 8k memory windows in the linear
               address space.





















          MEM ‐ 2                 GenREF v1.00


             MDOS maintains two arrays to manage the  physical  memory
          pages  belonging  to your task.  The first array, which only
          contains 8 physical page numbers,  is  part  of  the  Geneve
          hardware  and is called the "mapper".  The mapper is used to
          assign a physical memory page to each of the eight  8k  win‐
          dows  addressable  in  the 9995’s linear address space.  The
          second array, which is actually stored as  a  singly  linked
          list within MDOS, is stored in RAM under control of the MDOS
          memory management routines and is referred to as "the virtu‐
          al  page list".  Each node in the virtual page list consists
          of a physical page number and various  attributes  for  that
          page.   Various attributes used in the virtual page list al‐
          low for pages to be  unassigned  (correspond  to  no  useful
          physical  page),  for  pages  to  be shared, for pages to be
          disk‐resident (swapped out), and for  pages  to  be  private
          (accessible to only your task.)


          [1m____________________________________________________________[0m
                            [1mCALLING MEMORY FUNCTIONS[0m
          [1m____________________________________________________________[0m

             The  MDOS memory management functions must be called from
          within a machine code program running as a task under  MDOS.
          You  pass arguments to the memory management functions using
          only a few registers of your program’s workspace.

             The MDOS memory management functions are invoked  from  a
          machine  code program when software trap number zero (XOP 0)
          is called with a library number of 7.  The calling program’s
          R0  must contain the opcode of the routine within the memory
          management library which is to be performed.  The  following
          code fragment will allocate memory to your task.

                    LI        R0,1
                    LI        R1,7      56k bytes
                    LI        R2,1      starting @>2000
                    SETO      R3        try fast pages
                    XOP       @SEVEN,0
                    MOV       R0,R0
                    JNE       MEMERR
          * ...
          SEVEN     DATA      7
          *...



















                                       GenREF v1.00                 MEM ‐ 3


               [1m____________________________________________________________[0m
                                     [1mAVAILABLE MEMORY[0m
               [1m____________________________________________________________[0m

               [1mFunction  [22mYou would use this operation in a program when you
                         want to determine how much memory is available for
                         use.   It returns the total number of 8k pages in‐
                         stalled, the number of zero wait  state  8k  pages
                         available, and the total number of 8k pages avail‐
                         able (both fast and slow pages).

               [1mParameters[22mR0        = 0 (opcode)

               [1mResults   [22mR0        = 0       (no error)
                         R1        = total number of free pages
                         R2        = number of free zero wait state pages
                         R3        = total number of installed pages

               [1m____________________________________________________________[0m
                                     [1mALLOCATE MEMORY[0m
               [1m____________________________________________________________[0m

               [1mFunction  [22mThis routine allows you to assign  physical  pages
                         of memory from system list of free pages to virtu‐
                         al pages belonging to your  task.   You  must  use
                         this  function if you wish to use more memory than
                         your program occupied on disk as a  program  image
                         file.  You must also use this function if you wish
                         to use more than 64k of memory in  a  program  you
                         have  written.   This  routine  will  not reassign
                         pages which have already been allocated,  even  if
                         the  block  of  pages  you  specify overlaps pages
                         which have already been assigned to your task.

                         On successful  return,  all  pages  in  the  range
                         R2..(R2+R1‐1) are available for use by your task.

               [1mParameters[22mR0        = 1 (opcode)
                         R1        = page count
                         R2        = starting page
                         R3        = speed flag        0 (use first available memory page)
                                             <>0 (use zero wait state pages, if available)

               [1mResults   [22mR0        = error code
                         R1        = new count
                         R2        = fast count

















          MEM ‐ 4                 GenREF v1.00

          [1mParameter description[0m

          Page countThis is the number of consecutive memory pages you
                    wish to have for your program, it is not necessar‐
                    ily  the number of pages which will be returned to
                    your program.  As  an  example,  to  allocate  20k
                    bytes of memory for your program, you must actual‐
                    ly ask for three 8k memory pages.  The  number  of
                    pages  you  need to ask for can be calculated from
                    the number of bytes you need as follows:

                    pages = (bytes + >1fff) / >2000

          Starting paTgheis is the virtual page number within your task’s
                    memory  at  which you want to allocate more memory
                    pages.  If you were to think of your task’s memory
                    as   having  addresses  ranging  from  >000000  to
                    >1fffff (0 to 2 MB), this number  is  the  address
                    divided by 8192 (remainder is discarded.)

          Speed flagIf this flag is non‐zero, MDOS will attempt to as‐
                    sign zero wait state memory pages  to  your  task.
                    If  there  are  not  enough  zero wait state pages
                    available to satisfy your request, MDOS  will  as‐
                    sign  slow  pages to your task in order to satisfy
                    the request.

                    If this flag is zero, and your computer  has  512k
                    of  (one  wait state) RAM on the motherboard, MDOS
                    will first attempt to assign slow  pages  to  your
                    task.   If  there  are not enough slow pages, MDOS
                    will continue by allocating  fast  pages  to  your
                    task.

                    If  this flag is zero, and your computer has 1024k
                    of (zero wait state) RAM on the motherboard,  MDOS
                    will  first  attempt  to assign fast pages to your
                    task.  If there are not enough  fast  pages,  MDOS
                    will  continue  by  allocating  slow pages to your
                    task.

                    The "fast count" returned to you reflects the num‐
                    ber of fast pages allocated as a result of the op‐
                    eration, and the "fast count" subtracted from  the
                    "new count" returned to you reflects the number of
                    slow pages allocated as a result of the operation.

                    If the "fast count" returned to you  is  non‐zero,
                    and  different  from  the  number of pages you re‐
                    quested, there is no convenient method  of  deter‐
                    mining  which  pages are fast, and which are slow.
                    The easiest deterministic method of telling  which
                    pages  are  fast and which are slow is to ask MDOS
                    for one page at a time,  and  look  at  the  "fast
                    count" resulting from each single‐page allocation.









                                       GenREF v1.00                 MEM ‐ 5

               Error code0  =  No error.  This indicates that the pages you
                         specified can now be used by your task.

                         1 = Insufficient memory.  When you get this error,
                         there  were not enough pages free in the system to
                         accommodate your request for more memory.  No  ad‐
                         ditional  pages  have  been assigned to your task,
                         even if there were some free memory pages  in  the
                         system.

                         (NOTE: Calling the "Available memory" operation to
                         determine the amount of memory available, followed
                         by  the  "Allocate  memory"  operation  with fewer
                         pages than reported to you from "Available memory"
                         can  still fail, since another task may have allo‐
                         cated pages in between your two calls.  Do not re‐
                         ly  on being able to call the two routines in suc‐
                         cession without checking the error  code  returned
                         from the "Allocate memory" operation.)

                         7  =  Attempt  to overwrite shared page.  You will
                         get  this  error  if  any  page   in   the   range
                         R2..(R2+R1‐1)  is  already  allocated to your task
                         with a "shared" attribute.   No  additional  pages
                         have  been  assigned  to  your task if you receive
                         this error, even if there were enough free  memory
                         pages in the system to accommodate your request.

                         8 = Out of table space.  You will receive this er‐
                         ror if too many tasks have  large  gaps  of  unas‐
                         signed  pages  in  their memory maps.  The current
                         versions of MDOS allow 480 virtual  pages  between
                         all  tasks  which  are  currently executing.  Note
                         that there are only 256 possible  physical  pages,
                         and that there are only 128 physical pages even if
                         you have the 512k expansion RAM,  so  tasks  would
                         have  to  be  pretty wasteful (have more gaps than
                         actual pages) in order to use up all  480  virtual
                         pages  allowed  by  MDOS.   If you get this error,
                         your program should just give up and tell the user
                         to try later.

               New count This  is  the number of pages which were newly as‐
                         signed to your task, and is only valid if you  did
                         not  receive  an  error from the "allocate memory"
                         call.  This number can be less than the number  of
                         pages  you  requested  if some of the pages in the
                         range R2..(R2+R1‐1) were already assigned to  your
                         task.















          MEM ‐ 6                 GenREF v1.00

          Fast countThis  is the number of fast pages which were newly
                    assigned to your task, and is only  valid  if  you
                    did  not receive an error from the "allocate memo‐
                    ry" call.  You would use this to check if MDOS ac‐
                    tually assigned any fast pages to your task.

          [1mExample  1.1                                       Filling a[0m
                    [1mhole[0m
                    R0=1      Opcode
                    R1=2      Number of pages to get
                    R2=4      Virtual page number
                    R3=0      Speed flag

                    [1mVirtual   Physical  Physical[0m
                    [1mPage      Page      Page[0m

                              [1mBefore    After[0m

                    0         >3F       >3F
                    1         >3E       >3E
                    2         >3D       >3D
                    3         (>FF)     (>FF)     hole
                    4         (>FF)     >33       new page
                    5         (>FF)     >32       new page
                    6         (>FF)     (>FF)     hole
                    7         >3C       >3C
                    8         >3B       >3B
                    9         >3A       >3A
                    10        >39       >39
                    11        >38       >38
                    12        >37       >37
                    13        >36       >36
                    14        >35       >35
                    15        >34       >34

          [1mNOTE:     [22mThe pages (>FF) represent holes in the tasks  vir‐
                    tual memory map.  The physical page >FF is actual‐
                    ly part of the boot rom on your computer, and can‐
                    not be overwritten by your task.

























                                       GenREF v1.00                 MEM ‐ 7

               [1mExample 1.2                                       Creating a[0m
                         [1mhole[0m
                         R0=1      Opcode
                         R1=1      Number of pages to get
                         R2=17     Virtual page number
                         R3=0      Speed flag

                         [1mVirtual   Physical  Physical[0m
                         [1mPage      Page      Page[0m

                                   [1mBefore    After[0m

                         0         >3F       >3F
                         1         >3E       >3E
                         2         >3D       >3D
                         3         (>FF)     (>FF)     hole
                         4         (>FF)     (>FF)     hole
                         5         (>FF)     (>FF)     hole
                         6         (>FF)     (>FF)     hole
                         7         >3C       >3C
                         8         >3B       >3B
                         9         >3A       >3A
                         10        >39       >39
                         11        >38       >38
                         12        >37       >37
                         13        >36       >36
                         14        >35       >35
                         15        >34       >34
                         16        (null)    (>FF)     new hole
                         17        (null)    >33       new page


































          MEM ‐ 8                 GenREF v1.00

                    Notice that this routine only [1mfills [22mholes, it does
                    not  assign  a new physical page to a virtual page
                    which is already assigned to your task.

          [1mExample 1.3                                       Overlaying[0m
                    [1mpages[0m
                    R0=1      Opcode
                    R1=5      Number of pages to get
                    R2=1      Virtual page number
                    R3=0      Speed flag

                    [1mVirtual   Physical  Physical[0m
                    [1mPage      Page      Page[0m

                              [1mBefore    After[0m

                    0         >3F       >3F
                    1         >3E       >3E       no change
                    2         >3D       >3D       no change
                    3         (>FF)     >33       new page
                    4         (>FF)     >32       new page
                    5         (>FF)     >31       new page
                    6         (>FF)     (>FF)     hole
                    7         >3C       >3C
                    8         >3B       >3B
                    9         >3A       >3A
                    10        >39       >39
                    11        >38       >38
                    12        >37       >37
                    13        >36       >36
                    14        >35       >35
                    15        >34       >34

                    Notice that even though you asked for 5 pages, on‐
                    ly 3 were actually  assigned,  since  two  of  the
                    specified pages had already been assigned.




























                                       GenREF v1.00                 MEM ‐ 9


               [1m____________________________________________________________[0m
                                      [1mRELEASE MEMORY[0m
               [1m____________________________________________________________[0m

               [1mFunction  [22mYou  will use this routine to return unused memory
                         to MDOS, this is useful if your program uses  lots
                         of  temporary data.  This is also one of the func‐
                         tions used by MDOS to free memory when  your  task
                         is terminated.  Any page which is released by your
                         task  which is also currently mapped into  one  of
                         your  task’s  seven memory windows will be removed
                         from the memory window used by your task, and  its
                         entry in the mapper will be replaced by page >FF.

                         You may not release virtual page zero of your task
                         using this function (although page zero may be ac‐
                         cessed  by  your task, it doesn’t really belong to
                         your task.)

                         This opcode cannot be used to  free  shared  pages
                         belonging  to a task.  Shared memory pages must be
                         freed with opcode #6.

               [1mParameters[22mR0        = 2 (opcode)
                         R1        = page count
                         R2        = starting page

               [1mResults   [22mR0        = error code

               [1mParameter description[0m

               Page countThis the number of memory pages you wish  to  free
                         from your program.  It is not necessarily the same
                         as the number of physical memory pages which  will
                         actually  be  freed from your task.  Shared pages,
                         and unallocated pages in  the  range  R2:(R2+R1‐1)
                         will  not  be  released  from your task.  No pages
                         will be released if this count is zero.

               Starting paTgheis is the page number of the first virtual memo‐
                         ry  page you wish to have released from your task.
                         This procedure will attempt to release all of your
                         task’s   virtual   memory   pages   in  the  range
                         R2:(R2+R1‐1) into the free page pool.

               Error code0 = No Error.  This indicates that the  non‐shared
                         pages  in  the  range specified have been released
                         from your task back to the free pages in the  sys‐
                         tem.

                         2  =  Attempt  to  free page zero.  This indicates
                         that you tried to free virtual page zero  of  your
                         task.   No  pages were actually released from your
                         task.









          MEM ‐ 10                GenREF v1.00

                    8 = Out of table space.  MDOS was unable to free a
                    page  because  there  weren’t enough virtual pages
                    nodes available to create a new page in  the  free
                    pool.  When you receive this error, it is possible
                    that some, but not all, of the pages in the  range
                    R2:(R2+R1‐1)  have  been  moved  to the free pool.
                    You will receive this error if too many tasks have
                    large  gaps  of  unassigned  pages in their memory
                    maps.  The current versions of MDOS allow 480 vir‐
                    tual  pages  between all tasks which are currently
                    executing.  Note that there are only 256  possible
                    physical pages, and that there are only 128 physi‐
                    cal pages even if you have the 512k expansion RAM,
                    so  tasks  would  have to be pretty wasteful (have
                    more gaps than actual pages) in order  to  use  up
                    all 480 virtual pages allowed by MDOS.  If you get
                    this error, your program should just give  up  and
                    tell the user to try later.

          [1mExample  2.1                                       Making  a[0m
                    [1mHole[0m
                    R0=2      Opcode
                    R1=9      Number of pages to release
                    R2=2      First virtual page to release

                    [1mVirtual   Physical  Physical[0m
                    [1mPage      Page      Page[0m

                              [1mBefore    After[0m

                    0         >3F       >3F
                    1         >3E       >3E
                    2         >3D       (>FF)     new hole
                    3         (>FF)     (>FF)     hole
                    4         (>FF)     (>FF)     hole
                    5         (>FF)     (>FF)     hole
                    6         (>FF)     (>FF)     hole
                    7         >3C       (>FF)     new hole
                    8         >3B       (>FF)     new hole
                    9         >3A       (>FF)     new hole
                    10        >39       (>FF)     new hole
                    11        >38       >38
                    12        >37       >37
                    13        >36       >36
                    14        >35       >35
                    15        >34       >34

                    Note that only five pages were  actually  released
                    from your task to MDOS, since some of the pages in
                    the specified range were already unassigned.














                                       GenREF v1.00                MEM ‐ 11

               [1mExample     2.2                                       Making[0m
                         [1mlist shorter[0m
                         R0=2      Opcode
                         R1=8      Number of pages to release
                         R2=10     First virtual page to release

                         [1mVirtual   Physical  Physical[0m
                         [1mPage      Page      Page[0m

                                   [1mBefore    After[0m

                         0         >3F       >3F
                         1         >3E       >3E
                         2         >3D       >3D
                         3         (>FF)     (>FF)
                         4         (>FF)     (>FF)
                         5         (>FF)     (>FF)
                         6         (>FF)     (>FF)
                         7         >3C       >3C
                         8         >3B       >3B
                         9         >3A       >3A
                         10        >39       null      freed
                         11        >38       null      freed
                         12        >37       null      freed
                         13        >36       null      freed
                         14        >35       null      freed
                         15        >34       null      freed

                         The  list was truncated, since all of the pages at
                         the tail of the list were  unassigned.  Also  note
                         that  we really told it to release pages 10 to 18,
                         but we only had pages up to 15 to begin  with.  No
                         error  is  reported  when  you  attempt to release
                         unassigned pages.






























          MEM ‐ 12                GenREF v1.00


          [1m____________________________________________________________[0m
                                   [1mMAP MEMORY[0m
          [1m____________________________________________________________[0m

          [1mFunction  [22mThis routine can be used to place a physical  page
                    into  the  mapper  chip  for the specified virtual
                    page belonging to your task.  You can think of the
                    mapper  as  providing seven usable 8k "memory win‐
                    dows" into your task’s virtual memory space.   You
                    tell  this  routine  which of the seven windows to
                    use, and which part of virtual memory to look  at.
                    This routine can not be used to overwrite page ze‐
                    ro of your task.

                    You should use this routine for mapping memory  if
                    you  want your program to be able to use transpar‐
                    ent demand paging in future versions of MDOS which
                    support page swapping to hard disk.

                    (NOTE:  If  you are using window number seven, the
                    one which is  at  >E000  in  your  direct  address
                    space;  the data from offset >1000 to >1140 in the
                    page will be corrupted by writes to  addresses  in
                    the  range >F000 to >F140.  Do not use window num‐
                    ber seven unless it is ok  for  the  data  in  the
                    specified range to be corrupted.)

                    On  successful  return, the specified virtual page
                    belonging to your task has been  mapped  into  the
                    window you specified and is available for use.

          [1mParameters[22mR0        = 3 (opcode)
                    R1        = page number
                    R2        = window number

          [1mResults   [22mR0        = error code
                    mapper    = new page

          [1mParameter description[0m

          Window number       This  parameter,  in  the  range 1:7, is
                    used to tell MDOS which of the seven 8k byte  win‐
                    dows  in  the  processor’s 16‐bit address space to
                    use for the specified virtual  page  belonging  to
                    your task.

                    Processor address = Window_number * >2000

          Page numberThis  is  the virtual page number within your task
                    that you wish to have mapped  into  the  specified
                    window  in  the  processor’s 16‐bit address space.
                    Virtual  memory  in  the  address  range  (page  *
                    >2000):(page * >2000 +>1fff) will be accessible to
                    your program with the 16‐bit addresses  (window  *
                    >2000):(window








                                       GenREF v1.00                MEM ‐ 13

                         * >2000 + >1fff).































































          MEM ‐ 14                GenREF v1.00

          Error code0  =  No Error.  This indicates that the specified
                    virtual memory page of your task has  been  mapped
                    into the specified memory window.

                    2  = Header page mapping violation.  You attempted
                    to map a virtual page into window zero,  which  is
                    reserved for your task’s header by MDOS.  Alterna‐
                    tively, you attempted to map  virtual  page  zero,
                    your task’s header, into some other memory window.
                    Your task’s memory map has not been changed if you
                    get this error.

                    3  =  Unassigned  virtual  page, or Invalid memory
                    window.  The virtual page you specified has  never
                    been allocated by your task, and contains no valid
                    data (it is a "hole" in your address space.)   Al‐
                    ternatively,  you specified a window number larger
                    than seven.  Your task’s memory  map  has  not  be
                    changed if you get this error.

          Mapper    In  MDOS mode, the mapper is 8 bytes long, and lo‐
                    cated at >F110 in the processor’s  16‐bit  address
                    space.   Each byte in the mapper contains a physi‐
                    cal memory page number, in the range >00:>FF.  As‐
                    signments are as follows:

                    Mapper register = >F110 + Window_number

                    Note  that  each  mapper register corresponds to a
                    specific 8k block in the  processor’s  16‐bit  ad‐
                    dress  space.   After successful completion of the
                    "Map Memory" function, the mapper register  corre‐
                    sponding  to the window you specified will contain
                    the physical page number of the virtual  page  you
                    specified.

                    Symbolically:
                    mapper[window  number]  =  task_pages[virtual page
                    number]

























                                       GenREF v1.00                MEM ‐ 15


               [1m____________________________________________________________[0m
                                     [1mGET MEMORY LIST[0m
               [1m____________________________________________________________[0m


               [1mFunction  [22mThis operation returns an array of  physical  page
                         numbers  (each  is  one byte) corresponding to the
                         virtual pages belonging to your task.  You are al‐
                         lowed  to specify the address of the first byte in
                         the array, and the maximum number of  elements  in
                         the array.

                         This  array  of physical page numbers is useful if
                         you need to speed up memory paging in your task by
                         use of your own paging code.  If your program per‐
                         forms its own paging, you will need to  call  this
                         opcode  after  every  call  to a memory management
                         function which adds or  removes  pages  from  your
                         virtual address space. (Opcodes 1,2,6,7)

                         In future versions of MDOS which support transpar‐
                         ent demand paging, this operation will also "lock"
                         [1mall  [22mof your task’s virtual pages into RAM, making
                         them ineligible for paging.  To "unlock" your vir‐
                         tual  pages,  another  opcode will be provided for
                         your use. (Normally, only pages which are current‐
                         ly  mapped into one of the seven processor windows
                         for your task would be "locked" into RAM.)

                         On successful return, the array will  contain  the
                         physical  page  numbers  for  the virtual pages in
                         your task.

               [1mParameters[22mR0        = 4 (opcode)
                         R1        = array start
                         R2        = array size

               [1mResults   [22mR0        = error code
                         R1        = array used

               [1mParameter description[0m

               Array startYou specify the address of the first byte in  your
                         array  using  this  parameter.   The physical page
                         number of your task’s header  page,  virtual  page
                         number  zero,  is  placed in the first byte of the
                         array.  This is a 16‐bit processor address  for  a
                         location  which  is  currently  mapped  into  your
                         task’s memory windows.

               Array sizeThis is the maximum number of physical  page  num‐
                         bers  which can be returned to your task.  The in‐
                         dexes of the array elements can range from zero to
                         (array size)‐1.









          MEM ‐ 16                GenREF v1.00

          Error code0  = No Error.  This indicates that the array con‐
                    tains all of the physical  page  associations  for
                    the virtual pages in your task.  The number of ac‐
                    tual array elements used can be less than the max‐
                    imum size you specified for the array.

                    8  =  Array  not large enough.  Your array was not
                    large enough to hold all of the physical page num‐
                    bers  in  use by your task.  When you get this er‐
                    ror, the contents of the array are valid up to the
                    maximum element which you allowed.

          Array usedThis  indicates the number of valid pages returned
                    in the array.  When you perform your  own  paging,
                    you should make sure that you never index into the
                    array after the last valid page (You will  end  up
                    mapping a page which doesn’t belong to your task.)

                                       [1mSample Code[0m

                    Assuming  that  you’ve already called this opcode,
                    the follow code fragment will map in a  data  item
                    pointed to by a 32 bit address.

                     assume: r1,r2 = 32 bit pointer, @paglst are bytes from opcode #4

                     movb r2,r1                   ok, since only low 5 bits of r1 are used
                     andi r1,>e01f      keep 8 bits, zap the others
                     src  r1,13                   rotate to make an index into the page list
                     andi r2,>1fff                mask off the high three bits, they’re now
                    *                   in R1 ...
                    *
                     movb @paglst(r1),@mapper+4   put it at >8000
                     movb @paglst+1(r1),@mapper+5 put next page at >a000
                    *
                    * it is not necessary to place two pages into the mapper if you
                    * know for certain that the record accessed by the pointer does not
                    * cross page boundaries, the above code is just a method of playing it
                    * safe
                    *
                     mov  @>8000+field_offset(r2),r3
                    *
                    * this of course assumes that there is some record addressed by the
                    * initial pointer, and that the record contains fields of some
                    * data structure.  fields are easy to set up with a DORG statement
                    * for each record type in use by an application
                    *

















                                       GenREF v1.00                MEM ‐ 17


               [1m____________________________________________________________[0m
                                  [1mDECLARE SHARED MEMORY[0m
               [1m____________________________________________________________[0m


               [1mFunction  [22mThis  routine  is used to declare a range of pages
                         currently belonging to your task as "shared" memo‐
                         ry  pages,  which  means  that they can be used by
                         other tasks.  An example of two tasks sharing mem‐
                         ory  would  be an editor which "shared" all of its
                         text buffer with an assembler, so that the  assem‐
                         bler  could  assemble  from  RAM  rather than from
                         disk.

                         Each group of pages declared as shared has a type,
                         which  you assign.  When another application wants
                         to share those memory pages  with  your  task,  it
                         will  ask  MDOS  to  use  a certain type of shared
                         pages.  An editor buffer could be declared as  one
                         specific type, while object code would be declared
                         as a separate type, so that programs would not use
                         the wrong sort of data as input (You wouldn’t want
                         a Fortran compiler to use a binary program as  its
                         input!)

                         It  is recommended that "types" be assigned by the
                         distributor of MDOS, so that incompatible applica‐
                         tions do not try to use the same "type" if you de‐
                         cide to use a "type" please  correspond  with  the
                         distributor of MDOS to coordinate your development
                         efforts with others.

                         A "shared" type may only be declared once, and al‐
                         ways  resides  in  a  group of consecutive virtual
                         pages.  If all applications using a "shared" group
                         of  pages  release  those pages, the "type" may be
                         redeclared.  (MDOS keeps a count of the number  of
                         applications  using  a  shared  group,  and if the
                         count ever becomes zero, the type is made free for
                         re‐use)

                         [1mNOTE:  [22mIt  is not possible to declare page 0 to be
                         part of a shared group.  Page 0 is [1malways [22mprivate,
                         since  it contains the information which MDOS uses
                         to distinguish between tasks.

               [1mParameters[22mR0        = 5 (opcode)
                         R1        = page count
                         R2        = starting page
                         R3        = shared type

               [1mResults   [22mR0        = error code











          MEM ‐ 18                GenREF v1.00

          [1mParameter description[0m

          Page countThis is the number of  consecutive  virtual  pages
                    belonging to your task which will be declared as a
                    shared page group for use by other tasks.

          Starting paTgheis is the virtual page number within  your  task
                    of  the  first virtual page which will become part
                    of the shared page  group.   Pages  in  the  range
                    (start_page):(start_page+page_count‐1) will belong
                    to the group.

          Shared typeThis must be in the range >01:>FE, and should be a
                    code  unique  to  the format of data which you are
                    sharing with other tasks.  It is recommended  that
                    you  use  a common set of source code routines for
                    data access for all of your tasks  which  use  the
                    data.

          Error code0  =  No Error.  This indicates that virtual pages
                    you specified can now be  shared  by  other  tasks
                    running under MDOS.

                    3  =  Bad  page.  At least one of the pages in the
                    range  (start_page):(start_page+page_count‐1)  has
                    never  been  allocated  by  your task.  The shared
                    group has not been defined if you get this error.

                    5 = Invalid type code.  Your "shared type" parame‐
                    ter  was not in the range >01:>FE, or your "shared
                    type" code has already been  declared  by  another
                    task.  The shared group does not contain the pages
                    you specified if you get this error.

                    7 = Invalid page declaration.  At least one of the
                    pages            in            the           range
                    (start_page):(start_page+page_count‐1) is  unallo‐
                    cated,  already  declared as shared, or is virtual
                    page number zero.  The shared group has  not  been
                    defined if you get this error.

                    8 = Out of table space.  MDOS was unable to create
                    the shared type  because  weren’t  enough  virtual
                    pages  nodes  available  to  create  a shared page
                    group descriptor list. You will receive this error
                    if  too  many  tasks have large gaps of unassigned
                    pages in their memory maps.  The current  versions
                    of  MDOS allow 480 virtual pages between all tasks
                    which are currently executing.   Note  that  there
                    are  only  256  possible  physical pages, and that
                    there are only 128 physical pages even if you have
                    the  512k expansion RAM, so tasks would have to be
                    pretty wasteful (have more gaps than actual pages)
                    in  order  to use up all 480 virtual pages allowed
                    by MDOS.  If you  get  this  error,  your  program
                    should








                                       GenREF v1.00                MEM ‐ 19

                         just give up and tell the user to try later.































































          MEM ‐ 20                GenREF v1.00


          [1m____________________________________________________________[0m
                             [1mRELEASE SHARED MEMORY[0m
          [1m____________________________________________________________[0m


          [1mFunction  [22mThis  operation removes all shared memory pages of
                    the specified type from your task’s virtual memory
                    list.   If  your  task was the only task using the
                    shared page group, the  group  will  become  unde‐
                    fined,  and  must  be  redeclared before use.  Any
                    page which is released by your task  which is also
                    currently  mapped  into  one  of your task’s seven
                    memory windows will be  removed  from  the  memory
                    window  used  by  your  task, and its entry in the
                    mapper will be replaced by page >FF.

          [1mParameters[22mR0        = 6 (opcode)
                    R1        = shared type

          [1mResults   [22mR0        = error code

          [1mParameter description[0m

          Shared typeThis is a shared group type number, in  the  range
                    >01:>FE,  and must have been previously defined by
                    another task.

          Error code0 = No Error.  This  indicates  that  all  of  the
                    pages  from  the  shared  group you specified have
                    been released from your task.

                    6 = Invalid type.  The type you specified was  not
                    in  the range >01:>FE, or hasn’t yet been declared
                    by another task.

                    8 = Out of table space.  MDOS was unable to free a
                    page  because  there  weren’t enough virtual pages
                    nodes available to create a new page in  the  free
                    pool.  When you receive this error, it is possible
                    that some, but not all, of the pages belonging  to
                    the shared group have been moved to the free pool.
                    If you get this error, your  program  should  just
                    give up and tell the user to try later.




















                                       GenREF v1.00                MEM ‐ 21


               [1m____________________________________________________________[0m
                                    [1mUSE SHARED MEMORY[0m
               [1m____________________________________________________________[0m

               [1mFunction  [22mThis  operation  will  include  the pages from the
                         shared type specified in your task’s list of  vir‐
                         tual  pages.   The shared type must be been previ‐
                         ously declared by another  task.   When  you  call
                         this    function,   all   pages   in   the   range
                         (start_page):(start_page+shared_size‐1)  must  not
                         be  allocated by your task, since you are not per‐
                         mitted to overlay shared  and  existing  pages  in
                         your virtual page list.

               [1mParameters[22mR0        = 7 (opcode)
                         R1        = shared type
                         R2        = start page

               [1mResults   [22mR0        = error code

               [1mParameter description[0m

               Shared typeThis  is a type code for a shared page group which
                         must have been declared by another task.  If  your
                         task has enough contiguous available virtual pages
                         beginning with the start page you  specified,  all
                         of  the  pages  from the shared page group will be
                         mapped in at the specified virtual page address.

               Start pageThis is the virtual page number within  your  task
                         of  the  first  virtual page which will be used by
                         the shared page group.  After calling this  opera‐
                         tion, you must explicitly map in the virtual pages
                         which have just been assigned, since they will not
                         be  automatically  placed  into your task’s mapper
                         registers.

               Error code0 = No Error.  The shared page group of  the  type
                         you requested was already defined and was success‐
                         fully mapped into your task’s virtual page list.

                         2 = Attempt to overlay page zero.   You  specified
                         virtual page zero as the start page for the shared
                         memory group.  No pages from the memory group have
                         been allocated to your task if you get this error.

                         6  =  Invalid shared type.  The type you specified
                         was not in the range >01:>FE or has not  yet  been
                         defined  for  use  by another task.  No pages from
                         the memory group have been allocated to your  task
                         if you get this error.












          MEM ‐ 22                GenREF v1.00

                    7  = Attempt to overlay shared and private memory.
                    Your task did not have enough contiguous free vir‐
                    tual  pages  starting with the virtual page speci‐
                    fied to map in the pages from  the  shared  group.
                    No pages from the memory group have been allocated
                    to your task if you get this error.

                    8 = Out of table space.   There  were  not  enough
                    free nodes available to extend your task’s virtual
                    page list.  MDOS is out of table space.   At  this
                    point,  your task should give up and tell the user
                    to try later.  No pages from the memory group have
                    been allocated to your task if you get this error.


          [1m____________________________________________________________[0m
                            [1mGET SIZE OF SHARED GROUP[0m
          [1m____________________________________________________________[0m

          [1mFunction  [22mThis  operation  reports the number of pages which
                    belong to a shared page group.  It should be  used
                    by your task before you have the shared page group
                    assigned into your virtual page list, so that  you
                    know  in  advance  if  your task has enough unused
                    contiguous pages to overlay the shared page group.

          [1mParameters[22mR0        = 8 (opcode)
                    R1        = shared type

          [1mResults   [22mR0        = error code
                    R1        = shared size

          [1mParameter description[0m

          Shared typeThis is a type code for a shared page group  which
                    must  have been declared by another task.  On suc‐
                    cessful return, the number of pages in  this  page
                    group is returned to your task.

          Error code0  =  No Error.  The shared page group of the type
                    you requested was already defined and its size was
                    returned to you.

                    6  =  Invalid shared type.  The type you specified
                    was not in the range >01:>FE or has not  yet  been
                    defined for use by another task.

          Shared sizeOn  successful return, this will contain the size,
                    in 8k pages, of the specified shared page group.















                                       GenREF v1.00                MEM ‐ 23


               [1m____________________________________________________________[0m
                                        [1mFREE TASK[0m
               [1m____________________________________________________________[0m

               [1mFunction  [22mThis routine can not be directly used by tasks un‐
                         der MDOS, it is reserved for use by system library
                         functions.

                         This is used to free all memory pages, except  the
                         task’s  header,  from  the  task’s list of virtual
                         pages.  If the task is using a shared page  group,
                         its  reference  to  the group will be removed, and
                         the group itself will be removed if this  was  the
                         last task using the shared page group.

               [1mParameters[22mR0        = 9 (opcode)
                         R1        = first node

               [1mResults   [22mR0        = error code

               [1mParameter description[0m

               First nodeThis is the MEMLST pointer from the task’s header.

               Error code0  =  No  Error.   The pages belonging to the task
                         were freed.

                         >FFFF = Invalid opcode.   You  attempted  to  call
                         this from a user task.


               [1m____________________________________________________________[0m
                                     [1mGET MEMORY PAGE[0m
               [1m____________________________________________________________[0m

               [1mFunction  [22mThis routine can not be directly used by tasks un‐
                         der MDOS, it is reserved for use by system library
                         functions.

                         It is used to get a single memory page, by specif‐
                         ic physical page number, or by speed priority.

               [1mParameters[22mR0        = 10 (opcode)
                         R1        = physical page
                         R2        = speed flag

               [1mResults   [22mR0        = error code
                         R1        = node pointer















          MEM ‐ 24                GenREF v1.00

          [1mParameter description[0m

          Physical paIgfethis is in the range >00:>FF, MDOS will  return
                    a pointer to the memory node for the page, only if
                    the page is currently unassigned.

                    If this is larger than >FF,  MDOS  will  return  a
                    pointer  to the memory node for the the first free
                    page in the system with the specified speed attri‐
                    bute.

          Speed flagThis  parameter  is used only if the physical page
                    number specified is larger than >FF.  If  this  is
                    zero,  MDOS  will  allocate  the first memory page
                    available in the free list.  If this is  non‐zero,
                    MDOS  will attempt to allocate the first zero wait
                    state page available from the free list, if  there
                    are  no zero wait state pages available, MDOS will
                    allocate the first free page it finds.

          Error code0 = No Error.  The page was reserved as specified,
                    it  is  not  assigned  to  any task, and it is not
                    available for use.

                    1 = Page not available.  The  specified  page  was
                    not free, or there are no free pages in the entire
                    system.

                    >FFFF = Invalid opcode.   You  attempted  to  call
                    this from a user task.
          Node pointeTrhis  is pointer to a 4 byte memory node inside of
                    the memory library’s address space.


          [1m____________________________________________________________[0m
                                [1mFREE MEMORY PAGE[0m
          [1m____________________________________________________________[0m

          [1mFunction  [22mThis routine can not be directly used by tasks un‐
                    der MDOS, it is reserved for use by system library
                    functions.

                    Adds the specified physical page to  the  list  of
                    pages available for use by user tasks.

          [1mParameters[22mR0        = 11 (opcode)
                    R1        = page number

          [1mResults   [22mR0        = error code

          [1mParameter description[0m

          Page numberThis a simply a physical page number to be freed.











                                       GenREF v1.00                MEM ‐ 25

               Error code0 = No Error.  The page was reserved as specified,
                         it is not assigned to any  task,  and  it  is  not
                         available for use.

                         8 = Out of table space.  MDOS was unable to create
                         a free page because there weren’t  enough  virtual
                         pages  nodes available to create a new page in the
                         free pool.

                         >FFFF = Invalid opcode.   You  attempted  to  call
                         this from a user task.


               [1m____________________________________________________________[0m
                                     [1mFREE MEMORY NODE[0m
               [1m____________________________________________________________[0m

               [1mFunction  [22mThis routine can not be directly used by tasks un‐
                         der MDOS, it is reserved for use by system library
                         functions.

                         This  operation will add the specified 4‐byte node
                         to the memory nodes available for use by the other
                         memory management library functions.

               [1mParameters[22mR0        = 12 (opcode)
                         R1        = node address

               [1mResults   [22mR0        = error code

               [1mParameter description[0m

               Node addresTshis  is the address of the 4‐byte node within the
                         memory management library’s address space.

               Error code0 = No Error.  The node was added to the free node
                         list.

                         >FFFF  =  Invalid  opcode.   You attempted to call
                         this from a user task.


               [1m____________________________________________________________[0m
                                     [1mLINK MEMORY NODE[0m
               [1m____________________________________________________________[0m

               [1mFunction  [22mThis routine can not be directly used by tasks un‐
                         der MDOS, it is reserved for use by system library
                         functions.

                         This is used to link memory  nodes  together.   It
                         can  be used to link page nodes onto a task’s vir‐
                         tual memory list, to link page nodes to the system
                         free  page  list,  and to link nodes into the free
                         node list.









          MEM ‐ 26                GenREF v1.00

          [1mParameters[22mR0        = 13 (opcode)
                    R1        = new node
                    R2        = old node

          [1mResults   [22mR0        = error code

          [1mParameter description[0m

          New node  The node to be inserted into a list after the  old
                    node.

          Old node  The node, in a node list, after which the new node
                    is to be inserted.

          Error code0 = No Error.  The nodes were linked together.

                    >FFFF = Invalid opcode.   You  attempted  to  call
                    this from a user task.


          [1m____________________________________________________________[0m
                            [1mGET MEMORY LIST (system)[0m
          [1m____________________________________________________________[0m

          [1mFunction  [22mThis routine can not be directly used by tasks un‐
                    der MDOS, it is reserved for use by system library
                    functions.

                    This  routine  will  return  a task’s virtual page
                    list to location >1F00 in system page zero.   This
                    is used primary by the DSR routines to locate data
                    pointed to by a task’s PAB buffer address.

          [1mParameters[22mR0        = 14 (opcode)

          [1mResults   [22mR0        = ‐1 (error code)
                    R0        = page count (no error)

          [1mParameter description[0m

          Error code>FFFF = Invalid opcode.   You  attempted  to  call
                    this from a user task.

          Page countThis is the number of valid pages in the page list
                    at >1F00 in system page zero.  This count is  also
                    returned at >1FFE.















