EESchema Schematic File Version 4
LIBS:Garnet-cache
EELAYER 29 0
EELAYER END
$Descr A4 11693 8268
encoding utf-8
Sheet 3 4
Title ""
Date ""
Rev ""
Comp ""
Comment1 ""
Comment2 ""
Comment3 ""
Comment4 ""
$EndDescr
Text Notes 4900 1000 2    118  ~ 0
Populate one or both to provide\nkeyboard / joystick functions.
$Bitmap
Pos 5850 6950
Scale 1.000000
Data
89 50 4E 47 0D 0A 1A 0A 00 00 00 0D 49 48 44 52 00 00 01 C9 00 00 01 46 08 02 00 00 00 8E BB F3 
2B 00 00 00 03 73 42 49 54 08 08 08 DB E1 4F E0 00 00 00 09 70 48 59 73 00 00 0E 74 00 00 0E 74 
01 6B 24 B3 D6 00 00 20 00 49 44 41 54 78 9C ED BD 31 6F DB 4C D4 EF F9 9F C5 AD B7 A6 00 B9 10 
90 EA C5 75 E3 4A 14 90 46 80 3F 40 48 28 80 A9 2A 08 76 6F E1 CE F0 56 92 9D 37 32 55 6D E0 CE 
0B EC 02 41 2A 51 B8 11 C4 14 5B 1A 50 13 80 54 65 60 11 E0 AD 02 A8 B0 00 F1 5B CC 16 C7 19 8F 
29 52 22 25 5A A2 92 F3 2B 9E 27 1E 71 86 87 C3 E1 E1 CC 99 E1 FC 85 94 12 0C C3 30 4C A1 FC 2F 
FB 36 80 61 18 E6 2F 84 7D 2B C3 30 4C F1 B0 6F 65 18 86 29 1E F6 AD 0C C3 30 C5 C3 BE 95 61 18 
A6 78 D8 B7 32 0C C3 14 0F FB 56 86 61 98 E2 61 DF CA 30 0C 53 3C A9 BE 35 04 84 E8 8B 3F D8 42 
60 EE 45 80 77 E3 79 F3 48 08 5B A4 10 DE 08 55 88 B8 09 63 BF F6 85 00 C2 08 10 EF 3D 95 88 69 
7F 27 17 CB 30 0C B3 2B E4 12 0B 29 D1 1A 3C FD 1A BA B1 C4 41 0B 52 2E A4 94 96 B7 A0 63 16 9E 
45 C7 A8 14 75 8C 94 32 90 12 70 01 58 80 7C 1C E8 27 1A 3C CA A0 67 2D 1B C0 30 0C 73 E8 C4 FB 
AD 11 50 79 EF 61 D4 76 01 29 03 D4 3B 94 6E 00 F2 BB A3 BC 27 80 93 9A 11 CB 7B 77 66 90 FF 6D 
8F 80 E9 57 4A AC 01 68 D5 12 DD 7A AD 0A E0 64 A3 37 02 C3 30 4C A9 89 FB D6 F3 61 84 51 1B C0 
47 CF 02 CC D8 AF 77 67 06 8E 07 69 65 19 00 8E 9F DC 68 34 7B D8 D8 26 3D 1C 11 DE 08 7B 18 D1 
BF BD F7 02 88 62 7F AA 5C FD 29 96 E3 12 DE 1C 2A 7C E1 0D 6D 55 2C 47 21 18 86 79 55 5E F8 D6 
10 F0 9D AF 00 2C C0 78 6B 2F 1F 6D 00 CE 95 43 5E 74 99 08 C0 AF D9 8A EC 19 31 81 40 76 28 92 
D0 B8 C6 1D CE 07 8F 12 B0 DA 23 08 51 D1 FF 8C 86 E7 94 C5 1E 46 0F A6 90 8F 03 0A 41 34 AE 11 
0D 6D 00 4E 15 6E 38 A6 63 66 8E 2F 65 D3 0D 25 00 DB EC 62 EE 6D 6C 21 C3 30 CC 6A 5E F8 D6 D9 
1C C0 E6 FD 4D EA F3 5A C0 F8 71 80 AA B3 AD 69 00 80 A0 07 E3 6C AC A2 07 B1 3F 67 BF 7D 00 11 
E0 FF 98 F8 40 F4 73 AC 32 D2 4F 78 8A 3C 58 F8 D3 13 6F D6 01 B8 3E 10 7E 6B 17 62 21 C3 30 CC 
32 05 AC C1 AA 38 3E 0D B4 7D A7 12 F4 30 96 B2 28 C7 9A 11 3D 16 A1 98 FD 82 1E 31 50 A8 F8 6F 
DA 01 0C C3 30 DB 53 80 6F 5D 78 16 0D D2 01 34 AE B1 97 50 A6 BC 32 A5 94 5F 6B E3 86 10 40 77 
F7 06 30 0C C3 E8 BC F0 AD 4E 15 E8 5D 02 88 8D AF D7 A2 87 35 B3 87 32 67 73 D4 DE 64 3F C9 2A 
68 FA 0B A6 08 64 40 81 5A 86 61 98 3D 12 EF B7 0E 3E 98 D4 03 FD EA F8 40 18 FB D5 9B 23 1A 26 
77 4B 3B 75 A0 17 00 F0 81 FE 51 5B E5 55 03 76 1F C0 7C A6 67 99 CD 61 24 AF CE CA 47 08 34 44 
1F E8 26 AE 6D 88 31 03 30 9A 01 A8 1D 23 6D 52 8E 61 18 66 4B E2 BE D5 A9 62 F0 38 06 AC 2E D0 
17 0D DD BD DA C3 08 17 C2 38 FB 48 7F 3E CC 9E 82 95 6A D6 68 71 65 D2 FA D6 2E E0 BD 6F A8 68 
A6 F2 D7 7D B3 AB 0A EC 4F 51 BB 15 A8 7F DC C0 E8 D8 9C 9B FA 73 F6 DB 5F 31 1D 47 6F 0B 3A C0 
02 CC 0F A9 8B C9 18 86 61 B6 25 ED A3 02 5A AB A4 A3 BE BF 52 D1 D5 17 E5 84 AE D4 BE C2 D2 13 
E5 CB 6F BD 88 A0 97 7A EA 58 21 03 CF 5A F1 E7 C2 B3 F4 C2 07 2D A0 37 D0 4F A1 AC D5 33 2A C3 
18 86 61 5E 03 21 FF 76 2D 42 6F 8E F6 91 0D F8 0B CF 32 CE 72 04 91 19 86 61 36 86 F7 C1 62 18 
86 29 9E BF DF B7 CE E6 A0 89 34 86 61 98 9D F1 97 FB 56 6F 8E AE F9 F4 F5 6D C5 F1 63 5B 10 30 
0C C3 BC 12 7F 7F BC 95 61 18 66 F7 FC E5 FD 56 86 61 98 BD C0 BE 95 61 18 A6 78 D8 B7 32 0C C3 
14 0F FB 56 86 61 98 E2 61 DF CA 30 0C 53 3C EC 5B 19 86 61 8A 87 7D 2B C3 30 4C F1 B0 6F 65 18 
86 29 1E F6 AD 0C C3 30 C5 C3 BE 95 61 18 A6 78 D8 B7 32 0C C3 14 0F FB 56 86 61 98 E2 61 DF CA 
30 0C 53 3C EC 5B 19 86 61 8A 87 7D 2B C3 30 4C F1 B0 6F 65 18 86 29 1E F6 AD 0C C3 30 C5 C3 BE 
95 61 18 A6 78 D8 B7 32 0C C3 14 0F FB 56 86 61 98 E2 61 DF CA 30 0C 53 3C CF BE 35 02 C4 7B 4F 
FC 21 1A DA 00 BC 39 84 B0 55 22 A6 FD A2 4E EC CD 61 0B 1B 73 2F 6F 46 7B 18 F5 85 00 C2 9D 65 
D4 E9 4F 61 0B B1 81 D9 D9 11 37 61 78 23 96 D3 ED 61 B4 77 0D F0 FE 14 DB D7 E1 7E D1 DB F9 72 
7B 0E 01 21 FA F4 2B D5 76 FF 26 0C 11 AA 44 85 5E 0F FD 29 96 D3 F5 13 ED FD C6 31 7B 40 BE C4 
0D A5 05 C8 C7 81 9E 88 5E 30 68 41 CA 85 DC 37 96 B7 00 E0 02 52 06 BB C9 A8 E3 86 12 C0 72 FD 
14 08 7A 01 80 A0 17 BF 2F 64 7F 49 EE C2 41 83 5E 20 43 57 26 B5 6A AA E4 85 67 D1 9F 83 47 09 
58 AA CD 58 DE 42 1D 1F FB 49 4A 19 48 09 B8 2A AF C2 0D E5 72 22 F3 2F 90 10 13 38 01 50 AD ED 
D0 BD AF C7 9B 23 1A F6 01 8C CF 0C 7A 00 F2 B2 71 46 9D 4E 1D E4 5E 5F 0F 79 65 92 7B 8D 51 88 
FD D9 E9 0F A3 A2 FA E6 FD 9B B0 3C FD DC 10 B0 AE 27 D4 BC E5 95 E9 7C 97 80 41 3F 79 73 F8 CE 
F9 C2 B3 8C B3 31 A5 38 55 04 72 0C B8 CB E5 38 55 58 DE 5D 17 C0 74 42 29 35 00 AD E4 A7 C6 A8 
9D 14 7D 1D CC 01 70 00 F1 D6 08 68 5F 78 C0 C3 BE 0D F9 57 F0 E6 78 70 CE 0B 29 AA 3F 05 AE 1B 
85 14 55 08 B3 39 D2 1A 52 FB 5B E8 C2 37 CE 2E F5 44 13 80 F7 11 F3 D9 0E 6C 63 FE 32 36 F1 AD 
2A BA A4 42 4B 14 A5 F2 86 B6 10 7D 0A 47 EA C1 26 0A DD 2E 17 12 CB 6E 0B 11 CE BD F0 E6 45 08 
CC 9B A3 22 6C 8C DA 15 C7 D7 03 9D 2A 2E A6 87 26 ED 61 94 25 BC A5 F2 2A 03 62 19 63 7F AA E3 
55 78 4E 85 A1 F5 13 E9 41 37 75 C9 7A FC 4E 9D 8E 82 B6 FD A1 B7 7C 8A C4 48 EB 32 7A 1C 3C 8B 
CD CB B6 51 0A 55 A9 7E B0 3D 8C DA 47 C2 87 2F 8E DA CB D5 A8 C7 7C 29 7E AD 62 91 CB 96 8B 9B 
B0 6B 8A 2E 20 44 83 7E D5 6B 83 0C 5B 6E 39 CB C5 AA B6 A4 4E BD A2 C1 2C 57 BB 6E B0 BA B4 58 
D0 3C 04 70 3D A9 B5 40 1D 50 9D CE 99 81 AA 13 4B EC 4F E1 3B 95 41 0B A8 7F CC 72 BF 54 ED BD 
76 B0 9E 29 11 B1 18 41 DA 98 57 45 9A DC 50 AA 68 20 45 A0 02 B9 A0 71 93 0A 3F 2D A4 B4 5A 03 
0A 4A 52 1C 8A 22 5C B1 B3 A8 E3 29 04 B6 90 12 AD C1 72 A8 31 16 C9 D2 23 A7 7A 74 D8 F2 16 EA 
18 F4 82 C4 90 A5 CA A5 07 DA 12 33 0E 1E A5 05 4B C5 55 5D 6F 41 FF 26 CB 29 3B 05 DD E8 78 37 
94 EA 72 E8 18 2A 53 15 A8 AE 42 D5 B0 B2 90 2E 9C 8E 1F 84 12 2D 6B D9 78 A9 C5 FB 5E 1C FF 28 
01 8B AA 77 85 CD 89 B6 E9 B5 A7 DF A6 C4 98 BB 7C 19 F3 55 01 8A E5 1B 91 58 E7 74 0A 17 2E FD 
9B 4C 0D 1E 07 B1 96 B3 5C 2C FE 04 B8 75 0B B3 34 18 3A 92 FE AD C7 49 F5 2A 8A 65 59 1D CE D6 
63 32 CB 81 7B FD A6 E8 B8 A1 8C 35 7E E6 1F 21 C1 B7 2E B7 1B 15 F5 A7 06 A4 FB 5C BD DD AB 86 
B5 EC A0 97 1F 00 FD 44 AB E7 CA 96 7D AB CA A8 1E 15 3A 46 3F E3 F2 55 50 46 CB 7B F1 34 AE C8 
A8 DC E2 42 CA 41 6F A0 5E 2D BA 13 A1 32 17 32 88 3D 57 B1 2B 22 0F 98 E8 D4 E8 4F 75 70 9A BF 
90 2F E7 52 62 F5 AC 9E DE 65 9B 97 9F 79 65 5B 5E DF 1A B3 21 F1 46 2C 1F BF EC 37 15 0B CF 5A 
9E 02 4A 2B 56 3F 72 75 83 89 55 94 7E 39 5B FA 56 55 6F 7A 9D 13 EC 5B 99 18 9B C4 04 F4 B6 32 
96 72 79 C4 84 A5 19 6D F3 6A D5 14 D0 E0 83 D9 1E 59 42 54 B6 19 31 C5 DC 41 47 4A 0A 97 E9 74 
01 DF 69 4F AE A1 CF AE A4 65 74 4F CD 2F D7 C0 DC FB 3A 85 73 3A 53 93 1E 3A 27 35 03 C0 0C C0 
E8 45 48 CE 7A 53 9B 8D 00 CC 68 70 8A 0B B1 90 77 B1 D7 D2 B3 55 F7 CF C6 18 00 8E D7 4F 24 52 
4C A0 79 2F 62 EF 86 65 9B 57 D8 B6 F6 2C 85 13 7B 67 A8 59 A3 BC AC 6E 30 FE EF 17 97 56 AB C2 
87 B5 3A 66 4A 33 51 19 AB A5 53 07 7A 41 DF EC 96 67 8E 8E 29 21 9B F8 D6 68 B6 7E 5A 29 D7 D3 
EB 54 21 E5 38 90 D2 87 6B 1F B5 37 73 AF 3E B0 76 CE 81 FA 98 DD D6 C0 7B DF 50 91 C4 B4 8C 1F 
EB F0 5B 83 F0 5B 1B F7 21 EA CD C4 02 1F 66 51 AD 85 1A 6A 68 D5 26 3F 7C 3D 3A 59 6B 21 42 AD 
F1 DE 5B 78 0F FA 7C F4 32 79 9D 5D 08 B4 8F FA 32 3C 59 7E 63 2D DB 4C 5E 63 D9 B6 E5 C0 E2 0E 
98 FD 42 21 CB 3C 57 37 18 EB 4D 6D 3C 02 E6 93 E7 14 AC 59 FA 62 00 EE 85 D3 05 A2 E1 97 D8 4F 
F6 30 5A 5E 06 1B 5C 99 5D B8 E1 CD F3 34 1D BD 14 63 F5 0C E0 E1 3E 2C DB AA 1B 66 37 24 F8 D6 
07 A4 3A 29 6A 82 15 C7 7F 9E D5 19 46 CB 6F EF 8F 75 E8 FE 2B 04 A2 61 82 BB 54 27 B2 6F 42 CC 
3D 13 08 64 67 79 C9 8B 5A DD E2 4D 91 E6 76 4D C0 F2 3E DA 66 57 1D E0 0D C3 C4 C7 D8 00 82 EF 
4E 7B E4 46 C3 F3 D5 19 E9 62 1B D7 F8 F8 E6 8B DE 05 56 BE 98 56 ED 38 17 AE 01 C3 BD 70 DA 23 
50 99 21 E0 3B 5F 9D 0B 97 9E B8 D9 6F 1F C0 64 0E 8C 92 BB 69 F6 5B A3 0B 8B 1E 54 6F 0E 5C 7F 
69 5C 23 71 52 4B 77 C1 F4 86 9B 4C 01 74 F5 AB 8B D9 4C 29 89 B6 E9 1D BA 2F C3 08 E8 0A B3 8B 
69 BF 56 05 B9 A3 C4 3A CC F5 1A A0 7E 7D 04 84 43 EF F2 CC 68 8F DC F0 A6 F2 54 CF 73 60 BA E1 
18 65 75 83 B9 3C 33 7C B8 DE 45 9B 8C 6F 7F 0B 2F 7B BE 1A 5D A5 BD 4A A9 37 5A 71 7C 7D EA D5 
1E 46 77 38 47 BD 43 7F AA 6B 37 81 C1 63 A7 71 6D E9 D3 7D EE A9 A9 EA 99 10 37 E1 25 1A 89 03 
3B E6 EF 47 0D D0 62 B1 54 7D AA E4 F9 E0 D0 95 2F 03 67 2A 64 A6 E7 92 2F E3 98 CB A1 4F 15 28 
A4 F1 B8 D5 0B D0 B2 62 25 E8 A8 15 F5 FA 5C C7 E0 31 50 B6 A9 29 8E 98 A9 0A 3D 63 20 03 65 DB 
EA 8C FA A4 5C 9A F1 CB E9 7A 21 CF E7 6D 01 2D 17 C0 FF F8 DF B0 9C 5D E5 1D B4 80 5E 42 BC 35 
36 C9 A3 0C 76 7B 94 F6 5C 6F AB 6D 8E 5D A0 2A 67 E0 59 B1 F9 9F D5 75 68 79 FF EF 8A 1B A1 A0 
F6 A3 87 3B D5 91 FA 2C A8 B2 3F ED FE 06 A1 AB 1F B9 B6 C1 E8 CD 4F 9F 7A 55 95 90 16 5A 8D 4D 
15 50 E1 B1 C0 CB F2 CD 55 A7 88 3D 2F B1 FB 68 79 8B 57 FD F0 84 29 15 42 CA D7 5D 0C 7F D0 44 
C0 E4 C6 73 AE 9A 2B 46 F4 65 E3 10 6D 66 98 BF 8F 03 F8 76 60 8F AC 98 C5 2A 2D 87 68 33 C3 FC 
7D B0 6F 4D 40 AD CC 6F DE 0B 15 6B 2B 39 87 68 33 C3 FC C5 70 4C 80 61 18 A6 78 B8 DF CA 30 0C 
53 3C EC 5B 19 86 61 8A 87 7D 2B C3 30 4C F1 B0 6F 65 18 86 29 1E F6 AD 0C C3 30 C5 C3 BE 95 61 
18 A6 78 D8 B7 32 0C C3 14 0F FB 56 86 61 98 E2 61 DF CA 30 0C 53 3C EC 5B 19 86 61 8A 87 7D 2B 
C3 30 4C F1 B0 6F 65 18 86 29 1E F6 AD 0C C3 30 C5 C3 BE 95 61 18 A6 78 D8 B7 32 0C C3 14 0F FB 
56 86 61 98 E2 F9 6F FA 1F 9F 3F 7F DE 97 1D 0C C3 30 87 C8 7F FD D7 7F FD CF FF F9 3F 97 D3 FF 
5B EC EF 4F 9F 3E ED C4 1E 86 61 98 BF 81 E3 E3 E3 C4 74 8E 09 30 0C C3 14 4F BC DF 4A A4 79 E2 
7F 8A FF F8 8F FF A0 AE FE C1 D5 46 49 2C DF DE 8C C3 2D 61 97 B9 5E 03 B6 64 2D CA B0 34 92 7D 
2B 80 5F BF 7E BD 82 3D 87 84 1E 7D 3E AC DA 28 89 E5 DB 9B 71 B8 25 EC 32 D7 6B C0 96 AC 65 ED 
EC 14 C7 04 18 86 61 8A 87 7D 2B C3 30 4C F1 B0 6F 65 18 86 29 1E F6 AD 9B 60 0F 23 F1 87 BE 10 
40 D8 9F 02 D3 FE DA E3 A3 A1 BD 4B 3B 13 6D 58 61 E7 0E 88 00 F1 DE F3 DE 0B 20 DA 20 7B 08 08 
D1 DF E6 42 B6 2F 41 D1 9F 22 D7 85 78 73 08 61 D3 A9 C3 1B 91 EB 5C 74 FB A8 B1 E5 B7 B4 00 C4 
4D 28 34 6C 21 30 F7 F6 62 89 82 6E 65 96 9B D8 9F 62 B3 AA EB 4F B1 F1 95 B2 6F CD 07 DD 4E DF 
A9 04 3D 48 29 A5 94 4D 29 85 98 74 CD 55 8F CA DD 99 81 D6 60 67 46 2E D3 9F E2 C4 A9 48 19 04 
52 0A 73 D5 6B E0 55 09 81 8A E8 63 D4 DE 2C 7B 04 4C DE 7B 52 36 A5 94 96 B7 10 66 37 EF 85 84 
C0 44 F4 55 09 7D B3 BB B1 AB 0A 81 AE 99 EF EC B3 6F A1 94 97 D4 6C CC 2B 99 FD 44 42 F4 E9 F6 
75 A4 04 CC FC C6 6E 4B 08 2C DE CC E4 1F 06 8F D2 6E 59 A8 36 77 6F 89 CE 97 61 04 74 BD DB EE 
EA D7 5B 7F 8A D5 8F 67 E1 19 09 F6 AD 39 88 80 C6 7B 0F E8 06 3D A8 67 C3 04 16 B2 B3 5F D7 B9 
9A 08 E8 DE 7A 9D D0 05 4C 13 70 C3 CE DA E6 F8 4A 98 80 94 1D CB 5B 6C 96 7D 32 45 E7 96 8A 79 
7A 5D 85 F7 DD 5C 25 D4 E6 E8 C8 8F 54 C2 E5 99 F1 00 17 F3 D9 86 C6 DC 84 96 57 CB 7E BC 37 C7 
C7 37 93 BC 9E 31 04 1A A2 1F F4 BA FB F2 AA 44 6D 0E E3 EC D9 93 8E 7F 46 CD 77 00 8C 7D D9 03 
6A BE 3F 26 56 CF 1D 8F 80 F9 64 C5 91 9D 3A DC 30 EB 9B AC 90 8C 04 FB D6 1C 9C 0F 23 8C DA 16 
60 7E 78 E1 49 0D C0 BD 70 F6 65 D5 5A 26 73 58 A3 31 AA 4F 8E A0 56 C5 78 64 AD 6E 8E E5 C4 A9 
03 D5 A7 7A 36 00 1C E7 70 6D 4F B9 AA 50 1E 61 36 C7 65 EF 41 15 98 8B FE 14 9D D3 09 90 A3 E3 
D6 FE 16 56 9C 6E DE 40 44 E3 26 74 D1 35 AF 82 FC 36 16 89 5E 6F E4 D4 8C B7 7B 8B 6E 11 5F A7 
B8 3C 6E DB 1F 3A 3E AC E8 E7 78 BF C6 24 C2 BE 35 07 FE EF 19 80 13 40 F9 29 45 A7 0E D4 3B F8 
13 4F A4 98 54 62 30 4E C5 FB FA 42 44 08 E9 60 8A E9 E8 3F F5 A7 A1 0A D1 AA 38 9D 2A 50 05 4F 
BD A1 AD B2 A4 0D 6F 67 73 9C C0 D7 7D AB 8F 93 8D FB 6B 25 21 02 F0 6B 66 9E BA 9B 65 F7 E6 C0 
85 6D 5E DD 6D 90 37 04 9A F7 7D BA DD D9 91 57 A6 94 D2 0D A5 30 BB 19 83 AD 21 80 EB 49 CD B3 
84 98 EC 37 D8 AA 33 99 C3 C6 78 EF 01 81 EE 7D 68 9E BA 4E 15 E8 5D 4E 7E F8 B9 C6 61 FA 7C 89 
FE AA 53 E9 CB 55 AD 9E EB EC E1 57 F6 AD 59 A1 87 79 ED 31 95 F7 9E 3B 6A 53 64 B3 3D 72 BD F7 
95 D8 5D 37 81 C1 63 07 B0 00 18 C0 E0 D6 A1 7F D3 4F 6E D8 01 D0 05 9A F7 8D C1 A3 04 AC 8A E3 
E3 42 04 F2 0E 70 DB 23 60 FA 15 5A 00 77 E6 F8 0B D9 44 6B D0 05 30 3D BC AE E8 C6 4C E6 18 60 
8C FA C7 0D F2 DA C3 A8 7D 24 DA 23 BF 2F 2A 1B 78 AB C9 4D 68 5E 6D E8 59 3A 75 04 52 36 AE DD 
2C BD D7 C9 14 40 17 3F 20 65 73 21 65 B7 35 E8 8B C6 DE DD 6B 19 02 02 DE 1C 83 5F 5F E8 EE BB 
A7 A6 7A 2E B2 60 0F 23 FB 47 45 CA 45 2C 6A AF D2 03 29 BB 70 C3 9B 86 9E 6B 32 87 3B 1A 4B 19 
8C A5 CC 38 D6 61 DF 5A 24 5F A7 C0 A8 5D 6B 01 A8 D5 00 B4 6A B9 EE BA C2 05 D4 30 D0 02 9C DB 
41 5A 53 FE E8 59 2A 0C 17 CD 1E B2 14 3E 9B 03 C8 74 64 99 19 7F 0B 9D 5B 7B B3 27 7C 7C 66 D0 
73 D5 05 A2 E1 97 5C 79 BD 39 3A A7 B3 6D 42 9F 26 60 79 1F 33 46 8A 5D C0 F9 7E 09 98 14 77 DA 
FB 1B B4 24 01 01 DD BF 37 EB 00 DC 8C F5 19 02 BE F3 D5 B9 70 29 AF 8A DA 87 00 9C AF F4 A0 D1 
AC 80 3E D9 D8 FF 09 5C 88 8E BC CB 75 DF D9 B7 66 C5 00 AC 77 4D 90 5B 4A 19 50 3F CC 12 06 26 
19 5D DE EB 51 AB E2 01 96 6E B3 85 84 B0 C6 01 61 0F A3 F1 E9 64 B3 50 A9 62 B3 C5 1B ED 6F A1 
30 DB 34 72 F4 9D 4A 7B 04 21 2A 79 97 2B 9C D4 36 79 25 90 13 D9 20 63 81 CC 00 1B B3 FD 06 04 
C8 3F 56 1C 9F EE 42 43 08 A0 3B B9 A6 5F 5E 04 E5 96 C7 EF B1 8E 05 45 ED 67 BF 30 9B 47 69 1D 
0E 1F E8 3A ED B5 33 66 CB B0 6F CD 81 FD D6 00 2C 1F 08 BF C5 57 11 79 C3 08 08 13 9F 19 A3 76 
B2 13 EB 52 69 56 E1 B7 6C E5 5B C7 3F 23 BB E5 EF 3D 5E B6 31 FD 29 EE 70 9E 37 DC B9 0C 3D 57 
79 EF 0E 85 4D 09 CB 5B 0C 5A 90 72 91 D7 98 87 59 94 25 52 DC AC A3 0B 57 75 54 67 73 58 78 D8 
EF 4B 71 32 45 F3 DD C3 7E 03 02 93 29 82 5E 57 6A 0C 1E 65 17 16 55 94 01 C8 EF 0E A5 2F 8F DF 
6B 55 00 27 B1 4E 6E ED 18 B5 AA 91 36 09 61 01 F2 71 E0 F7 82 FE 51 3B 57 40 86 7D 6B 0E 9C 2A 
DC 70 0C A0 71 0D FD 2B 00 71 13 36 71 0E 98 1F EB 40 6B 30 1B 01 98 CD 00 8C 66 83 16 D2 62 82 
D4 FF 9D CD 01 F8 AF 6A 36 0D 27 69 DD 55 6C 4C B4 17 68 4A 70 33 FA 53 34 EF 85 71 F6 34 2F DC 
1F 46 1B AF 60 D7 63 76 BB C4 9B C3 FE 71 9E E5 BC 14 3D 50 8B 70 DB DF C2 CB 9E BF 65 6F 7D 4B 
1E EE C3 FD 06 04 42 E0 C1 EC C7 16 EA D0 8C D6 EA D5 CA F4 B8 51 95 36 AE 9F 96 78 7B 73 58 D7 
5F CC 0F 03 13 40 AF A9 4A 88 00 EF C6 D3 67 4A 16 57 66 B7 35 88 05 61 D7 A0 BB FF FF FC CF FF 
A4 7F FC F7 FF FE DF A5 94 0B 29 D1 1A D0 9B 59 FE 7B C4 6A 43 41 D5 F2 A2 0E 43 57 FD 1A 48 A9 
06 6E AA EA F4 15 9D 74 30 7A 7F C2 A9 2D D0 18 7D D0 42 20 17 CF 79 7B 50 67 19 B4 80 DE D3 BF 
E9 2D AA 0A B4 00 AB E7 EA 3F A5 59 AE B2 E8 D6 BE 2A CB 66 E8 95 A3 AC CD 5E C2 F2 C2 D8 B5 8D 
33 56 82 BE 5C 31 63 C3 4E 6B 06 52 EB B7 AE CD 45 D3 92 6B CF 9B 78 2E D5 54 D4 E7 2A 3B 20 D1 
92 40 CA 41 CB DD B1 37 D0 2D D1 AB 51 35 E3 D8 F3 B8 DC BC D5 4D 57 4D 4E 7F 7C F4 46 A8 AA 9A 
CA D1 33 2E 1E 07 EA 2C 0B CF 92 2B 1B 06 91 BA C7 20 FE F4 AE 81 F2 AE DC DC 0B AB AB 85 02 E1 
C0 8B 41 E2 F8 CC C0 D9 8B 45 C8 F2 CA 44 D2 97 39 7A 5E 47 FD 87 FE 77 F5 7C C6 F1 19 5E 14 78 
B5 7E 4C BA 6C C3 EE 49 AC 9C EC 6C 7F 09 9D 3A 3A B2 B0 4A C8 6E 8F 53 85 23 37 5C 83 99 D6 54 
76 8F 09 98 DF B7 0D C5 6C 43 62 35 AE 75 53 CB 37 3D ED C6 C5 AA BA 83 17 19 E5 77 E4 72 86 1C 
13 60 18 86 29 1E F6 AD 0C C3 30 C5 C3 BE 95 61 18 A6 78 D8 B7 32 0C C3 14 4F F2 5C D6 7F FC C7 
7F AC 55 83 F9 77 38 DC DA 28 89 E5 DB 9B 71 B8 25 EC 32 D7 6B C0 96 6C 8C 90 DA 44 D8 E7 CF 9F 
3F 7D FA B4 47 6B 18 86 61 0E 8B E3 E3 E3 44 91 44 8E 09 30 0C C3 14 4F 72 4C A0 6C 52 E0 7B A1 
B4 C2 E8 6B 29 89 E5 DB 9B 71 B8 25 EC 32 D7 6B C0 96 AC 45 19 96 46 EA B7 03 A5 92 02 DF 0B A5 
15 46 5F 4B 49 2C DF DE 8C C3 2D 61 97 B9 5E 03 B6 64 2D 6B 83 BF 1C 13 60 18 86 29 1E F6 AD 0C 
C3 30 C5 C3 BE 95 61 18 A6 78 56 F9 D6 FE 14 22 09 5D 4C 46 57 7B 8F 89 CC 28 95 A7 8D 05 BE F5 
6D 6E F5 3D FD 0A 29 BC 58 74 E9 79 1D 65 36 1D 90 57 95 3E 02 EC F7 1E 5D 60 7F 8A BC D9 63 45 
89 F7 5E 4C C2 4B BF 7D BB 11 D6 DE DE 8C C4 12 14 FD 29 D2 7E 5A 5B 82 7E 13 57 57 B5 B8 09 63 
F7 37 0B 2A 57 F6 FB A8 3F 83 D4 D4 97 9F CA 5C 36 6C CC B2 25 D8 E8 8A 0A 84 E4 AD 4A 22 23 B6 
CC 2A DF DA A9 43 ED DF A5 76 EE 42 2F E8 02 B6 68 50 E5 D2 CE 46 FA DE 5F 44 08 B4 8F FA B4 33 
A9 0F D8 47 ED 0D 3C A0 01 2C BE 3B 89 9B C3 3B 55 0C 1E C7 B1 93 EE 11 A7 0A 29 C7 B4 47 19 6D 
41 A6 D4 AE B6 69 FA 33 E0 64 34 A3 ED 90 1F 66 51 ED CD 86 D7 1B 02 15 D1 C7 E8 C5 96 DE 11 30 
79 EF 49 D9 94 2F 85 83 5E 8F 44 33 42 60 22 FA CA 8C D5 BB 70 26 96 A0 FF DA 35 D7 5C C2 8A 12 
66 DF 42 29 2F A9 9D 9B E9 5B 4F 89 9B 30 40 43 4A 19 48 59 71 4E 32 DE 5F 71 13 0E 7E 35 68 83 
BE 06 82 8C CE 48 3D 83 41 0F B4 D3 73 6D 16 AA 5D FE 16 52 5A AD C1 6E 36 54 5D B6 C4 1E 46 F2 
74 42 4D BD 71 6D ED D2 BD D2 CB F8 C4 A9 48 19 EC 57 5D 7C 05 B9 63 02 83 0F 26 ED BD BF 5A B7 
F6 CB 30 92 21 D4 E6 89 6B 8F 4F 63 85 54 32 6D 21 BE 41 99 BB 81 F6 EB 05 F0 D5 F1 81 90 9C EF 
8A 27 36 91 D9 1C B5 D6 03 50 03 E0 FF 9E 6D 2C 61 40 AF C0 D8 FE A7 93 29 3A B7 F4 E3 B3 70 D0 
66 E5 6F 63 46 6D 8E 8E FC 48 66 5C 9E 19 0F 70 57 68 D0 26 96 A0 98 DC 84 96 B7 66 5B FE B4 12 
BC 39 3E BE 99 AC 7D 4A BD 39 DC EB 2F A4 66 46 DA 91 74 7F 57 E7 22 21 CB E6 3B 8B 5A B4 7B 6A 
CE 7E 21 97 34 A9 2A C7 79 5B 53 FB 9A EF 51 72 35 04 EE 30 21 C1 05 A7 0A CB BB 53 AA 2A 3B 38 
75 43 F4 83 5E B7 B4 5E 95 D8 3C DE BA FA 39 1F 9F 19 54 EF B4 15 FF DA E3 99 44 66 73 D4 8E 7D 
C0 88 00 EB D7 AC 58 3D 0F A7 0E B5 89 FD 8A 77 D8 6B 63 54 A1 9C C5 6C 8E CB DE C3 66 5B EB F7 
A7 E8 9C 4E 80 0D 1D 4D FB 5B 58 71 BA 6B 83 12 31 9D 88 5A 15 4A 4D 64 2D 4A EA F9 61 16 29 3F 
9B 0B 03 40 F5 39 D7 1E 25 57 4D C0 38 7B BE 4D 9B 29 80 6D 46 E3 26 74 D1 55 62 9D A5 25 B7 6F 
6D 7F 0B 01 3F E8 21 97 46 90 0B A0 9E D0 E8 75 A1 70 3D FE A5 22 5F DE 7B 01 CC 12 B3 CC B4 B1 
D8 8B C8 EC B4 4F FF A6 C1 9A 3A 5E 8D 59 F4 C8 11 25 AE 88 1A 6F 8C 37 07 AE BF 00 F8 E8 59 DE 
DC D4 2E 27 52 26 79 43 9B CE BB 7C 52 AA 81 AE 29 1A D7 10 42 54 84 F0 47 ED CD 42 2B 59 A0 8E 
55 16 11 A7 D7 C3 9B 03 17 B6 79 75 B7 41 DE 10 68 DE F7 B7 11 D1 22 21 2C 37 94 C2 EC AE 1E DE 
AE 10 A3 4C 83 C4 D2 DB 23 2B BC A9 84 80 FD E3 AB 71 B6 C9 65 EA 94 44 72 95 78 98 45 CD 1E 76 
D0 8B 0C 01 5C 4F 6A 9E 25 C4 A4 CC C1 56 64 F7 AD C2 EC 92 3B A0 48 53 F6 B1 ED 64 0E 8C C6 BA 
D4 B3 C2 9B C3 77 CE 07 2D 2C E4 02 AD 41 7B 84 68 78 8E 3F B1 5A 17 BE 94 01 6E 25 AE 9F 83 09 
FD 29 7C A7 42 E2 16 63 DC 01 4F 63 58 03 08 BE 3B E4 C3 CF CD 6E 70 0B FA B7 3D 8C 7C A7 B2 F0 
2C 12 85 8F 86 76 04 74 6F 3D D2 72 50 61 E2 2F C3 08 E8 2E 3C 6B 59 AF 65 03 48 81 B2 7D 24 00 
5F 86 AE 71 36 A6 41 93 3A 40 29 8C CE 1C 7F 21 9B 68 0D 96 B5 91 9D 2A 16 72 6C B5 06 A4 39 E1 
86 52 C5 B9 B6 34 2F 91 C9 1C 03 8C 77 2F 1E A5 B0 87 51 FB 48 B4 47 7E 5F 54 36 78 5A 26 37 A1 
79 55 C0 D0 B8 53 07 35 95 B4 DE 6B B3 0E 1F AE 77 D1 26 E7 36 9B C3 82 9F 65 3C 41 62 6B 8D 6B 
4C 84 70 BE 37 B7 EF 6C EE 31 20 10 83 BC 7C 4C C3 EA 95 98 4C 01 74 F1 03 52 36 17 52 76 5B 83 
BE 68 94 D3 BD 66 F5 AD 32 74 29 44 A5 64 BC 32 32 FE 19 0D 5A 7E E2 5B 9A 42 90 CE 77 69 C0 D0 
07 A4 E4 E9 6A 2D 00 35 15 B5 04 40 6E 11 00 4D E9 5C 9E 19 89 92 C2 E3 D0 35 AB 8E 94 1D 9C 8D 
FD 1F 13 0B 30 DE DA 35 00 AD DA E4 87 6F 20 C2 71 CD 07 FA 47 6D A7 1A 9A 57 63 FC 19 D1 54 1C 
DF 98 F6 3B DF 9D 2D 5F BF 34 97 F5 34 F5 B7 B2 27 A5 BF 72 96 A5 B6 8B 9A C8 CA C2 F8 5B E8 DC 
DA 7B 14 28 1C 9F 19 34 97 D5 05 A2 E1 97 5C 79 BD 39 3A A7 B3 A2 3A 4D 24 57 97 16 7A 36 81 C1 
63 A7 3D B2 84 A8 08 21 BA A6 38 41 26 41 F2 08 C0 AD 17 C8 A0 0B B7 10 77 B0 C7 80 40 8C AF 53 
DC BD 1B EF 4C 24 D1 05 9C EF 97 80 49 22 9B CB FD 92 92 90 23 26 A0 7A 5B B6 D9 CD 38 32 ED 4F 
71 E2 54 9C EF C1 8A 16 40 E3 71 5C C7 05 14 6B C7 48 CB 95 31 74 4B 4A AB 3E 20 8E DA 15 21 30 
6A 93 02 EB E2 CA A4 AE A2 10 0D 7A 4F 74 EA A0 37 C7 DA F1 E0 CE F0 E6 68 08 BB 8B AE 10 0D 21 
84 EF 54 2A 8E FF 4A 0B CE EC 61 34 3E 9D EC 57 40 94 50 6D 2C 17 ED 6F A1 30 DB 34 AE F2 9D 4A 
7B 04 21 2A DB AC 79 58 1D 3D A4 3E 81 52 C1 4B 1C 93 2D 53 B9 09 3F BE 1B 9B 30 A5 EC 74 7B 81 
F7 BE B1 C1 5C D6 0B 7E CF CA 10 10 F0 E6 68 DE DB 4A 79 77 C7 34 EB 48 EC 60 95 81 1C BE 55 8D 
BB 7D 40 8D 89 56 10 02 30 FB 1D 19 50 CB F3 86 61 2C 0B 05 49 27 42 48 D9 D4 15 16 89 15 13 A9 
CB 5D BC D5 A8 05 64 34 B1 48 E2 65 B4 80 41 BD 27 C6 67 06 A9 90 C6 F4 B1 F7 05 0D 21 29 FA 41 
4B 6D E4 E3 E0 35 62 02 FD 29 EE 70 BE 4D A4 B2 40 68 4A 2D EF B4 27 85 4A 09 A5 BD BA CD 15 3D 
CC A2 2C A1 E7 F3 61 34 40 3B 4B E4 94 A2 84 EA BA 82 2B 73 36 72 63 13 09 AB 89 8D 5A 42 C0 FE 
35 D9 4B 40 40 B7 24 04 70 D1 DF 2C 44 BE 19 CD 3A BA 70 55 47 75 36 87 85 87 62 E7 78 8B 22 AB 
6F 25 77 46 8B 4E 00 A8 D8 28 11 9B 3C 05 10 01 8D F7 9E EA 76 09 21 6A BF 1B B1 7E E8 D7 29 30 
6A D7 5A 08 51 C3 F5 73 AF DE 7E 6B 00 D6 78 04 CC 27 D4 28 29 DD 00 AC 77 4D FC 99 6F 7D 8A BC 
A4 43 9A E3 00 BC DB 2E 10 45 40 FF BD 17 21 A4 D5 F8 6A 01 03 00 7B 18 45 43 9B 06 83 19 2B 64 
05 B3 DF FE FA 83 32 A0 9E 70 3D 38 B0 0D FE EF F8 C3 DC 9F A2 79 2F 54 A7 A3 3F 8C 76 F0 21 C6 
B2 19 0A 6F 8E C1 AF 2F 6B C3 BE 2B 4A 28 C4 06 FB C7 F9 6A 1B A8 5B B0 76 4C A6 A0 90 14 B5 43 
00 93 29 6A AD 2E 25 AF 40 DC 84 34 57 43 71 2D FD A7 C9 14 CD 77 0F 3B 0B 08 24 5A 42 0B 93 55 
EC D8 9B 23 1A BE FA E7 27 F4 90 AA 45 D0 ED 6F E1 65 CF 2F C3 90 2B 81 34 29 70 F9 52 CC 1D 9A 
AE BA EA 63 BA 40 20 83 58 9F 3C E8 21 71 46 48 8F 42 12 6A 2A C9 05 2C 6F 00 4D 2E 5C 9D DA 05 
D0 7B 2A 9F BA 9F CF 67 EF 3D FD EE 02 0B 19 A8 33 BA 80 94 C1 B2 E6 38 15 BE 90 D2 ED 0D D0 72 
75 AB 5C 6F 61 FD 39 8B BA CC B5 FA E3 89 D7 92 68 83 FE 6B D0 83 2E 8F AE CE 1B 93 4A 57 7D 55 
35 91 B5 D6 86 B4 FB 28 A5 A4 2E 79 EC 44 CB 6B 3C D5 B5 17 42 46 33 F4 66 16 33 20 63 09 3A AA 
DF 9A AB 04 FD 06 AD B6 41 1D B9 DC 9E 57 5F BB FE 50 A4 D5 73 DA 03 A8 06 5E CF 97 D9 0B 96 AF 
BD 40 D6 5A B2 FC B9 50 E2 ED 28 DC 12 42 3D D4 B9 9E 8B 62 59 EB 1F 56 F9 D6 7F 9C C3 AD 8D 92 
58 BE BD 19 87 5B C2 2E 73 BD 06 6C C9 5A D6 1A C6 7B B5 30 0C C3 14 0F FB 56 86 61 98 E2 61 DF 
CA 30 0C 53 3C EC 5B 19 86 61 8A 27 59 2F EB E0 A4 C0 5F 95 C3 AD 8D 92 58 BE BD 19 87 5B C2 2E 
73 BD 06 6C C9 C6 08 29 9F 57 C0 7C FE FC F9 D3 A7 4F 7B B4 86 61 18 E6 B0 38 3E 3E 4E 14 49 E4 
98 00 C3 30 4C F1 24 C7 04 CA 26 05 BE 17 4A 2B 8C BE 96 92 58 BE BD 19 87 5B C2 2E 73 BD 06 25 
B4 E4 E0 48 F6 AD 28 99 14 F8 5E 28 AD 30 FA 5A 4A 62 F9 F6 66 1C 6E 09 BB CC F5 1A 94 D3 92 C3 
82 63 02 0C C3 30 C5 C3 BE 95 61 18 A6 78 D8 B7 32 0C C3 14 CF 56 BE 55 E9 3E C5 F6 21 CE 9B AE 
FF 5A 66 01 1C AC 94 B0 EF 4F 81 69 5F 57 EE 5A 3E C6 1E 46 25 D9 7B FB 1F E4 85 A8 5A D2 16 BD 
EA E6 A6 35 42 5D 57 4D 2F 41 57 60 5B BD 27 37 35 92 BC D6 EA A8 FD D1 BD 39 6C 61 EF 60 4F C8 
F2 58 72 58 6C EE 5B 49 53 40 CA 20 90 52 98 CF 2D 26 6F 3A 0E 44 6D 9C 58 25 61 7F 1F A2 DE 54 
1B 6F D3 96 6B FA 31 A4 0F B6 6B 8B 99 3F E8 7B A2 2B C9 55 1D A5 B3 99 D6 08 49 7F 9B 76 29 3C 
77 7C E5 4D 3A 75 2C A4 74 5B 03 29 83 35 7B 72 DF 87 89 A2 9C 2B AC 8D ED 57 79 F2 67 67 48 A7 
8A B1 DC 85 92 4A 79 2C 39 2C 52 7D 2B BD AC D2 3A 59 24 5D D5 09 5D C0 A4 0D B3 D5 FE D3 B9 D2 
71 38 6A E3 58 29 61 1F 02 4D AC 52 B7 8F 00 7C F3 D0 DB BF A2 01 E3 F6 DC F6 08 98 7E D5 13 BD 
39 DC 5F 5F D0 72 B3 E8 92 0D 7A F0 5B 83 FE 51 5B EF DE D6 8E B1 7A BB EB B5 8D 24 0B 9D 33 A3 
24 5E AC 3C 96 94 93 54 DF 4A 2F AB C9 A9 4C 1C 43 4D E6 B0 46 63 B5 13 7E AD 8A F1 C8 C2 7C 92 
37 1D 87 A3 36 8E 95 12 F6 93 29 CC D3 55 79 BF 0E 23 E7 03 D6 6E 35 CF EC 80 8F A7 40 6B A0 DE 
EE C4 1F 69 BF 4C 37 A8 06 0C 6E 9D 2E AC F0 26 AE F3 B6 82 B5 8D 64 35 21 10 DE BC FA C6 FE 59 
28 8F 25 65 66 4D 4C A0 53 7F DA 3C FB 1C 77 7A 38 69 36 C7 89 26 1D 5C AB C2 C7 09 E6 B3 BC E9 
07 A4 36 8E 95 12 F6 B5 59 B8 42 05 C4 9B E3 23 BE EE EB 25 2F 6E C2 E5 60 99 10 C2 7B 2F B6 95 
C3 3B 4C 48 1F 54 EF BA 86 C0 89 F3 B5 76 76 99 BD 10 A5 89 9D 5D 5D 6D 75 23 59 CB 6C 0E E0 59 
29 AE 3F 85 7A 5E EC 61 D4 17 C2 1E 7A 2A C4 AF 87 86 B7 91 65 2C B9 25 65 26 6B BC 95 24 8E A5 
94 E2 BE 59 E0 33 79 40 6A E3 8A 65 09 FB 10 68 62 96 26 5E 44 D1 00 E3 AC 00 25 AE CD D0 A5 FA 
74 9C EF B2 0C 0A CC 7B 81 D4 D2 74 01 AB 8F DE 43 DE D1 7A A7 0E F4 02 3D F0 BA 82 D5 8D 64 05 
24 48 2C 84 68 1F 09 A5 4A D7 9F A2 6B 3E BD DD ED 61 E4 3B 95 2E 70 87 31 4D 03 90 92 95 94 4D 
29 E5 E0 51 DA E6 43 21 13 4D E5 B1 E4 20 C8 31 97 45 F3 F8 F2 74 B2 FC 4C C6 DE 63 B9 D2 0F 45 
6D 5C 27 26 61 3F 9B C2 78 9B 7A F0 64 0A E7 03 FE 59 2F 56 4E A8 B1 91 DE 65 04 3C DC 7A 9B E9 
51 2F AE CC E5 C0 6B 22 AB 1B C9 0A D4 0C 92 2E 51 D5 A9 43 69 58 8D CF 0C CB 5B B8 80 F1 A7 DF 
FD 65 18 29 19 D0 F6 91 F0 E1 47 3F 0B D0 B8 2E 8F 25 07 C1 7A DF AA D6 97 DC E1 5C 4A 49 D3 A0 
B5 2A 1E 60 61 FE 2C 96 69 01 A8 D6 F2 A6 C7 CE 55 66 B5 F1 18 4A C2 3E 02 70 EF A5 A9 19 47 40 
FB D6 13 47 ED A7 31 D1 75 A3 71 0D B5 78 65 37 70 4C 20 91 66 1D 3E DC F0 5B FB EB 14 97 C7 ED 
CD 22 36 C6 9F C0 EB 64 65 E0 75 75 23 C9 48 B3 0A BC C9 FA 02 88 89 F4 29 29 DF 42 28 8F 25 65 
66 CD 3A 01 21 44 F3 5E 2C 57 4A B3 0A BF 65 2B 5F 39 FE 19 D9 2D 1F D5 66 EE F4 C3 51 1B 8F A1 
04 AE 27 73 34 DF 24 8C F5 4E 00 54 6B 34 25 A8 1A 16 7A 41 D0 C3 58 CA 5D C6 5E 39 26 90 08 0D 
3E BE 5C A3 7B 6B D3 AD DC 0C 0A BC B6 AF 81 5F ED B4 63 D2 1A 49 2E 0C C0 3C CB DA 6C 66 BF F0 
7A 2F CE F2 58 52 66 D6 AC 13 48 58 C5 F9 E7 57 F7 C2 A1 70 55 08 F8 CE 57 E7 C2 05 8C BC E9 87 
A4 36 AE A1 4B D8 CF 7E 46 C6 DB 9A 4A 17 C2 A6 C9 8D 66 0F 25 5F 52 F6 CF 12 CD 9E E2 51 97 67 
86 0F 77 00 5F 9F 62 9A FD F6 F3 16 48 81 D7 15 07 E8 8D 24 2F 0F 80 3E E0 CB F2 D3 E5 99 D1 1E 
B9 E1 4D 85 FE F4 E6 C0 B4 80 71 52 79 2C 39 08 36 FF 76 A0 53 C7 F8 DD 42 88 4A 43 08 19 42 2D 
99 CE 9B 3E 3E 33 BA BD 80 22 32 01 1A 9B 25 EE B1 00 00 20 00 49 44 41 54 89 AE BC 0C E8 5F 64 
E1 42 38 DF EF 00 23 02 6A BF 27 6A AC D7 AC 02 2D BB E2 F8 B5 5B 61 5E 2D F6 6B 70 D9 A0 91 D0 
36 81 08 BA 05 1B 2F 26 21 03 BA A6 A8 38 3E 99 41 AF 76 7A CD F7 A7 A8 08 81 51 BB 71 8D 15 A7 
B0 87 51 43 88 C6 75 37 16 D8 59 5C 99 38 1E A4 9D 57 6F 24 79 AD F5 01 71 D4 8E AD 46 A0 19 24 
1F B0 8F DA F6 DD FF 45 33 48 6A 1E D8 04 06 8F 9D C6 B5 A5 9A 6B C6 0F 16 4A 6E C9 81 A1 0F 12 
4B 2B 05 BE 17 0E B7 36 4A 62 F9 F6 66 24 96 30 08 A5 7C 1C EC D7 86 52 E5 7A 0D 4A 68 49 69 49 
AB 22 DE AB 85 39 18 68 A5 64 ED 5E 94 3F 6A C4 30 A9 7B 63 33 4C D9 A0 CF F9 81 95 1F EC 33 4C 
39 E0 7E 2B C3 30 4C F1 B0 6F 65 18 86 29 9E E4 98 C0 C1 49 81 BF 2A 87 5B 1B 25 B1 7C 7B 33 0E 
B7 84 5D E6 7A 0D CA 63 C9 C1 21 A4 7C 5E F3 F4 F9 F3 E7 4F 9F 3E ED D1 1A 86 61 98 C3 E2 F8 F8 
38 51 AE 91 63 02 0C C3 30 C5 93 1C 13 D8 BB 28 79 19 28 8F 44 7B 5E 4A 62 F9 F6 66 1C 6E 09 BB 
CC F5 1A 94 D0 92 83 23 75 0D D6 7E 45 C9 CB 40 79 24 DA F3 52 12 CB B7 37 E3 70 4B D8 65 AE D7 
A0 9C 96 1C 16 1C 13 60 18 86 29 1E F6 AD 0C C3 30 C5 C3 BE 95 61 18 A6 78 B6 F2 AD A4 44 B0 2C 
83 93 37 5D 6D DE 9C 26 2B 5B 36 FA 53 2C EF E7 44 D2 F3 31 31 77 75 45 BA 84 7D 76 85 A5 A2 D0 
AD 8A 86 36 99 BA 2F 03 36 DB 96 3B 56 02 D5 A1 6A 39 D9 B7 1B D7 6F 44 DE 4D CA 13 6D D0 37 48 
2B 50 12 6A CB 1A 53 35 B3 7D 63 2B 8F 25 87 C5 E6 BE B5 3F C5 89 53 91 32 08 A4 14 E6 F3 B3 9A 
37 5D DC 84 83 5F 0D 29 17 52 CA 06 82 F2 BB D7 10 E8 9A 49 CF CF 7D 88 7A 53 89 B9 5B 80 7C 1C 
D0 96 89 11 50 BB F7 E8 1A E5 3E B6 5E AF DC 84 03 B4 C9 80 73 DC 29 81 A3 9D 11 AB 96 0D B6 E5 
8E 95 40 75 28 AF CC BC DB 8D 77 EA 58 48 89 D6 60 83 4D CA 13 6D 70 AA 90 72 8C 5E 30 68 41 CA 
85 DA 3C 73 4B B6 A9 31 7B 18 2D DE 7C 91 52 5A DE E2 AB E3 6F 29 40 57 1E 4B 0E 8B 35 BA 03 69 
9E 2E 02 BA B7 5E 27 74 01 D3 04 DC B0 43 FB 5E 6F 90 8E 5F B3 E6 3B 8B EE 96 7B 6A 96 7F 97 F2 
C9 4D 68 79 F1 7D 8E 57 4B CF 7F 9D C2 39 DD 76 DB F9 8D 21 31 5D DA A5 14 C0 F8 CC 50 02 47 BB 
87 E4 18 8A 2A A1 3F C5 E2 CD 97 DD EF F9 BB FD 55 BC DE B9 22 C0 FF 31 31 6A 27 00 C6 67 46 47 
CA FE 0D 0A 71 6A E5 B1 E4 20 58 A3 3B 30 39 95 89 FD F9 C9 1C D6 68 AC 6B 62 8F 47 16 E6 93 BC 
E9 4F A5 FD F0 C9 9F 3E CC 22 E5 67 CB 49 7F 8A CE E9 04 88 EF EF BB 42 7A 9E DE 2B C2 8C EF A6 
BC 33 6A 00 5A 35 A5 69 0A DA 27 BF A0 EE D5 1E E9 4F D1 BC 17 FF 8E FE 52 46 66 00 46 CF 12 00 
FD 29 70 BD 4A CB EB 5F B0 64 2F AC 89 09 74 EA 4F 9B 67 9F E3 4E 0F 27 CD E6 38 81 AF FB 4A 1F 
27 98 CF F2 A6 93 94 5B 7B 64 85 37 95 10 B0 7F 7C 35 CE EE 5E ED 62 B7 25 04 9A F7 FD 44 AF B4 
42 7A 5E A9 E3 C0 5B 2C 6F DB BE 03 48 50 A7 3D 82 10 95 E5 B3 8B 9B 30 BC 11 CB A1 70 95 A2 BF 
59 F5 D0 9B 1A D3 C4 82 B9 BB B9 28 7B 18 35 EF 45 69 55 2A 96 11 37 E1 C6 8A 09 69 D0 86 B6 FA 
8D EB 4F D1 10 02 E8 0A B3 2B 84 10 FF FB FF E8 9A 82 B4 AF 5F 35 DA 56 1E 4B CA 43 D6 78 EB F8 
CC 20 27 2B EE 9B C5 EA 83 92 94 5B E3 1A 13 21 9C EF CD 32 77 5A 27 37 A1 79 95 A0 48 91 51 7A 
7E 7C 66 0C 1E E5 B9 83 DD F7 5E 3B 75 90 EE 71 C5 F1 55 EB 27 9F 48 D2 B3 4F 22 BE BD C0 36 BB 
98 7B DE 1C 70 CE 69 7B 7F 15 29 8B 80 CA 7B 6F F1 6E 2C A5 74 43 D9 B8 7E 9A BB 3B 7F EF C9 5B 
48 29 03 29 2B CE C9 0E 66 C9 C4 CD C4 FE 51 D9 A3 6A 0E F9 08 A1 B1 B6 47 26 AF CC 8E 94 05 4A 
A8 85 C0 44 F4 A5 6C 4A 29 07 8F D2 36 1F 30 F7 3A 75 04 52 02 AE 0C 5D 29 A5 FC 7F FE 6F 12 B5 
96 32 78 BD F7 50 79 2C 29 15 39 E6 B2 A8 23 23 4F 27 CB C1 EC D9 1C 24 47 16 23 4B 7A 04 E0 D6 
0B 64 D0 85 AB 64 76 4A 88 37 47 E7 74 96 F8 6C 64 97 9E 77 AA F0 7B 97 7B 91 68 A7 29 17 8A B4 
0A B3 1B 0D 6D 03 58 7C 77 68 56 87 46 D6 C1 95 E9 C3 8D 7E 8E 9D 2A C6 72 8C AA 23 6E 42 DF 79 
12 92 FB 3A C5 00 6D 1A 58 D0 80 06 F5 CE D7 29 FC 51 9B 44 C2 A9 9F 12 DE 77 5F F5 42 BA 80 0B 
B4 47 B0 45 65 2F 31 16 00 E4 23 74 01 8F D5 5A 84 AF C1 97 61 D4 45 97 5C 7C FB 48 F8 F0 F7 D2 
AE 4A 65 49 A9 58 EF 5B D5 9A 95 A7 AE 4D BD 03 A0 56 C5 03 2C 5D D9 D1 02 50 AD E5 4D 07 50 B9 
09 3F BE 1B 9B 30 A5 EC 74 7B 81 F7 BE 51 CE B9 AC F6 B7 50 98 6D AA 0A DF A9 D0 10 9B 3A 6E B9 
A4 E7 AD 37 BB 56 08 8F 80 70 F8 E4 83 D4 2C 79 E2 A4 2D 45 66 E9 DF EA 55 AA 26 BE 1E 66 C9 F7 
85 E6 C7 95 97 79 ED 5E 89 0B 74 AE 9A 81 94 3E 5C 71 D4 DE F1 62 B2 52 11 F4 5E E8 DD ED 31 F4 
5C 1E 4B CA C3 9A 75 02 42 88 E6 BD 58 AE AF 66 15 7E CB 56 BE 72 FC 33 B2 5B 3E AA CD BC E9 34 
85 4D 33 89 00 82 2B 73 36 72 29 08 5E 36 E4 95 A9 9A 8E E5 2D D4 82 9B 34 E9 F9 D4 49 D5 DF 33 
E3 ED AE 43 AE 93 1F 50 9E 94 C2 AF 89 87 D1 E4 83 51 3B 51 0B E6 F4 E0 F2 49 CD 98 8D B0 7C 77 
12 13 B3 D3 BF 09 37 18 AC 3C E9 BB F4 02 61 76 37 8B DF D5 DE 58 1B E4 2A 03 AA C6 F6 BE A8 A6 
3C 96 94 90 35 EB 04 D2 BA 21 F4 7C D2 D4 73 08 F8 CE 57 5A E2 93 37 3D 36 85 3D 99 A2 D6 EA 52 
FF E9 50 D0 A5 E7 69 19 39 CD E7 34 7B 58 0E 20 F4 A7 B8 44 63 F7 52 7A BA AC 31 AD 5B D0 CD 9B 
5C 83 7E FA 32 8C 06 AD 2E 4D CA 29 C5 F9 EE FD 93 E3 6B D6 D1 85 1B DE 3C 05 16 BD 39 A2 61 FF 
63 1D DD D6 40 8D 36 42 20 1A AE 1A A7 C7 84 EC ED 61 D4 44 23 57 14 52 2F 81 D6 B7 36 AE 13 3E 
E5 48 44 4D 28 59 C0 36 6F B8 D8 55 BC 2A 69 35 76 79 66 B4 47 6E 78 F3 14 B1 F1 E6 C0 F4 B9 E6 
A3 D9 53 CC ED A4 66 E0 E5 D8 E5 2F B0 E4 30 D0 7B F2 79 85 73 2D EF 69 32 E1 29 5C BD 51 3A 0D 
51 29 3D 36 BA DC 2F 2B 6A 43 F5 5B 17 52 0E 7A 03 65 B3 BA 16 FD 42 F4 C5 A4 B1 A1 D3 6E 2C 5F 
48 19 78 03 9A 58 88 99 41 06 BB 3D D0 4F 2A 8C A8 1F EC F6 5C 00 B4 6E FC 45 7A E2 C1 5A 20 52 
37 43 BF CB F1 16 F8 B2 91 A4 5D 48 AC 84 85 67 49 AD 45 A5 15 15 AB 0A 75 2F 56 9C 34 AF 0D 34 
49 18 B3 61 F9 16 50 C6 D5 E7 CD 5B 63 FA A9 A9 C9 E9 8D 8D EE 05 1D 43 B7 2F E3 25 97 D3 92 D2 
92 E6 2D B7 F2 AD 7F 37 87 5B 1B D9 2D 57 5F 28 ED D7 8C BF AF 84 C4 5C 81 94 0B 6F 95 5B 29 4F 
93 2B A1 25 A5 25 AD 8A 78 AF 16 86 D9 05 E2 26 9C 08 61 9C 1D 52 BC 8B D9 86 D4 BD B1 99 BF 1E 
5A AF 8A 51 BB 31 42 80 43 5A 87 7F 88 C8 2B 13 5C C3 FF 12 EC 5B FF 5D 68 BA 12 D8 F5 C4 1A C3 
FC 0B 70 4C 80 61 18 A6 78 92 FB AD 2C 4A AE 73 B8 B5 51 12 CB B7 37 E3 70 4B D8 65 AE D7 A0 3C 
96 1C 1C 42 CA E7 18 D0 E7 CF 9F 3F 7D FA B4 47 6B 18 86 61 0E 8B E3 E3 E3 44 B9 46 8E 09 30 0C 
C3 14 4F 72 4C 60 EF A2 E4 65 A0 3C 12 ED 79 29 89 E5 DB 9B 71 B8 25 EC 32 D7 6B 50 42 4B 0E 8E 
D4 75 02 FB 15 25 2F 03 E5 91 68 CF 4B 49 2C DF DE 8C C3 2D 61 97 B9 5E 83 72 5A 72 58 70 4C 80 
61 18 A6 78 D8 B7 32 0C C3 14 0F FB 56 86 61 98 E2 D9 CA B7 2E 8B 2C 6D 96 4E 90 E4 4E C9 B7 3A 
A6 6D 6D 13 77 B4 EB 4F 9F 34 4E 74 31 77 DA 5A 54 4F DC F1 05 C6 EC D1 D9 97 5E BC DA 6D 5D 08 
91 4B 42 4A 97 F0 DA 40 58 28 56 15 EA F2 75 7B D6 DE 1D 71 13 2E DB A0 97 B0 BC 99 6C E2 2D 58 
BB E7 6C 62 AE 65 39 CB FE 14 AB EB 70 B5 60 73 16 CA 63 C9 61 B1 B9 6F 55 DB 27 07 52 0A 13 AA 
51 E6 4D 57 7C 19 46 40 57 97 23 2D 1B 21 50 11 7D 8C DA C9 3F DF 87 A8 37 63 62 EE E6 95 D4 65 
A6 06 8F 52 98 0F BB 74 AF CA 9E 98 0C C9 E0 51 CE 7E EF CC 8A 27 9E 14 BA 4C A1 2C 79 F0 16 42 
34 32 56 C8 F8 CC A0 FD 0C 17 9E B5 2C 2C B4 16 AA 0A A5 DA A4 F6 7A 27 2D 06 B7 35 88 ED 05 9E 
88 BC 32 C9 86 A0 07 65 03 C9 91 B9 B0 12 C5 A0 96 6F 01 A9 8D AD F6 32 CB B9 48 6A C1 3E 6A EB 
4E AD 53 C7 0A 19 2E B5 65 C4 DA CA 39 08 4B 0E 8B 35 BA 03 69 B7 9F F6 57 EE 84 2E 60 9A 80 1B 
76 C8 27 E6 4D D7 0B C4 8F 89 D5 73 C7 23 28 6D ED B2 41 7B DD C7 F6 0C 25 42 A0 89 49 62 C3 D2 
65 A6 9C 2A 2C EF AE 0C EF 0F A7 0A F3 6A 8D F0 06 ED 7E 5D E0 49 2B 37 A1 35 6A 77 1E 07 AA A2 
C6 67 86 E5 2D 48 00 31 7B 39 4A A8 62 03 68 87 E6 65 6A C7 C8 B8 29 3B 35 E0 C6 35 74 F9 DB F1 
85 D7 79 B4 33 6E F2 DD A9 03 BD E0 CB 75 3E 55 4A 3A AF 0F 64 57 A3 52 92 68 89 BF 86 40 78 B3 
C9 FD 2D 8F 25 65 66 8D EE C0 E4 54 26 8E 1F 27 73 58 A3 B1 AE 89 3D 1E 59 98 4F F2 A6 AB 02 BF 
4E 71 79 DC B6 3F 74 7C 58 87 28 64 36 99 C2 3C 4D FE 29 26 33 75 52 33 F6 FE FE 88 ED 0C 9F 48 
04 B4 2F BC 44 29 C9 CD 20 FD 9E CB 1E 62 B2 0B F6 5B C3 87 15 7E 3B A4 1E 0D 39 47 A5 39 76 3E 
8C EE DE 8D 73 C9 49 58 6F 6A 3E 76 27 5E 90 48 E3 26 04 5E 57 38 32 23 E5 B1 A4 40 D6 C4 04 48 
CE 53 4A 79 8E 3B 3D 20 35 9B E3 04 BE EE 2B 7D 9C 60 3E CB 9B AE 4E D4 BD 0F CD 53 D7 A9 02 BD 
CB C9 0F 7F EF DD BA BC D4 66 21 49 A1 24 B2 A5 A2 54 E1 CC E6 50 F6 50 98 3B 1A DA 14 CD A4 38 
9A 37 47 45 D8 18 B5 2B 8E AF 22 6B 2A DC A9 E2 8C F6 30 EA 0B 61 0F BD 2C 01 C4 C9 14 40 77 59 
A5 AA 56 05 70 72 70 82 4B C1 95 49 0A 37 21 70 E2 7C 35 CE 2E 73 65 F7 7F CF 94 1C 67 46 BC 39 
BA A6 ED 02 FA B9 EC 61 A4 6E 07 DD CA B4 A8 AE 0A 0A 63 DA 7F 9A DB B8 6E 34 AE 91 25 CA 5C 5A 
4B CA 4C D6 78 EB F8 CC 20 27 2B EE 9B 1B 4C 23 AC C6 9B 63 F0 EB 0B F9 26 F7 D4 6C 8F 80 E9 D7 
02 CB 7F 6D 42 A0 89 04 39 42 C2 7E 6B 74 61 29 99 A9 87 59 94 2A 53 F8 9A 74 01 52 39 16 42 74 
CD A7 86 1E 02 0D D1 07 BA 15 C7 BF C3 F9 42 4A BF 35 08 BF B5 9D 2A 02 39 A6 C8 E6 58 4A 54 1D 
7B 18 91 D0 AF 94 B2 7D 1C 84 37 15 7B 18 F9 4E A5 0B DC 61 2C B7 90 77 25 CD B4 B2 BD 7E D6 62 
02 96 F7 F1 CB 35 1A EF ED 4E 88 5C 92 5F FD 29 70 DD B0 5B C8 22 0F AC 6E DC F8 48 C8 47 5B 8F 
69 D2 2D A0 7F 47 40 E3 BD 17 F4 BA F2 8F C2 CA C2 B3 D4 4D 69 5C 83 44 45 D1 0B BC DB AE 89 68 
21 3B 4A 72 62 6D 94 B9 6C 96 1C 04 39 E6 B2 94 A8 F2 F2 34 C2 6C 8E C4 C1 63 C6 F4 F1 CF A8 F9 
0E 54 66 B3 0E C0 7D 6D 8D FB 62 99 4D 61 BC 4D FD D5 A9 C2 0D C7 F4 5A 16 42 F8 4E A5 D6 C2 EE 
F5 16 F5 B9 2C 15 32 36 81 40 76 C8 87 1A 67 63 03 C0 71 82 61 24 1F 59 71 FC A7 EE C6 75 63 72 
8D F1 D9 8C E6 85 F2 76 D9 12 D9 4B 9D 6C C9 DD 99 E1 B7 06 C1 B1 9F D7 37 75 4D 31 68 C1 F9 BE 
C8 32 1D A7 C4 A6 96 C3 65 14 AD A6 7F 93 46 AF 79 EA 02 68 56 81 96 3D FB ED AB 23 83 1E C8 BB 
6D 23 E1 5E 1E 4B 0E 82 F5 BE 55 75 E0 A9 DB 42 CD A8 56 C5 03 2C 7D 50 4F 03 9C BC E9 58 7A 6E 
1B 42 00 5D A5 3C 5A 7E 22 00 F7 DE EA 0E 88 0A AD D0 14 33 69 DC EE CA C0 04 EC B7 46 5E 47 16 
93 90 5B 31 23 9C 06 BD 35 F5 C7 8C 98 CC 81 D1 B8 76 8C FD D6 C9 0E D0 5F 6F 79 D7 39 D0 2C E8 
B9 E3 A7 4D 7F 51 3F 9A A6 49 75 EF 56 38 E5 B1 A4 E4 AC 59 27 20 84 A0 0E BC 94 52 AD 59 01 D0 
AC C2 6F D9 CA 57 8E 7F 46 76 CB 47 B5 99 37 1D C0 64 0A 1A 3E E8 CB 83 BA B0 30 2D E9 6A 81 18 
93 39 9A 6F 12 02 02 89 03 FF C6 4D 18 F4 BA 7B 1F F8 38 55 A0 EE D0 82 DC 8C 59 B6 9F 78 31 01 
F4 9A CB 93 E3 E3 9F 91 05 DF FC 90 3C 83 5C 38 B5 2A 96 5B D7 64 8E 1A C6 25 77 EE D4 4D F6 2E 
DA 69 11 39 D2 B2 16 A2 D2 10 62 E1 3D BC 5E 33 2B 8F 25 65 66 CD 3A 81 B4 38 9A 01 B8 17 0E BD 
9A A8 E3 49 7D B1 BC E9 21 F0 60 F6 63 CF 15 CD 68 F5 CD 6E 39 BB AE FE EF 17 2E 66 F6 33 32 DE 
3E F9 50 6F 0E 21 6C 5A 53 D1 EC 41 EF D9 51 CC 7E F0 AB 61 5E 25 2C E1 DA 3D DE 1C 30 6D D4 53 
BB DB 14 06 05 E0 4D 61 CE 3D CB FB A8 AF 94 F2 86 E1 06 31 F7 C5 95 E9 B7 06 FD A3 B6 BA B3 14 
A7 1B 87 6E AE 49 F6 6D A0 51 AA DE BA BC 39 C6 47 B6 F9 E1 D5 BF A4 78 C0 26 EF 27 95 CB 00 82 
EF 4E 7B E4 F6 45 45 7F 34 28 54 1D 01 5F DE 7B F2 B1 B6 DC 13 4A 44 C5 7F B2 2C 1A 29 9B 25 87 
81 DE 61 CC 2B 9C AB 22 2C 31 D5 F5 8C E9 BA A6 B9 3A 32 26 86 9E 5D 47 BE 70 96 6B 83 46 F4 64 
18 8D 91 17 52 0E 7A 03 29 17 74 80 32 9E 24 DA 29 51 09 B5 EF EC 5A 32 8A CB 07 3D E8 57 B4 F0 
2C F4 02 FA 37 D9 4F 7F 2A 85 6D F5 2B 5D 8B BA 9B B1 AF 12 12 CD D0 D3 F5 05 C2 69 79 13 4B D0 
33 EA 35 9C B1 2A F4 74 FD 5A 62 E1 8E 8C 25 A8 DB 9A 58 C2 8A 5B B0 F0 AC 2C E7 4A CB A5 CE 3B 
68 C1 F2 FE 3F BD 1A F5 8B 22 AB 16 8F 03 55 48 D0 43 EC 96 D1 9F 89 35 59 42 4B 4A 4B 9A B7 DC 
CA B7 FE DD 1C 6E 6D 94 C4 F2 ED CD 38 DC 12 76 99 8B 88 BD E6 29 25 F0 52 DF 19 07 67 49 69 49 
AB 22 DE AB 85 61 FE 06 CE 87 11 7E BD F8 FE E2 EB 30 32 D3 97 AF FC 0B 96 EC 17 F6 AD 0C F3 37 
70 77 66 B4 31 10 A2 A2 96 EB 7F C4 F9 CE A2 D8 E5 B4 64 BF A4 EA 0E 30 0C 73 40 D0 E4 33 B0 7F 
17 56 1E 4B F6 0B F7 5B 19 86 61 8A 27 B9 DF CA A2 E4 3A 87 5B 1B 25 B1 7C 7B 33 0E B7 84 5D E6 
7A 0D CA 63 C9 C1 21 A4 7C 5E 4A F2 F9 F3 E7 4F 9F 3E ED D1 1A 86 61 98 C3 E2 F8 F8 38 51 AE 91 
63 02 0C C3 30 C5 93 1C 13 D8 BB 28 79 19 28 8F 44 7B 5E 4A 62 F9 F6 66 1C 6E 09 BB CC F5 1A 94 
D0 92 83 23 75 9D C0 7E 45 C9 CB 40 79 24 DA F3 52 12 CB B7 37 E3 70 4B D8 65 AE D7 A0 9C 96 1C 
16 1C 13 60 18 86 29 1E F6 AD 0C C3 30 C5 C3 BE 95 61 18 A6 78 B6 F2 AD 4A 40 29 B6 0D 68 DE 74 
BC 54 78 8F 86 76 39 75 1F 75 15 A0 C4 4B C0 B4 1F 13 73 27 99 20 3D 31 A6 EA F8 AF 21 6E C2 2D 
EB 41 95 B0 99 D2 BD CA 4E 28 35 B0 0D A0 F6 DC 17 22 E3 66 98 2B DA FF 32 B1 86 A4 C8 7E BA A2 
28 8F 25 87 C5 E6 BE B5 3F C5 89 53 91 32 08 A4 14 E6 F3 2E CB 79 D3 E9 CE 3D 98 42 ED D2 76 8E 
3B 52 1F D8 F2 DA 8A 25 02 26 EF 3D 29 9B 52 4A CB 5B 08 B3 1B 7F 42 EE 43 D4 9B 4A CC 9D F6 9D 
33 AF 24 29 B3 07 C7 6D 29 E5 42 CA CA 0F FB 9F 75 AF E2 26 0C D0 90 52 06 52 56 9C 93 0D EA 41 
DC 84 83 5F 0D DA 63 A9 81 20 AF 7B 0D 81 C5 9B 99 DA A9 68 F0 28 ED 96 95 45 B4 6A B9 1C 21 FA 
D4 9E 33 4A 30 A4 B5 FF 34 54 43 D2 B7 61 0C A4 EC C2 15 A2 B1 CB 26 54 1E 4B 0E 8B 35 BA 03 69 
6D 37 02 BA B7 5E 27 74 01 93 C4 CA 69 DF EB BC E9 00 CE 87 91 35 6A 8F 1F 07 6A 37 87 F1 99 A1 
6F 8E 59 12 26 53 74 6E 41 4F D1 DD 99 81 D6 40 17 F5 0A 81 26 26 89 CF 98 2E 6B 61 00 D6 BB E6 
B2 AE C9 BF 80 37 87 7B FD C5 BC 0A F0 47 E0 5E 69 50 67 24 02 F0 6B D6 7C 67 D1 7E CA EE A9 99 
57 1D B6 36 87 71 F6 EC 49 75 A1 B6 EC 90 80 63 D0 EB 66 17 B6 59 D1 FE 73 61 02 A4 DC B7 42 52 
65 37 94 C7 92 D2 B2 46 77 60 72 2A 13 47 70 93 39 AC D1 58 D7 C4 1E 8F 2C CC 27 79 D3 49 83 60 
59 B3 FE 63 1D 33 0C 4A 25 AA EC D4 9F 8D 5C D6 EC 9B 4C 61 9E AE CA AE 1C B1 FF FB 1F 95 0F 9A 
CD 41 D2 30 44 A2 B6 4A 16 94 C4 FA C3 2C 52 7E 36 23 46 15 EA F8 08 C0 8F 89 F1 36 77 B7 AB 71 
13 BA E8 D2 4B 22 23 69 ED 3F EF A9 01 18 C0 E0 D6 F1 61 85 DF DA EB 8F 7E 4D CA 63 49 39 59 13 
13 50 22 7A E7 B8 D3 43 45 B3 39 4E E0 EB 6D C5 C7 09 E6 B3 BC E9 69 9A F5 06 E0 5C 39 A5 D5 2F 
A2 0E 94 EE 22 6B B3 90 34 C0 97 A1 7E 4A E3 1A D1 D0 F6 E6 08 F0 E5 DF 94 0F C2 A6 A2 26 0A 7A 
98 DB 23 2B BC A9 84 80 FD E3 AB 71 76 B7 71 69 93 39 6C 8C F3 06 04 42 00 D7 93 9A 67 09 31 C9 
1E 73 4C 6B FF 1B 98 4D D9 81 13 D5 67 8F CD 55 E8 29 E1 8D 20 9D 21 65 2A FD 69 0B 11 CD 3D 1A 
98 AA 83 B3 8B A7 95 D0 92 12 92 35 DE 3A 3E 33 C8 C9 8A FB A6 F7 5E 94 AA 47 B9 7B 26 73 0C 30 
56 CE 34 04 9A 48 90 23 54 74 EA B0 BC 45 C5 F1 71 21 CC AB CD DD C1 41 D3 AC C3 87 AB 04 EC 66 
73 58 9A BB C9 88 12 24 9F 08 E1 7C 6F 6E F3 F6 DD 2C 20 40 BD 01 FC 80 94 CD 85 94 DD D6 A0 2F 
1A 3B 9E D2 21 29 33 12 A7 EA 4F 01 53 50 18 D4 0D 65 C5 F1 A3 A1 DD A9 63 F0 28 2D 58 E6 87 81 
53 C5 42 8E D1 1A 7C F4 2C C0 74 AA 18 78 77 77 32 A8 5C 00 A3 76 E3 1A 24 36 8A 5E B0 41 98 A2 
3C 96 94 90 1C 73 59 34 CB 29 4F 27 CB F2 BF B3 39 A8 53 12 23 6F FA A1 30 FE 16 3A B7 B6 AA 84 
D9 14 C6 CA 6D D5 A9 93 35 78 5C B4 47 96 F7 BE F2 17 B4 9B 0D 30 81 C1 63 A7 3D B2 68 D7 E4 AE 
29 12 A5 70 57 13 01 B8 F5 02 19 74 E1 6E E3 D4 36 0E 08 00 70 01 E7 FB 25 60 92 C2 66 17 C8 1B 
D9 D8 B2 FD 53 04 BF D6 42 84 5A F7 D6 23 57 05 A0 53 07 7A 01 C5 4C 48 59 39 FA F9 AC 03 48 E9 
11 50 C3 C4 80 B9 F8 EE A0 35 08 7A 20 B1 51 EB 4D BE 1B 51 36 4B 4A C8 7A DF AA 3A EA 77 38 97 
52 D2 78 B6 56 C5 03 2C 7D 50 63 01 A8 D6 36 48 07 AC C3 9A DB B1 87 D1 F8 74 A2 62 AF 11 80 7B 
6F C5 D0 32 02 1A EF 3D E7 02 4E D5 58 C8 71 1B 83 F0 A6 B2 23 5B 4B 86 53 85 94 63 F9 47 B4 51 
3D 8A D9 A9 DC 84 1F DF 8D 4D 98 52 76 BA BD C0 7B DF D8 EC 45 35 03 6C CC 36 58 21 10 A3 59 87 
12 73 5C 41 5A FB DF EC A4 E4 9A 6B C7 98 C1 C0 E8 45 60 C1 7A F3 D4 8B A4 59 53 F2 62 5F A7 08 
2E 66 ED 91 8B E9 D7 C9 1C 66 71 BE AB 3C 96 94 90 35 EB 04 84 10 D4 51 97 2F B5 70 E9 5D A4 DA 
CA F8 67 64 B7 7C 54 9B 79 D3 49 2E 7B 59 B3 3E 02 FA EF BD 12 AE 9E EB 4F 71 87 73 3D 60 3A 99 
A3 F9 26 21 20 A0 3A 65 FA 3C 06 45 0C 67 BF AC 7F B3 EB AA 38 1F 46 03 B4 F3 46 4B 29 D6 69 D4 
4E E8 CF E0 CA 9C 8D 5C EA 3C E5 65 32 45 F3 DD C3 06 21 85 66 1D 5D B8 AA A3 3A 9B C3 C2 C3 5A 
2F 99 D6 FE F3 9E 1D 40 04 B4 2F 3C 0B BE F9 61 40 43 72 35 B9 47 D4 5A A0 C1 BA FD D6 A0 19 B3 
DA 2C 34 EB 1F D1 6B 86 F7 5D FC 8C 50 2F C6 A5 95 C7 92 72 B2 66 9D 80 94 92 3A EA CB BF BA 17 
0E 85 45 68 AE DF B9 70 01 23 6F 3A 80 E0 CA F4 E1 DA 47 6D E5 5E 23 E0 FC BD A7 16 3C 95 87 FE 
14 CD 7B A1 DE 31 FD 61 84 B9 37 FB 19 19 6F 9F 9A 08 85 E7 29 8A DF EC 81 EC A7 89 0B 35 97 3A 
FE 19 D5 8E FD D2 4E D3 BD 36 F4 CE 3E 71 2A CE F7 20 6F 25 D0 03 AC 82 71 93 29 6A AD 2E 25 E7 
E5 E1 3E DC 2C 20 60 02 96 F7 B1 6F 76 C9 D5 B7 BF 85 97 3D 7F AD 18 D4 8A F6 9F 8B 10 A8 88 3E 
46 ED 71 E8 A2 EA 50 B1 ED 11 A2 E1 39 FD AA 97 4C 0E BD FF 6D EC D4 66 80 E1 9E 9A 5F AE 51 C3 
79 21 8F 55 79 2C 29 2F BA E8 6B 5E E1 5C 25 32 2E 43 77 9B 74 99 47 2F 7E 67 C4 6A 43 19 AF 18 
B4 B0 90 0B 5D 2E 58 29 B9 C7 94 D6 03 29 D5 C8 31 E8 61 F9 5C AF 6A F9 BE 88 99 31 78 94 34 14 
56 02 F7 79 4B 90 5A 0D 2F 57 72 C6 12 A4 94 81 94 83 96 BB 36 EF 8A 12 54 73 4D BB 9B 89 B9 56 
B4 FF E5 5C FA 95 C6 5A 5D CC 72 7D 31 F8 F2 13 A7 16 FC 53 23 A4 03 F4 C2 83 1E 94 61 EA E0 12 
5A 52 5A D2 9E B2 AD B4 08 C7 67 06 CE 12 7A B5 79 D3 01 C8 2B 13 49 1D E4 F2 90 66 BC 73 F5 DC 
67 49 53 61 33 01 29 3B C0 3F BA F4 8A 70 AA 70 E4 78 FD 71 2B 29 44 E7 CE 04 CC EF 5B DD 8B CD 
9A EB 8A F6 BF 4C F6 2B ED D4 D1 91 C9 C5 EA 67 FC D3 08 13 0A 1F 03 2B 0C 2B 8F 25 87 05 EF D5 
C2 30 0C 53 3C EC 5B 19 86 61 8A 87 7D 2B C3 30 4C F1 B0 6F 65 18 86 29 9E E4 B9 2C 16 25 D7 39 
DC DA 28 89 E5 DB 9B 71 B8 25 EC 32 D7 6B 50 1E 4B 0E 0E 21 B5 79 BD CF 9F 3F 7F FA F4 69 8F D6 
30 0C C3 1C 16 C7 C7 C7 89 72 8D 1C 13 60 18 86 29 9E E4 98 C0 DE 45 C9 CB 40 79 24 DA F3 52 12 
CB B7 37 E3 70 4B D8 65 AE D7 80 2D 59 8B 32 2C 8D D4 6F 07 F6 2B 4A 5E 06 CA 23 D1 9E 97 92 58 
BE BD 19 87 5B C2 2E 73 BD 06 6C C9 5A D6 86 A1 39 26 C0 30 0C 53 3C EC 5B 19 86 61 8A 87 7D 2B 
C3 30 4C F1 6C E5 5B D3 F4 D6 33 A6 A7 E9 9E 2F 4B 1F 96 84 D5 D2 F6 FD 29 30 ED C7 2E 8A 84 72 
95 52 50 2C CB 0E 48 AB E4 DD 5B 82 3F D2 D3 DB 68 22 6D 5F 82 A2 3F C5 C6 EA 44 EA 86 AA 5B 9C 
05 BA 17 19 4F 1A BB 71 EA 89 D0 35 A9 76 A3 2B 55 1E 4B 62 50 63 C8 72 EA FE 14 19 95 CD 96 33 
6E FC A4 6C EE 5B D3 F4 D6 B3 A7 27 EA 9E 4B 29 07 8F 72 F6 7B 63 BB 5E 8B F5 D2 F6 F7 21 EA 4D 
75 51 B4 53 A2 79 25 BD 39 70 61 4B 79 27 A5 F4 7B 81 12 8C DA 0D 69 95 7C B2 B4 65 E2 6B 13 01 
93 F7 9E 94 4D 29 A5 E5 2D 84 D9 CD FB 40 86 C0 44 F4 55 09 6A 13 D5 0D 08 81 AE B9 B9 3B 98 7D 
0B A5 BC A4 9A 4C DC E0 38 F1 8C B4 E1 69 C6 53 D0 8D 53 5B F3 A9 5D 83 3B 75 2C A4 74 5B 03 29 
83 DD 88 5A 96 C7 92 18 5F 86 11 D0 5D 2B AE D5 9F A2 6B 66 7D FF 15 92 91 58 A3 3B 90 F6 4E 4E 
D3 5B CF 9B 9E 58 B8 53 85 79 B5 ED 66 74 85 B3 5A DA 3E 04 9A 98 24 EE F5 DB 04 9C EF 77 74 E4 
E0 83 39 1B 59 9B 6D 95 5F 2C 9D 33 63 C5 8E CE 21 10 DE 14 DC 13 99 4C A1 F6 3B BF 3B 33 D0 1A 
28 5D F1 8C D4 E6 E8 C8 8F 54 C2 E5 99 F1 00 77 63 A9 D4 C9 4D 68 79 1B 6E 7A EF CD F1 F1 4D F2 
BD 5E 01 6D AC B7 BC 0B F0 6A 4E 6A C9 FB 67 D7 8E B1 D9 A6 E0 1B 53 1E 4B 08 52 3C B3 7A EE 78 
84 D5 6A E4 9D 3A F4 8D 65 B3 B3 71 46 62 8D EE C0 E4 54 26 0E D2 D3 F4 D6 F3 A6 2F 9F D7 9B 03 
D3 5D 8F 55 B3 B0 5A DA 7E 32 85 79 BA 3E E3 6C 8E 8F 1E F6 BB DD 7A 16 BF D9 B8 09 81 7C 8E 6F 
2D 4E 1D CA 9B 1B 00 8E 73 3F 90 B1 9A BC EC 3D AC DD F0 3F 91 FE 14 9D D3 09 B0 A1 58 56 FB 5B 
58 71 BA 7F 8D D4 F3 81 F2 75 8A CB E3 B6 FD A1 E3 C3 D2 85 0E CB C3 9A 98 40 A7 FE B4 AD FA 39 
EE F4 C0 4A 9A DE 7A DE F4 E5 33 CE E6 28 43 B7 6E 35 CB D2 F6 B5 59 A8 24 B5 D3 88 49 C2 EC 8B 
98 C8 A8 1E 4D 0B 6F C4 53 0C EB BA D1 B8 06 DD 6E 0A 39 91 88 BC 10 A2 10 05 F5 08 C0 AF 99 79 
BA 5E C5 2F 11 0A B3 6C A6 46 1E 02 CD FB FE 36 63 58 79 65 4A 29 DD 50 0A B3 9B 3D D8 FA 4A 78 
73 D8 C2 0E E7 1E 85 A1 F7 A8 6F BF 63 4B BA F7 A1 79 EA 92 E0 5E 4C A7 6B 2D 6A E2 27 F6 82 54 
E9 CB C1 59 F5 98 64 0F BF 66 8D B7 8E CF 0C 72 B2 E2 BE 59 78 AD 75 01 21 1A 74 55 DB 04 38 76 
46 52 40 20 41 8E 50 47 DC 84 5D 53 34 AE 37 9F 3F D9 12 55 C9 ED 23 01 3C 09 EB 46 40 E5 BD B7 
78 37 26 67 D1 B8 86 39 ED 2F 64 87 34 8D A5 94 7D 74 BA A6 F0 81 F3 A3 B6 BC C5 E0 51 B6 47 16 
A6 5F B7 34 66 32 C7 00 E3 B5 6F A3 44 EC 61 D4 3E 12 ED 91 DF 17 95 0D E2 AD 93 9B D0 BC DA 56 
DE 15 40 A7 8E 40 CA C6 B5 BB C7 DE 6B 7F 8A F6 91 F0 E1 4F 8E DA 52 36 E9 EE EC 45 45 78 C7 96 
78 73 0C 7E 7D A1 F6 E3 9E 9A ED 11 B2 B7 49 7B 18 D9 3F 2A A4 46 A3 C7 FD 55 7A 20 65 17 6E 78 
D3 D0 73 4D E6 70 47 63 29 83 B1 94 19 47 4B 39 E6 B2 C8 A9 CB D3 89 F3 5D C6 FC 48 9A DE 7A C6 
74 7D 9A 25 6F 40 6A F7 2C 07 04 66 53 18 6F D7 E4 A2 CE 0E 7A 41 AE 76 50 20 AA 92 95 6E 15 80 
AF 53 28 BD 55 1A A3 C4 3A 74 14 72 B2 80 F1 E3 00 55 A7 56 05 29 D8 6E C9 F8 5B E8 DC DA 9B 09 
32 D2 6B DE F2 16 5D 20 1A 7E C9 95 D7 9B A3 73 3A 2B 2A 26 43 BA 84 79 A3 C6 05 A2 EE 4E E7 71 
00 98 4E 15 96 77 37 B9 C6 EE 05 92 77 6C 89 DE B9 21 19 F3 8C 77 21 26 92 A8 E2 FE 21 00 E7 AB 
73 3B 00 0C 8A 8C EB 53 94 FD 9F C0 85 E8 C8 BB 5C 2D 67 BD 6F 55 2B 2D EE 70 AE 9E BD 34 BD F5 
BC E9 CB A7 B3 DF 1A 7B 09 8D 67 27 26 6D 1F 01 B8 F7 32 EA 21 07 57 66 16 39 FB 57 A5 59 05 DE 
3C BD 18 1E 66 7B E8 41 DB C3 68 7C 3A D9 2C 54 AA A0 A7 22 6F AE F6 B7 50 98 6D 6A CF BE 53 69 
8F 20 44 65 9B 8E 67 DA 0C CF BE 28 8F 3D AF 67 09 F9 C7 8A E3 D3 7D 6C 08 01 74 95 1F D7 63 5C 
CB E3 F7 58 AF 8E E2 FE B3 5F 98 CD A3 C4 5E 20 00 1F E8 3A ED B5 33 66 CB AC 59 27 20 84 68 DE 
0B EA 51 EA 81 C2 34 BD F5 BC E9 CB E7 75 AA 40 DD A1 B5 A2 B9 AE 64 67 C4 A4 ED 27 73 34 DF 24 
04 04 4E 90 F0 F2 A8 01 56 AB B6 56 CE FE 55 31 00 F3 EC C9 AF 9D D4 8C D9 08 BB 0C 70 F7 A7 B8 
C3 F9 F6 4B 76 E8 A9 30 6A F9 3A D1 34 7A 50 23 24 52 2A DD C6 98 87 59 B4 71 D4 38 0B B5 2A BA 
B0 30 7D F1 54 4F E6 A8 61 9C D8 EB 7F 98 45 B5 16 5E A3 77 52 1E 4B 26 53 04 BD AE AE A8 3A 78 
94 CA 36 9A 84 A7 F4 E5 F1 3B 0D BC 62 9D DC DA 31 6A 55 23 6D 06 88 16 53 FA BD A0 7F D4 CE D5 
0D 5F B3 4E 20 6D F9 5E 9A DE 7A DE F4 C4 53 7B 73 C0 B4 51 2F 20 28 F6 1A C4 A4 ED 67 3F 23 E3 
ED 53 03 A2 25 E5 B4 A6 A2 D9 C3 F2 08 82 26 37 B7 EC B2 6D C6 03 B0 DC 74 9A 75 E8 A1 25 6F 8E 
68 D8 57 93 F8 85 AF D9 88 CD E6 F5 87 D1 C6 DF 2F E8 11 B7 7D E1 CD 61 FF 38 CF 65 83 FF 3B DF 
6B AC 59 05 5A B6 BE 92 D7 9B 63 7C 64 9B 1F 9E 5B A0 0F D0 44 F9 DA 27 6B 1B 4A 62 49 08 3C 98 
7D F3 C3 8B 21 0B CD 68 AD 5E EF 4C ED 9F C2 38 8D EB A7 AE 9B 37 87 75 FD C5 FC 30 30 01 F4 9A 
AA 84 08 F0 6E 3C 7D 5E 64 71 65 76 5B 83 58 10 76 0D BA FB CF AB 6B 9F A6 B7 9E 31 3D 4D F7 1C 
E9 B2 EF BB 24 8B B4 FD 42 CA 41 6F A0 FF 49 57 A4 4B B7 EB 11 E4 DD 5C D7 0A 71 F9 85 67 C5 0E 
26 B1 78 FA 55 C5 64 C9 E6 41 0B 6E F8 64 BC 05 04 8F 03 75 E4 72 39 AB CD 90 49 91 F4 65 81 FB 
D5 25 E8 8B 0D D7 E6 4D 2C 41 47 F5 5B 73 95 A0 47 AB 57 64 5F 3E AF 5E CF D4 15 CA 6E 2D 7A 81 
BA F0 58 5E 8A 72 5A BD 1C F7 25 0B E5 B4 44 AF 7C E5 5B 62 2D 3C E6 73 A4 D6 6C 94 C1 AA 29 C6 
2E 41 BF 3A 19 BA 7A C6 C5 E3 40 9D 85 2E 6D AD B7 4C DD 63 30 0B 69 7A EB 19 D3 0B D1 9A DF 31 
31 69 7B 03 70 AE 1C FD CF E5 2B CA A5 4A 5F 38 6B 2B F9 8F 58 FC 8B 71 B1 6E B3 AE 38 2F 25 62 
47 66 67 FB 7A E8 D4 5F 18 B3 25 9B D9 E3 54 E1 C8 4D 56 D1 25 D6 73 46 E4 95 89 95 5F 7F 8D 3F 
D4 56 1F 50 14 FB B5 24 B1 F2 D7 B6 F0 E5 66 93 76 EB 63 57 D7 89 35 FE EF C8 E5 AC 78 AF 16 86 
61 98 E2 61 DF CA 30 87 0A 7D F0 EE 03 F6 51 7B F7 3B EF 94 D3 92 F2 B0 55 4C 80 61 98 3D 52 6C 
90 64 1B CA 63 49 79 E0 7E 2B C3 30 4C F1 24 F7 5B 59 94 5C E7 70 6B A3 24 96 6F 6F C6 E1 96 B0 
CB 5C AF 01 5B B2 31 42 6A 3D F9 CF 9F 3F 7F FA F4 69 8F D6 30 0C C3 1C 16 C7 C7 C7 89 22 89 1C 
13 60 18 86 29 9E E4 98 40 D9 A4 C0 F7 42 69 85 D1 D7 52 12 CB B7 37 E3 70 4B D8 65 AE D7 A0 84 
96 1C 1C A9 EB 04 4A 25 05 BE 17 4A 2B 8C BE 96 92 58 BE BD 19 87 5B C2 2E 73 BD 06 E5 B4 E4 B0 
E0 98 00 C3 30 4C F1 B0 6F 65 18 86 29 1E F6 AD 0C C3 30 C5 B3 95 6F 55 F2 32 B1 BD 56 D3 D2 D3 
F4 D9 D3 8E 2F 1B A4 25 75 10 A6 C6 D0 37 0C 8E 86 B6 DA 1E 77 85 9A 2F C9 1F E9 DF 2F AA 5D D2 
37 96 A5 49 33 23 6F 5E 9D EC BA F3 69 25 6C 26 40 AF 6A 83 2A 24 42 14 0E 33 15 F2 A4 48 76 50 
ED 87 D9 80 CD 7D 6B 7F 8A 13 A7 22 65 10 48 29 CC E7 87 24 2D 3D 4D 9F 3D ED F8 B2 11 02 13 D1 
97 B2 49 7B 94 AD DE 2C B2 6C 54 6E C2 01 DA B4 21 DE 39 EE 48 94 8C C4 B2 96 EF 08 E1 54 31 96 
63 B5 D5 AC 37 47 ED D6 96 72 B1 8D 64 56 A2 19 19 A1 ED 8E DC 50 EA 0A 40 24 6D 24 44 23 A6 43 
9C BD 04 29 E5 49 7E 19 21 71 13 3E 98 42 6D 4F 87 5B 59 11 E7 B3 1F ED 2C AF 9C 2F C3 08 E8 AE 
D0 90 67 FE 0E D6 E8 0E A4 C9 58 46 40 F7 D6 EB 84 2E 60 9A 80 1B 76 A8 AD A4 A5 23 45 9F 7D C5 
F1 65 A3 36 47 47 7E A4 ED AE 2F CF 8C 07 B8 89 BB 94 97 90 10 C0 F5 44 6D 54 3C 3E 33 68 63 4A 
03 58 7C 77 32 2A A3 8C 7F 46 B5 63 1F 30 9C 2A A4 1C 7B D5 4E 34 CC F7 16 4C 33 63 1B 4C 80 94 
13 CF 1D 7F E3 2D 42 3A 67 46 AE DD CA ED 61 64 5D 37 48 40 8C 52 9C 2A 16 72 8C E3 F5 35 49 62 
6B 56 CF DD 40 23 84 39 2C D6 E8 0E 4C 4E A5 1A C1 E9 BF 4E E6 B0 46 63 5D 13 7B 3C B2 30 9F A4 
A5 A7 9D 25 EF F1 7B C4 A8 42 6D A2 3E 9B E3 B2 F7 B0 17 F9 80 0D A8 01 68 D5 F4 97 56 A7 8E BC 
42 26 FA 86 F9 11 D0 BE F0 D2 F4 85 5E D5 8C 65 0C 60 70 EB F8 B0 C2 6F C9 1D F0 15 84 40 78 93 
FB 0D E1 3B 5F 2F 7B 88 DD FD 3F 3B F9 AE D9 66 9F 84 27 EC 0F 1D 1F 16 6D D1 CF FC AD AC 89 09 
90 F6 27 8D E0 F4 38 E3 6C 8E 13 F8 BA 4F 24 B5 99 B4 F4 B4 F2 F3 1E 5F 06 BC 39 70 61 9B 57 77 
FB 36 24 2B 24 A8 43 BA 7B 69 63 67 15 3D D4 63 3B 14 CA 7C 8A 0F 5E 37 1A 47 C4 92 74 00 00 0E 
F9 49 44 41 54 D7 10 42 7C FE 3F 44 45 D8 18 B5 2B 8E 9F 2B 52 99 C5 8C CD 20 11 A4 D9 2F E4 1D 
F1 A4 E9 10 AF 60 32 05 D0 AD BD B1 72 E5 52 74 EF 43 F3 D4 25 0D 92 C9 0F BF 9C 43 34 A6 10 B2 
C6 5B 49 B8 58 4A 29 EE 9B 1B 4F 65 FC 05 D8 C3 A8 7D 24 DA 23 BF 2F 2A 07 14 6F ED D4 41 7A 18 
A4 8E 19 0B 6A 37 AE 41 8A 93 E8 05 D4 AF A4 ED 38 E9 D7 A7 0D F3 7B 01 09 D2 7C FA 3F 65 20 C7 
80 BB F0 AC EC 5A ED 59 CC D8 18 EA 11 67 17 55 EC 02 42 34 84 10 ED 23 01 F8 5B 9E 3D 36 45 B6 
E2 A2 74 8D 2F F7 D4 DC 97 9A 3A B3 1B 72 CC 65 D1 6C BE 3C 9D 38 DF 65 6C EC 93 F6 FE CF DB 2F 
D8 A0 1F B1 63 E8 1D 63 79 8B 2E 10 0D BF EC DB 9C 1C 50 9C 94 42 9C C2 EC EA 3D C7 A0 07 52 9C 
B4 DE 3C 0D 20 48 6E 7E C7 66 6C CC 0C C0 68 96 5D 55 54 CD 65 E9 FA 4B 1B A3 A6 C8 48 7C 69 45 
94 63 FC 33 6A BE A3 1C 68 D6 01 B8 31 C1 51 E6 6F 62 BD 6F 55 A3 C5 3B 9C 4B 29 A9 E9 D4 AA 78 
80 A5 0F DE 2D 00 D5 5A 5A 7A 5A E1 79 8F 2F 09 77 67 46 C6 29 A0 32 10 01 6A 79 50 A7 0E D2 6E 
FB EA F8 3B EE 77 BF 9E 19 F4 4A AE 1D 23 AF AA 68 B3 0A BC C9 E7 DC C9 27 26 0E E7 13 55 D3 15 
14 A8 A5 0E BB 10 A2 21 04 D0 9D 5C E3 80 46 3F 4C 2E D6 AC 13 10 42 D0 68 51 4A A9 A4 8F 01 34 
AB F0 5B B6 F2 89 E3 9F 91 DD F2 51 6D A6 A5 A7 9D 25 EF F1 25 81 54 A6 8D DA C9 BE 0D C9 CA E4 
07 D4 33 4C 71 CF BF C6 0C 9A 58 B3 E0 C7 74 95 B3 60 00 E6 59 3E 1B 48 6C B9 3D 42 34 3C CF 95 
71 32 45 D0 EB EA 3A A0 83 47 D9 85 85 69 19 67 6E 99 ED 59 B3 4E 40 4A 69 26 A9 36 D2 83 41 B1 
39 5D 8B 3C 2D 5D 65 8C E9 B3 AF 3D BE 9C E8 81 B3 83 A0 0B F4 45 43 69 AF 77 6F BD 66 0F E4 28 
56 40 92 EE EA 4F 35 59 44 F1 4D 00 DE 14 B9 56 3E 6D 66 C6 0A D4 A2 E9 71 E8 66 8F FC C6 AE 2B 
2F 8B 2B 13 AD 41 C5 F1 D3 56 28 2E 13 02 0F 66 3F E6 FD 69 46 EB B0 16 4A 33 D9 D9 FC DB 81 4E 
1D E3 77 0B 21 2A 0D 21 64 F8 BC 98 26 2D 5D 4D 37 B7 47 B0 45 45 3D 93 69 C7 97 0D FD 3B 1C 5C 
08 E7 FB 5D F9 DF 01 8A E0 1D 9A 52 0A 31 11 42 54 84 08 8E DB E6 95 54 DF 0E 34 AE 11 DE 08 7B 
18 F9 4E A5 3D 42 5F 54 FA D3 50 49 CB 85 73 4F DD 38 21 2A 98 F6 A9 DB 5E 71 FC DA BD C8 35 97 
95 68 46 C6 BC 34 90 EA 9A 42 CD 44 D1 C8 7A D0 EA 4A B9 C8 D2 6C 54 09 3E 20 8E DA 1B 87 7A 55 
80 95 16 4E 10 0F A6 E8 3C 0E 12 DF 13 DE 1C 0D 61 FB E8 8A A3 B6 9A E9 22 63 70 DD A0 CB 29 ED 
27 33 CC C6 6C A5 45 98 26 F3 9D 98 BE 42 9F 7D 7B E5 FA 1D 70 B8 6A 6B 06 60 9C 39 58 AA FF 98 
B0 FB 18 D0 EF C2 0B 65 76 89 D8 8D 5B AB 53 9F DD 8C EC D9 57 CB D0 EF A0 04 9D EC ED C1 A9 C2 
91 F1 A5 AC C5 1A C3 94 10 DE AB 85 61 18 A6 78 D8 B7 32 0C C3 14 0F FB 56 86 61 98 E2 61 DF CA 
30 0C 53 3C C9 73 59 07 27 05 FE AA 1C 6E 6D 94 C4 F2 ED CD 38 DC 12 76 99 EB 35 28 8F 25 07 87 
90 DA 5C E7 E7 CF 9F 3F 7D FA B4 47 6B 18 86 61 0E 8B E3 E3 E3 44 B9 46 8E 09 30 0C C3 14 4F 72 
4C 60 EF A2 E4 65 A0 3C 12 ED 79 29 89 E5 DB 9B 71 B8 25 EC 32 D7 6B 50 42 4B 0E 8E D4 6F 07 F6 
2B 4A 5E 06 CA 23 D1 9E 97 92 58 BE BD 19 87 5B C2 2E 73 BD 06 E5 B4 E4 B0 E0 98 00 C3 30 4C F1 
B0 6F 65 18 86 29 1E F6 AD 0C C3 30 C5 B3 95 6F 25 25 82 65 1D 8B B4 74 DA FB 27 26 09 43 FB 63 
AD D5 C3 28 09 89 97 80 F4 4B 2E 15 FA 56 5E D1 D0 CE A8 C4 47 97 BC BD 40 80 B8 09 E9 D4 B6 10 
D1 DC 5B D6 41 F1 E6 10 C2 16 42 90 4E 57 A2 19 22 89 8C B6 25 96 90 4B F2 0B 2F EB 30 46 96 5B 
AF 67 4F BC 4C E6 AF 61 73 DF DA 9F E2 C4 A9 48 19 04 52 0A 13 BA 86 5D 62 BA DA 6A 53 2F 24 02 
26 EF 3D 29 9B 24 94 22 CC 6E 99 7D 53 E2 25 20 FD 92 CB 03 B9 95 07 53 C8 C7 81 12 97 A4 AD EF 
D7 66 A4 7D 08 B7 B7 41 5E 99 96 B7 B0 80 F1 E3 C0 A8 3A F2 BB 83 5E A0 EB A0 38 55 04 72 EC C2 
ED C8 60 79 B3 3E B5 B3 9F 52 64 51 3B 4C CF 7E 67 32 60 B9 84 40 4A 1F AE 7D D4 CE EE 5E 1F 66 
D1 C2 B3 A4 94 A4 9B 40 FF 26 A9 B1 D5 19 9F 36 15 34 85 32 FE C1 5B F0 EE 82 7F 31 6B 74 07 D2 
76 FF A5 8D 8D 3B A1 0B 98 26 E0 86 1D DA DF 3A 2D 1D 7F F6 18 B4 BC 85 5E CE 64 8A CE 2D FD F8 
24 94 52 66 05 A1 C4 4B 58 71 C9 E5 E1 7C 18 59 A3 F6 F8 71 A0 B6 5B 1D 9F 19 BA 22 96 37 47 34 
4C 78 C8 0D 60 F1 DD 29 4A C0 E6 F2 CC F0 E1 AA 7D A9 07 1F CC 98 94 F4 6C 8E 8F 1E 72 ED 96 ED 
54 61 5E 6D 28 46 4D F7 CB 07 B2 CB 59 DB 80 71 76 B9 9C 3E F8 60 AE 56 EB A2 5B A0 EF F1 3A 3E 
33 2C 6F 61 9B DD 5C 1D 67 E6 50 58 A3 3B 30 39 95 89 C3 AE C9 1C D6 68 AC 6B 5F 8F 47 16 E6 93 
B4 F4 B4 B3 38 F5 67 9D 77 DA 71 79 CB EB D9 3D 79 2F 79 F7 90 A0 C3 65 0F B1 7D AC 3F D6 31 C3 
80 DE 88 ED 0B 6F 07 2A 90 24 88 A2 5E 9F CD 2A D0 B2 75 ED A9 D9 CF C8 78 9B A3 0D 78 73 60 BA 
53 C7 E4 9C 19 89 AE DF A9 02 F5 D4 CD 58 D3 6E 81 FD D6 F0 61 85 DF 0A 18 16 30 65 63 4D 4C A0 
53 87 1A 42 EA 41 A5 D9 1C 27 F0 75 87 E2 E3 04 F3 59 5A 7A 16 53 22 00 BF 66 E6 A9 BB F9 D5 EC 
83 6D 2E 79 37 4C A6 00 BA B5 37 71 41 53 03 70 AE 1C 6F 6E 54 84 8D 51 BB E2 F8 2A 12 EA DD 08 
0A 4D 16 3E 62 75 4F 4D 25 C0 47 FA AC E3 11 E8 55 14 01 B5 DF 93 5C 6A 69 B3 39 32 EA 66 27 E2 
CD D1 35 6D 37 A5 2B 5A 20 69 B7 A0 56 05 70 A2 C4 72 98 BF 89 AC F1 56 D2 8E 96 52 8A FB E6 F2 
4C 4E 21 4C E6 18 60 7C 40 22 54 7F 07 14 E5 04 DC 85 67 DD 49 59 B9 00 46 ED F1 35 E4 2D 94 AC 
6F 81 34 EB E8 C2 25 01 BE C9 14 6E EF 41 85 05 26 73 34 DF CC D6 2A E5 E8 9A 2E 5D 33 AB 62 55 
62 09 E3 23 21 1F ED 8E 94 DB 68 76 6D 03 29 8F CD 46 D8 E6 0D C1 94 93 1C 73 59 34 15 2E 4F 27 
CE 77 19 7B 00 48 C4 78 39 4B 5A 7A 22 E3 6F A1 73 6B 1F 90 08 55 22 B9 2E B9 6C A8 E8 EA F2 E8 
B5 28 C8 9B 3C 85 05 66 D1 C7 0F B6 0A 0B 64 0C 08 E8 73 59 B1 D8 77 46 A8 84 C1 A3 8C 45 7B F7 
45 AD 85 D5 B1 5A E6 10 59 EF 5B D5 AA 91 3B 9C AB 8E 4C AD 8A 07 58 FA C8 D7 02 50 AD A5 A5 AF 
3D 8B 3D 8C C6 A7 93 57 7A 9E 5F 95 8D 2F 79 67 D4 AA 00 AC D9 6F 7F DF 86 00 80 01 58 EF 9A 93 
6B 44 08 6B BF 27 46 B5 69 BD 6B CE 46 88 30 CB 1B 10 00 60 BF 35 36 F6 4A 4E 15 96 77 77 EE F8 
3B 98 4A 4A BB 05 93 39 30 1A D7 8E 71 E8 5D 0A 66 99 35 EB 04 84 10 CD 7B 41 7D 04 E3 EC F9 0D 
DF AC C2 6F D9 CA A1 8C 7F 46 76 CB 47 B5 99 96 BE DA 88 FE 14 77 38 2F AD C2 EB 6A 36 BB E4 5D 
42 5A CD 5F AE E3 7A D7 11 D0 7F EF ED 7E 89 A5 FD D6 E8 C2 9A 0C 27 14 01 88 FD 99 AB 28 9A 41 
EA 4F 37 5C F7 76 77 66 F8 AD 81 77 D1 7E ED 70 67 DA 2D 18 FF 8C 2C F8 31 6D 6D E6 EF 60 CD 3A 
01 29 65 A2 CA B1 01 B8 17 0E 2D 36 A2 39 50 E7 C2 05 8C B4 74 95 D1 FF 1D 8F 2B F5 A7 68 DE 0B 
E5 B8 FB C3 A8 E4 4B 52 62 97 B0 F6 92 CB 40 70 65 C6 16 72 46 C0 F9 7B 8F 16 C0 D1 38 1D 80 37 
8D 3F FC 8A 02 BB BD B4 3C 60 EC 74 29 02 10 FB 33 2F DE 1C 30 6D D4 73 BC CC 1E 00 7A 17 1A 40 
F0 DD 69 8F DC BE A8 6C F6 8E C9 5E 2D 74 0B FA 47 6D 75 22 12 2D BF F3 AC 43 1C AE 31 6B D9 FC 
DB 81 4E 1D E3 77 0B 21 2A 0D 21 64 08 D5 EB 4C 4B A7 EF AF 48 E6 DE 16 15 7A 86 ED 61 D4 35 85 
AE F3 5E FB 51 29 55 A7 4F 27 F1 12 90 7E C9 E5 81 56 E6 FA BD 40 1C B5 A9 9E CF 85 18 DF 3E 05 
55 69 F5 5B C5 F1 FF D7 7B 41 73 59 8D 6B D0 D2 66 F5 ED 80 4A D9 1E 0A 0B D8 2D D0 8D 8E FD 99 
06 0D A4 BA A6 D0 E7 B2 84 10 ED 23 D1 EC F9 59 26 A3 54 09 3E 20 8E DA B4 AC 90 96 B8 52 99 D9 
27 69 FB 53 54 84 A0 6A C9 F8 79 15 DD 82 6E 2F 50 C6 C3 A9 C8 C7 81 3E 1C 64 FE 26 52 F7 18 CC 
C2 F8 CC D0 15 ED 57 A7 9B 49 C2 F4 69 25 94 93 C4 4B 20 0E E2 42 E4 95 89 A4 51 88 FE 93 04 80 
E7 6E 14 0D 5F F4 94 42 88 55 57 96 DA DB DE 92 B4 12 3A 75 74 64 BE 7B B7 41 16 42 5E 99 E1 95 
6C 88 3E D0 E5 1E EB DF 0D EF D5 C2 30 3B E5 E9 0D DD 0B 2A 8E FF 4A CB 19 99 32 C0 BE 95 61 F6 
80 BC 32 A5 94 ED E3 40 88 0A 7B D8 BF 92 AD 62 02 0C C3 6C C3 8A 28 0D 73 E8 70 BF 95 61 18 A6 
78 92 FB AD 2C 4A AE 73 B8 B5 51 12 CB B7 37 E3 70 4B D8 65 AE D7 A0 3C 96 1C 1C 42 6A D3 9D 9F 
3F 7F FE F4 E9 D3 1E AD 61 18 86 39 2C 8E 8F 8F 13 E5 1A 39 26 C0 30 0C 53 3C C9 31 81 BD 8B 92 
97 81 F2 48 B4 E7 A5 24 96 6F 6F C6 E1 96 B0 CB 5C AF 41 09 2D 39 38 52 D7 09 EC 57 94 BC 0C 94 
47 A2 3D 2F 25 B1 7C 7B 33 0E B7 84 5D E6 7A 0D CA 69 C9 61 C1 31 01 86 61 98 E2 61 DF CA 30 0C 
53 3C EC 5B 19 86 61 8A 67 2B DF 4A 4A 04 CB AA 4A 69 E9 B4 11 51 DA 17 7E FD 29 CA FF F1 5F DA 
25 D0 0E E2 AC 87 9C 86 DA 0E 98 B0 85 A0 5D C4 C4 4D 18 4B C9 82 DA AF 9D 54 32 43 20 BC 59 5F 
F3 31 1B 94 BC A6 9E BE FA 0E C6 4A 58 2E 6A 05 EA 4A 63 70 9B F9 5B D9 DC B7 F6 A7 38 71 2A 52 
06 81 94 C2 7C DE 9C 38 2D 3D 04 2A A2 9F A6 74 1F 02 5D B3 EC 8D 2C ED 12 68 A7 C4 BD 98 74 28 
D0 1E 54 83 47 09 58 16 A0 D4 BC E5 95 89 5E 30 68 61 2C 17 59 36 85 22 EF F6 60 0A F9 38 50 2A 
99 0D 21 80 F5 D2 EB 64 03 C9 C0 2C 3C 4B 6D EE 47 4A 36 56 6B 20 1F 07 AB F7 87 A4 12 DC 50 EA 
BA 32 6E 28 2B 8E BF 76 03 46 0B 50 36 2B 35 1A 19 BA 25 DC 91 92 29 84 35 BA 03 69 2D 26 02 BA 
B7 5E 27 74 01 93 76 C0 A4 CD A1 D3 D2 F1 67 FB 9F 34 81 A3 C9 4D 68 79 25 D2 41 49 24 ED 12 C6 
67 46 20 25 70 60 0A B5 BB C7 A9 62 F0 38 D6 55 A3 FB 53 0C 7E 35 9C EF 8B 8C BB 89 9F 0F 23 6B 
D4 56 AE 19 C0 F8 CC 70 C3 1C 9F E4 5F 9E 19 CB 77 6A 06 5C 1E CF 36 DB F1 AF 53 07 7A 81 12 AF 
4D 24 02 2E DF 3C 97 EF CD E1 3B E7 41 AF 8C 5B FD 32 45 B1 46 77 60 72 2A 13 47 3D 93 39 AC D1 
58 17 8E 1E 8F 2C CC 27 69 E9 AB 8D E8 4F D1 39 9D 00 25 DD 12 9B 29 10 52 A9 6A 5C 03 D3 3E 49 
06 38 DF 83 8C 8E 95 64 1D 96 75 12 3F D6 31 C3 20 63 34 C9 04 2C EF E3 57 C7 D7 5D E1 64 0A F3 
34 D7 75 BC C0 7A 53 53 5A 06 89 18 80 79 F6 64 73 04 B4 2F 3C 17 BE 79 15 6C 7E 4A A6 F4 AC 89 
09 74 EA 50 23 2F 3D 3C 34 9B E3 04 BE EE 43 7D 9C 60 3E 4B 4B 5F 71 8A 10 68 DE F7 F9 05 FE EF 
70 77 66 A0 35 B0 CD EE F8 C2 EE 3C DA D9 F5 AB 27 53 00 DD DA 1B 2B 96 6E 00 CE 95 93 5D 47 87 
14 BA 48 C7 9B A8 CD C2 8D C5 DB A9 13 9A 5D 19 97 BA DE 9D C7 C1 BE 84 BB 99 DD 90 35 DE 3A 3E 
33 C8 C9 8A FB 66 B1 33 4E 93 9B D0 BC E2 1E EB 3F 04 A9 54 F9 70 6D EC 47 B4 91 94 01 55 B4 2A 
04 9A C8 27 83 A8 EB CA B4 8F C4 C2 43 A2 AC DC 32 FD 29 58 23 EB 1F 21 C7 5C 16 CD FE CB D3 89 
F3 5D C6 1A E2 6C 0E 52 78 8B 91 96 AE F0 E6 E8 9C CE F8 05 FE AF 41 3D D0 F6 08 D1 F0 7C 2F 06 
B8 A7 66 7B 04 4C BF 02 98 0C 23 E3 6D CE EC DA 5C D6 E0 51 56 1C 64 59 E7 40 13 B6 83 16 8C B3 
BB 8D 2D 67 0E 85 F5 BE 55 AD 77 B9 C3 B9 94 92 06 EF B5 2A 1E 60 E9 83 7D 0B 40 B5 96 96 9E 56 
78 FB 5B 28 CC 27 75 3C DF A9 B4 47 10 A2 C2 AB 52 FE 6E BC 39 6A B7 B6 94 0B F4 82 73 C7 CF BE 
F4 AA 56 05 60 15 A2 38 FB B1 0E B4 06 E1 7D 37 02 6A BF 27 DB 74 9F 97 27 E8 D2 68 DC 84 16 BA 
CE ED A0 6C 32 C0 CC 6B B0 66 9D 80 10 A2 79 2F E8 FD AC 0B 52 36 AB F0 5B B6 F2 A1 E3 9F 91 DD 
F2 51 6D A6 A5 A7 9D 85 94 2D D4 AA 94 41 0B 52 2E 38 F6 FA 17 13 01 B3 0B CF F9 7E 09 18 24 2B 
ED 5D B4 33 86 98 68 2C FF E5 3A 2E F4 1D 01 FD F7 5E 2E 11 6C 12 97 FD 72 8D C9 D4 6B BE C9 17 
10 D8 0C 7B 18 E1 BA 31 0E 5D 3D 1A 50 7E C5 78 66 63 D6 AC 13 90 52 26 06 92 0C C0 BD 70 28 62 
45 B3 B7 CE 85 0B 18 69 E9 2A A3 FF 7B D5 BC D6 41 90 78 09 6B A3 1F 0C 00 6F 8E 73 61 77 6E 41 
51 20 13 18 3C 76 DA 23 CB 7B 5F C9 E8 5E C9 1D DB 47 6D E5 92 22 E0 FC BD A7 CA CC CE E5 99 E1 
C3 1D 9B 6D E3 ED 56 8B FF 42 A0 7D D4 07 7C F3 34 75 11 5E E2 A2 AB 10 80 F3 75 C5 A8 8E 39 68 
36 FF 76 A0 53 C7 F8 DD 42 88 4A 43 08 19 3E 37 9A B4 F4 10 10 A2 8F EB 46 7B 04 5B 54 0E F1 75 
9D 76 09 F6 30 6A 1F 09 C0 17 66 77 ED 1A F2 7F 13 1A 06 B5 8F 84 0F BF 7F D4 26 C7 E2 CD D1 3E 
B2 01 3F 7B 2C 88 96 18 FB BD 40 1C 3D 85 92 CE 85 18 DF 66 9D A3 8F 15 85 5E 33 FB FC BE BA 8A 
AE 29 F4 B9 AC 86 10 16 BA 2B BE 3B A0 45 57 80 DF B8 7E FE 9C 8C 32 D6 5A 5D 80 7D EB DF C9 56 
5A 84 69 B2 F2 89 E9 4F D2 C1 48 1D EF 67 11 A9 DF 2F 69 97 50 7E CB F7 0E 0D 83 80 17 5E CC A9 
C2 91 E3 B4 2C 2B 28 4A C2 4F 5E 99 40 8E 72 12 AF E2 95 72 31 87 0E EF D5 C2 30 0C 53 3C EC 5B 
19 86 61 8A 87 7D 2B C3 30 4C F1 B0 6F 65 18 86 29 9E E4 B9 2C 16 25 D7 39 DC DA 28 89 E5 DB 9B 
71 B8 25 EC 32 D7 6B 50 1E 4B 0E 0E 21 E5 F3 3C E9 E7 CF 9F 3F 7D FA B4 47 6B 18 86 61 0E 8B E3 
E3 E3 44 B9 46 8E 09 30 0C C3 14 CF 8B 98 C0 7F FD D7 7F ED 5D 8E 9C 61 18 E6 2F E0 45 4C 80 61 
18 86 29 04 8E 09 30 0C C3 14 0F FB 56 86 61 98 E2 61 DF CA 30 0C 53 3C FF 3F 86 9C 49 AD 9B CE 
A2 50 00 00 00 00 49 45 4E 44 AE 42 60 82 
EndData
$EndBitmap
Text GLabel 8450 4900 2    50   Output ~ 0
KEY_ALPHA
Text GLabel 8450 1700 2    50   Input ~ 0
KEY_COL5
Text GLabel 8450 1600 2    50   Input ~ 0
KEY_COL4
Text GLabel 2800 1250 0    50   Input ~ 0
+5V
$Comp
L Device:C C5
U 1 1 5F227ADC
P 4900 2650
F 0 "C5" H 5015 2696 50  0000 L CNN
F 1 "10pF" H 5015 2605 50  0000 L CNN
F 2 "Capacitors_SMD:C_1206" H 4938 2500 50  0001 C CNN
F 3 "~" H 4900 2650 50  0001 C CNN
	1    4900 2650
	1    0    0    -1  
$EndComp
$Comp
L Device:C C6
U 1 1 5F22ADE6
P 5200 2650
F 0 "C6" H 5315 2696 50  0000 L CNN
F 1 "10pF" H 5315 2605 50  0000 L CNN
F 2 "Capacitors_SMD:C_1206" H 5238 2500 50  0001 C CNN
F 3 "~" H 5200 2650 50  0001 C CNN
	1    5200 2650
	1    0    0    -1  
$EndComp
$Comp
L Device:C C7
U 1 1 5F22B3F2
P 5500 2650
F 0 "C7" H 5615 2696 50  0000 L CNN
F 1 "10pF" H 5615 2605 50  0000 L CNN
F 2 "Capacitors_SMD:C_1206" H 5538 2500 50  0001 C CNN
F 3 "~" H 5500 2650 50  0001 C CNN
	1    5500 2650
	1    0    0    -1  
$EndComp
$Comp
L Device:C C8
U 1 1 5F22B3FC
P 5800 2650
F 0 "C8" H 5915 2696 50  0000 L CNN
F 1 "10pF" H 5915 2605 50  0000 L CNN
F 2 "Capacitors_SMD:C_1206" H 5838 2500 50  0001 C CNN
F 3 "~" H 5800 2650 50  0001 C CNN
	1    5800 2650
	1    0    0    -1  
$EndComp
$Comp
L Device:C C9
U 1 1 5F22CD6A
P 6100 2650
F 0 "C9" H 6215 2696 50  0000 L CNN
F 1 "10pF" H 6215 2605 50  0000 L CNN
F 2 "Capacitors_SMD:C_1206" H 6138 2500 50  0001 C CNN
F 3 "~" H 6100 2650 50  0001 C CNN
	1    6100 2650
	1    0    0    -1  
$EndComp
$Comp
L Device:C C10
U 1 1 5F22CD74
P 6400 2650
F 0 "C10" H 6515 2696 50  0000 L CNN
F 1 "10pF" H 6515 2605 50  0000 L CNN
F 2 "Capacitors_SMD:C_1206" H 6438 2500 50  0001 C CNN
F 3 "~" H 6400 2650 50  0001 C CNN
	1    6400 2650
	1    0    0    -1  
$EndComp
$Comp
L Device:C C11
U 1 1 5F22CD88
P 8150 3150
F 0 "C11" H 8265 3196 50  0000 L CNN
F 1 "10pF" H 8265 3105 50  0000 L CNN
F 2 "Capacitors_SMD:C_1206" H 8188 3000 50  0001 C CNN
F 3 "~" H 8150 3150 50  0001 C CNN
	1    8150 3150
	1    0    0    -1  
$EndComp
$Comp
L Device:R_Small_US R5
U 1 1 5F22F152
P 4900 1350
F 0 "R5" H 4968 1396 50  0000 L CNN
F 1 "1K" H 4968 1305 50  0000 L CNN
F 2 "Resistors_SMD:R_1206" H 4900 1350 50  0001 C CNN
F 3 "~" H 4900 1350 50  0001 C CNN
	1    4900 1350
	1    0    0    -1  
$EndComp
$Comp
L Device:R_Small_US R6
U 1 1 5F2306AA
P 5200 1350
F 0 "R6" H 5268 1396 50  0000 L CNN
F 1 "1K" H 5268 1305 50  0000 L CNN
F 2 "Resistors_SMD:R_1206" H 5200 1350 50  0001 C CNN
F 3 "~" H 5200 1350 50  0001 C CNN
	1    5200 1350
	1    0    0    -1  
$EndComp
$Comp
L Device:L_Small L1
U 1 1 5F23C04C
P 8050 2100
F 0 "L1" V 8000 2050 50  0000 C CNN
F 1 "6.8uH" V 8000 2300 50  0000 C CNN
F 2 "Resistors_SMD:R_1206" H 8050 2100 50  0001 C CNN
F 3 "~" H 8050 2100 50  0001 C CNN
	1    8050 2100
	0    1    1    0   
$EndComp
$Comp
L Device:R_Small_US R7
U 1 1 5F23D7AD
P 5500 1350
F 0 "R7" H 5568 1396 50  0000 L CNN
F 1 "1K" H 5568 1305 50  0000 L CNN
F 2 "Resistors_SMD:R_1206" H 5500 1350 50  0001 C CNN
F 3 "~" H 5500 1350 50  0001 C CNN
	1    5500 1350
	1    0    0    -1  
$EndComp
$Comp
L Device:R_Small_US R8
U 1 1 5F23D7B7
P 5800 1350
F 0 "R8" H 5868 1396 50  0000 L CNN
F 1 "1K" H 5868 1305 50  0000 L CNN
F 2 "Resistors_SMD:R_1206" H 5800 1350 50  0001 C CNN
F 3 "~" H 5800 1350 50  0001 C CNN
	1    5800 1350
	1    0    0    -1  
$EndComp
$Comp
L Device:R_Small_US R9
U 1 1 5F241571
P 6100 1350
F 0 "R9" H 6168 1396 50  0000 L CNN
F 1 "1K" H 6168 1305 50  0000 L CNN
F 2 "Resistors_SMD:R_1206" H 6100 1350 50  0001 C CNN
F 3 "~" H 6100 1350 50  0001 C CNN
	1    6100 1350
	1    0    0    -1  
$EndComp
$Comp
L Device:R_Small_US R10
U 1 1 5F24157B
P 6400 1350
F 0 "R10" H 6468 1396 50  0000 L CNN
F 1 "1K" H 6468 1305 50  0000 L CNN
F 2 "Resistors_SMD:R_1206" H 6400 1350 50  0001 C CNN
F 3 "~" H 6400 1350 50  0001 C CNN
	1    6400 1350
	1    0    0    -1  
$EndComp
$Comp
L Device:R_Small_US R11
U 1 1 5F241587
P 6700 1350
F 0 "R11" H 6768 1396 50  0000 L CNN
F 1 "1K" H 6768 1305 50  0000 L CNN
F 2 "Resistors_SMD:R_1206" H 6700 1350 50  0001 C CNN
F 3 "~" H 6700 1350 50  0001 C CNN
	1    6700 1350
	1    0    0    -1  
$EndComp
$Comp
L Device:R_Small_US R13
U 1 1 5F241591
P 7400 3200
F 0 "R13" H 7468 3246 50  0000 L CNN
F 1 "1.5K" H 7468 3155 50  0000 L CNN
F 2 "Resistors_SMD:R_1206" H 7400 3200 50  0001 C CNN
F 3 "~" H 7400 3200 50  0001 C CNN
	1    7400 3200
	1    0    0    -1  
$EndComp
Connection ~ 5200 2800
Wire Wire Line
	5200 2800 5500 2800
Connection ~ 5500 2800
Wire Wire Line
	5500 2800 5800 2800
Connection ~ 5800 2800
Wire Wire Line
	5800 2800 6100 2800
Connection ~ 6100 2800
Wire Wire Line
	6100 2800 6400 2800
Connection ~ 4900 1250
Wire Wire Line
	4900 1250 5200 1250
Connection ~ 5200 1250
Wire Wire Line
	5200 1250 5500 1250
Connection ~ 5500 1250
Wire Wire Line
	5500 1250 5800 1250
Connection ~ 5800 1250
Wire Wire Line
	5800 1250 6100 1250
Connection ~ 6100 1250
Wire Wire Line
	6100 1250 6400 1250
Connection ~ 6400 1250
Wire Wire Line
	6400 1250 6700 1250
Connection ~ 6700 1250
Text GLabel 2800 2800 0    50   Input ~ 0
GND
Connection ~ 4900 2800
Wire Wire Line
	4900 2800 5200 2800
Wire Wire Line
	4100 1600 4900 1600
Wire Wire Line
	4100 1700 5200 1700
Wire Wire Line
	5500 1450 5500 1800
Wire Wire Line
	5500 1800 5500 2100
$Comp
L Device:L_Small L2
U 1 1 5F254F37
P 8050 2200
F 0 "L2" V 8000 2150 50  0000 C CNN
F 1 "6.8uH" V 8000 2400 50  0000 C CNN
F 2 "Resistors_SMD:R_1206" H 8050 2200 50  0001 C CNN
F 3 "~" H 8050 2200 50  0001 C CNN
	1    8050 2200
	0    1    1    0   
$EndComp
Wire Wire Line
	8150 1700 8450 1700
Wire Wire Line
	8450 1600 8150 1600
$Comp
L Transistor_BJT:PN2222A Q1
U 1 1 5F28B826
P 7300 2800
F 0 "Q1" H 7490 2846 50  0000 L CNN
F 1 "PN2222A" H 7490 2755 50  0000 L CNN
F 2 "TO_SOT_Packages_THT:TO-92_Inline_Narrow_Oval" H 7500 2725 50  0001 L CIN
F 3 "http://www.fairchildsemi.com/ds/PN/PN2222A.pdf" H 7300 2800 50  0001 L CNN
	1    7300 2800
	1    0    0    -1  
$EndComp
Wire Wire Line
	6400 2200 7950 2200
Wire Wire Line
	6100 2100 7950 2100
Wire Wire Line
	5200 1700 7950 1700
Wire Wire Line
	4900 1600 7950 1600
Wire Wire Line
	7700 1250 7400 1250
Connection ~ 7400 1250
$Comp
L Device:R_Small_US R15
U 1 1 5F2C60DA
P 8050 3000
F 0 "R15" V 7845 3000 50  0000 C CNN
F 1 "270" V 7936 3000 50  0000 C CNN
F 2 "Resistors_SMD:R_1206" H 8050 3000 50  0001 C CNN
F 3 "~" H 8050 3000 50  0001 C CNN
	1    8050 3000
	0    1    1    0   
$EndComp
$Comp
L Device:R_Small_US R17
U 1 1 5F2C659C
P 8250 3000
F 0 "R17" V 8045 3000 50  0000 C CNN
F 1 "10" V 8136 3000 50  0000 C CNN
F 2 "Resistors_SMD:R_1206" H 8250 3000 50  0001 C CNN
F 3 "~" H 8250 3000 50  0001 C CNN
	1    8250 3000
	0    1    1    0   
$EndComp
Text GLabel 8450 3950 2    50   Input ~ 0
JOY2_TEST
Text GLabel 8450 3000 2    50   Input ~ 0
JOY1_TEST
Wire Wire Line
	6700 1250 7000 1250
Wire Wire Line
	8350 3000 8450 3000
Wire Wire Line
	7950 3000 7400 3000
Wire Wire Line
	7400 3100 7400 3000
Connection ~ 7400 3000
Connection ~ 8150 3000
$Comp
L Device:C C12
U 1 1 5F33D34D
P 8150 4100
F 0 "C12" H 8265 4146 50  0000 L CNN
F 1 "10pF" H 8265 4055 50  0000 L CNN
F 2 "Capacitors_SMD:C_1206" H 8188 3950 50  0001 C CNN
F 3 "~" H 8150 4100 50  0001 C CNN
	1    8150 4100
	1    0    0    -1  
$EndComp
$Comp
L Device:R_Small_US R14
U 1 1 5F33D357
P 7400 4150
F 0 "R14" H 7468 4196 50  0000 L CNN
F 1 "1.5K" H 7468 4105 50  0000 L CNN
F 2 "Resistors_SMD:R_1206" H 7400 4150 50  0001 C CNN
F 3 "~" H 7400 4150 50  0001 C CNN
	1    7400 4150
	1    0    0    -1  
$EndComp
$Comp
L Transistor_BJT:PN2222A Q2
U 1 1 5F33D361
P 7300 3750
F 0 "Q2" H 7490 3796 50  0000 L CNN
F 1 "PN2222A" H 7490 3705 50  0000 L CNN
F 2 "TO_SOT_Packages_THT:TO-92_Inline_Narrow_Oval" H 7500 3675 50  0001 L CIN
F 3 "http://www.fairchildsemi.com/ds/PN/PN2222A.pdf" H 7300 3750 50  0001 L CNN
	1    7300 3750
	1    0    0    -1  
$EndComp
$Comp
L Device:R_Small_US R16
U 1 1 5F33D36B
P 8050 3950
F 0 "R16" V 7845 3950 50  0000 C CNN
F 1 "270" V 7936 3950 50  0000 C CNN
F 2 "Resistors_SMD:R_1206" H 8050 3950 50  0001 C CNN
F 3 "~" H 8050 3950 50  0001 C CNN
	1    8050 3950
	0    1    1    0   
$EndComp
$Comp
L Device:R_Small_US R18
U 1 1 5F33D375
P 8250 3950
F 0 "R18" V 8045 3950 50  0000 C CNN
F 1 "10" V 8136 3950 50  0000 C CNN
F 2 "Resistors_SMD:R_1206" H 8250 3950 50  0001 C CNN
F 3 "~" H 8250 3950 50  0001 C CNN
	1    8250 3950
	0    1    1    0   
$EndComp
Wire Wire Line
	8350 3950 8450 3950
Wire Wire Line
	7950 3950 7400 3950
Wire Wire Line
	7400 4050 7400 3950
Connection ~ 7400 3950
Connection ~ 8150 3950
Text GLabel 8150 3300 0    50   Input ~ 0
GND
Wire Wire Line
	7100 3750 7000 3750
$Comp
L Device:R_Small_US R12
U 1 1 5F35BE1E
P 7000 1350
F 0 "R12" H 7068 1396 50  0000 L CNN
F 1 "1K" H 7068 1305 50  0000 L CNN
F 2 "Resistors_SMD:R_1206" H 7000 1350 50  0001 C CNN
F 3 "~" H 7000 1350 50  0001 C CNN
	1    7000 1350
	1    0    0    -1  
$EndComp
Connection ~ 7000 1250
Wire Wire Line
	7000 1250 7400 1250
Text GLabel 8150 4250 0    50   Input ~ 0
GND
Text GLabel 6300 4250 0    50   Input ~ 0
-5V
Wire Wire Line
	7400 3300 6650 3300
Wire Wire Line
	7700 3450 7400 3450
Wire Wire Line
	7400 3450 7400 3550
Wire Wire Line
	3000 1700 3100 1700
Text GLabel 2800 1600 0    50   Input ~ 0
GAME_COL2
Text GLabel 2800 1900 0    50   Input ~ 0
GAME_COL0
Text GLabel 2800 2000 0    50   Input ~ 0
GAME_COL1
Wire Wire Line
	3600 2700 3600 2800
Connection ~ 3600 2800
Wire Wire Line
	3600 2800 4900 2800
Wire Wire Line
	3600 1250 3600 1300
Wire Wire Line
	3600 1250 4900 1250
Connection ~ 3600 1250
$Comp
L 74xx:74LS156 U3
U 1 1 5F106FE9
P 3600 2000
F 0 "U3" H 3600 2881 50  0000 C CNN
F 1 "74LS156" H 3600 2790 50  0000 C CNN
F 2 "Package_SO:SOIC-16_3.9x9.9mm_P1.27mm" H 3600 2000 50  0001 C CNN
F 3 "http://www.ti.com/lit/gpn/sn74LS156" H 3600 2000 50  0001 C CNN
	1    3600 2000
	1    0    0    -1  
$EndComp
Wire Wire Line
	3000 2800 3600 2800
Wire Wire Line
	2800 1600 2900 1600
Connection ~ 2900 1600
Wire Wire Line
	2900 1600 3100 1600
Wire Wire Line
	2800 1250 3600 1250
Wire Wire Line
	2800 2800 3000 2800
Connection ~ 3000 2800
Wire Wire Line
	2800 1900 3100 1900
Wire Wire Line
	2800 2000 3100 2000
$Comp
L Device:R_Small_US R28
U 1 1 5F3B8832
P 5950 4900
F 0 "R28" V 5900 4750 50  0000 C CNN
F 1 "470" V 5900 5100 50  0000 C CNN
F 2 "Resistors_SMD:R_1206" H 5950 4900 50  0001 C CNN
F 3 "~" H 5950 4900 50  0001 C CNN
	1    5950 4900
	0    1    1    0   
$EndComp
$Comp
L Device:R_Small_US R25
U 1 1 5F3B91BA
P 4900 4650
F 0 "R25" H 4832 4604 50  0000 R CNN
F 1 "10K" H 4832 4695 50  0000 R CNN
F 2 "Resistors_SMD:R_1206" H 4900 4650 50  0001 C CNN
F 3 "~" H 4900 4650 50  0001 C CNN
	1    4900 4650
	-1   0    0    1   
$EndComp
Wire Wire Line
	2800 4900 3150 4900
$Comp
L Device:R_Small_US R24
U 1 1 5F3E73BE
P 4600 4650
F 0 "R24" H 4532 4604 50  0000 R CNN
F 1 "10K" H 4532 4695 50  0000 R CNN
F 2 "Resistors_SMD:R_1206" H 4600 4650 50  0001 C CNN
F 3 "~" H 4600 4650 50  0001 C CNN
	1    4600 4650
	-1   0    0    1   
$EndComp
$Comp
L Device:R_Small_US R23
U 1 1 5F3ED89A
P 4300 4650
F 0 "R23" H 4232 4604 50  0000 R CNN
F 1 "10K" H 4232 4695 50  0000 R CNN
F 2 "Resistors_SMD:R_1206" H 4300 4650 50  0001 C CNN
F 3 "~" H 4300 4650 50  0001 C CNN
	1    4300 4650
	-1   0    0    1   
$EndComp
$Comp
L Device:R_Small_US R22
U 1 1 5F3ED8A5
P 4000 4650
F 0 "R22" H 3932 4604 50  0000 R CNN
F 1 "10K" H 3932 4695 50  0000 R CNN
F 2 "Resistors_SMD:R_1206" H 4000 4650 50  0001 C CNN
F 3 "~" H 4000 4650 50  0001 C CNN
	1    4000 4650
	-1   0    0    1   
$EndComp
$Comp
L Device:R_Small_US R21
U 1 1 5F3F335E
P 3750 4650
F 0 "R21" H 3682 4604 50  0000 R CNN
F 1 "10K" H 3682 4695 50  0000 R CNN
F 2 "Resistors_SMD:R_1206" H 3750 4650 50  0001 C CNN
F 3 "~" H 3750 4650 50  0001 C CNN
	1    3750 4650
	-1   0    0    1   
$EndComp
$Comp
L Device:R_Small_US R20
U 1 1 5F3F3369
P 3450 4650
F 0 "R20" H 3382 4604 50  0000 R CNN
F 1 "10K" H 3382 4695 50  0000 R CNN
F 2 "Resistors_SMD:R_1206" H 3450 4650 50  0001 C CNN
F 3 "~" H 3450 4650 50  0001 C CNN
	1    3450 4650
	-1   0    0    1   
$EndComp
$Comp
L Device:R_Small_US R19
U 1 1 5F3F3373
P 3150 4650
F 0 "R19" H 3082 4604 50  0000 R CNN
F 1 "10K" H 3082 4695 50  0000 R CNN
F 2 "Resistors_SMD:R_1206" H 3150 4650 50  0001 C CNN
F 3 "~" H 3150 4650 50  0001 C CNN
	1    3150 4650
	-1   0    0    1   
$EndComp
Wire Wire Line
	3150 4900 3150 4750
$Comp
L Device:R_Small_US R26
U 1 1 5F3F337E
P 5200 4650
F 0 "R26" H 5132 4604 50  0000 R CNN
F 1 "10K" H 5132 4695 50  0000 R CNN
F 2 "Resistors_SMD:R_1206" H 5200 4650 50  0001 C CNN
F 3 "~" H 5200 4650 50  0001 C CNN
	1    5200 4650
	-1   0    0    1   
$EndComp
Connection ~ 3150 4900
Wire Wire Line
	6050 4900 7900 4900
$Comp
L Device:R_Small_US R27
U 1 1 5F4AB2BD
P 5450 4650
F 0 "R27" H 5382 4604 50  0000 R CNN
F 1 "10K" H 5382 4695 50  0000 R CNN
F 2 "Resistors_SMD:R_1206" H 5450 4650 50  0001 C CNN
F 3 "~" H 5450 4650 50  0001 C CNN
	1    5450 4650
	-1   0    0    1   
$EndComp
Wire Wire Line
	3150 4900 5850 4900
Text Notes 2150 1950 0    50   ~ 0
P2
Text Notes 2150 2050 0    50   ~ 0
P3
Text Notes 2150 1650 0    50   ~ 0
P4
Text GLabel 2800 4550 0    50   Input ~ 0
+5V
Wire Wire Line
	2800 4550 3150 4550
Connection ~ 3150 4550
Wire Wire Line
	3150 4550 3450 4550
Connection ~ 3450 4550
Wire Wire Line
	3450 4550 3750 4550
Connection ~ 3750 4550
Wire Wire Line
	3750 4550 4000 4550
Connection ~ 4000 4550
Wire Wire Line
	4000 4550 4300 4550
Connection ~ 4300 4550
Wire Wire Line
	4300 4550 4600 4550
Connection ~ 4600 4550
Wire Wire Line
	4600 4550 4900 4550
Connection ~ 4900 4550
Wire Wire Line
	4900 4550 5200 4550
Connection ~ 5200 4550
Wire Wire Line
	5200 4550 5450 4550
Wire Wire Line
	5200 1450 5200 1700
Text Notes 2100 5750 2    63   ~ 0
P5\nINT3*\nINT4*\nINT5*\nINT6*\nINT7*\nINT8*\nINT9*\nINT10*
Wire Wire Line
	5450 5700 5850 5700
Wire Wire Line
	5200 5600 5850 5600
$Comp
L Device:R_Small_US R35
U 1 1 5F44FF0F
P 5950 5600
F 0 "R35" V 5900 5450 50  0000 C CNN
F 1 "470" V 5900 5800 50  0000 C CNN
F 2 "Resistors_SMD:R_1206" H 5950 5600 50  0001 C CNN
F 3 "~" H 5950 5600 50  0001 C CNN
	1    5950 5600
	0    1    1    0   
$EndComp
Wire Wire Line
	4900 5500 5850 5500
Wire Wire Line
	4600 5400 5850 5400
Wire Wire Line
	4300 5300 5850 5300
Wire Wire Line
	4000 5200 5850 5200
Wire Wire Line
	3750 5100 5850 5100
Wire Wire Line
	3450 5000 5850 5000
$Comp
L Device:R_Small_US R29
U 1 1 5F43AB2F
P 5950 5000
F 0 "R29" V 5900 4850 50  0000 C CNN
F 1 "470" V 5900 5200 50  0000 C CNN
F 2 "Resistors_SMD:R_1206" H 5950 5000 50  0001 C CNN
F 3 "~" H 5950 5000 50  0001 C CNN
	1    5950 5000
	0    1    1    0   
$EndComp
Connection ~ 5450 5700
Wire Wire Line
	5450 4750 5450 5700
Wire Wire Line
	5200 5600 5200 5800
Connection ~ 5200 5600
Wire Wire Line
	4900 5500 4900 5800
Connection ~ 4900 5500
Wire Wire Line
	4600 5400 4600 5800
Connection ~ 4600 5400
Wire Wire Line
	4300 5300 4300 5800
Connection ~ 4300 5300
Wire Wire Line
	4000 5200 4000 5800
Connection ~ 4000 5200
Wire Wire Line
	3750 5100 3750 5800
Connection ~ 3750 5100
Wire Wire Line
	3450 5000 3450 5800
Connection ~ 3450 5000
Wire Wire Line
	2800 5700 5450 5700
$Comp
L Device:R_Small_US R36
U 1 1 5F47910A
P 5950 5700
F 0 "R36" V 5900 5550 50  0000 C CNN
F 1 "470" V 5900 5900 50  0000 C CNN
F 2 "Resistors_SMD:R_1206" H 5950 5700 50  0001 C CNN
F 3 "~" H 5950 5700 50  0001 C CNN
	1    5950 5700
	0    1    1    0   
$EndComp
Text GLabel 2800 6100 0    50   Input ~ 0
GND
Wire Wire Line
	4900 6100 5200 6100
Connection ~ 4900 6100
Wire Wire Line
	4600 6100 4900 6100
Connection ~ 4600 6100
Wire Wire Line
	4300 6100 4600 6100
Connection ~ 4300 6100
Wire Wire Line
	4000 6100 4300 6100
Connection ~ 4000 6100
Wire Wire Line
	3750 6100 4000 6100
Connection ~ 3750 6100
Wire Wire Line
	3450 6100 3750 6100
Connection ~ 3450 6100
Wire Wire Line
	3150 6100 3450 6100
Connection ~ 3150 6100
Wire Wire Line
	2800 6100 3150 6100
Wire Wire Line
	3150 5500 3150 5800
Wire Wire Line
	3150 5300 3150 5500
Wire Wire Line
	2800 5600 5200 5600
$Comp
L Device:R_Small_US R34
U 1 1 5F44FF04
P 5950 5500
F 0 "R34" V 5900 5350 50  0000 C CNN
F 1 "470" V 5900 5700 50  0000 C CNN
F 2 "Resistors_SMD:R_1206" H 5950 5500 50  0001 C CNN
F 3 "~" H 5950 5500 50  0001 C CNN
	1    5950 5500
	0    1    1    0   
$EndComp
Wire Wire Line
	2800 5400 4600 5400
$Comp
L Device:R_Small_US R33
U 1 1 5F44FEF8
P 5950 5400
F 0 "R33" V 5900 5250 50  0000 C CNN
F 1 "470" V 5900 5600 50  0000 C CNN
F 2 "Resistors_SMD:R_1206" H 5950 5400 50  0001 C CNN
F 3 "~" H 5950 5400 50  0001 C CNN
	1    5950 5400
	0    1    1    0   
$EndComp
$Comp
L Device:R_Small_US R32
U 1 1 5F44FEED
P 5950 5300
F 0 "R32" V 5900 5150 50  0000 C CNN
F 1 "470" V 5900 5500 50  0000 C CNN
F 2 "Resistors_SMD:R_1206" H 5950 5300 50  0001 C CNN
F 3 "~" H 5950 5300 50  0001 C CNN
	1    5950 5300
	0    1    1    0   
$EndComp
Wire Wire Line
	2800 5200 4000 5200
$Comp
L Device:R_Small_US R31
U 1 1 5F449D6B
P 5950 5200
F 0 "R31" V 5900 5050 50  0000 C CNN
F 1 "470" V 5900 5400 50  0000 C CNN
F 2 "Resistors_SMD:R_1206" H 5950 5200 50  0001 C CNN
F 3 "~" H 5950 5200 50  0001 C CNN
	1    5950 5200
	0    1    1    0   
$EndComp
$Comp
L Device:R_Small_US R30
U 1 1 5F449D60
P 5950 5100
F 0 "R30" V 5900 4950 50  0000 C CNN
F 1 "470" V 5900 5300 50  0000 C CNN
F 2 "Resistors_SMD:R_1206" H 5950 5100 50  0001 C CNN
F 3 "~" H 5950 5100 50  0001 C CNN
	1    5950 5100
	0    1    1    0   
$EndComp
Wire Wire Line
	2800 5000 3150 5000
$Comp
L Device:C C13
U 1 1 5F421026
P 3150 5950
F 0 "C13" H 3265 5996 50  0000 L CNN
F 1 "10pF" H 3265 5905 50  0000 L CNN
F 2 "Capacitors_SMD:C_1206" H 3188 5800 50  0001 C CNN
F 3 "~" H 3150 5950 50  0001 C CNN
	1    3150 5950
	1    0    0    -1  
$EndComp
$Comp
L Device:C C20
U 1 1 5F42101C
P 5200 5950
F 0 "C20" H 5315 5996 50  0000 L CNN
F 1 "10pF" H 5315 5905 50  0000 L CNN
F 2 "Capacitors_SMD:C_1206" H 5238 5800 50  0001 C CNN
F 3 "~" H 5200 5950 50  0001 C CNN
	1    5200 5950
	1    0    0    -1  
$EndComp
$Comp
L Device:C C19
U 1 1 5F421012
P 4900 5950
F 0 "C19" H 5015 5996 50  0000 L CNN
F 1 "10pF" H 5015 5905 50  0000 L CNN
F 2 "Capacitors_SMD:C_1206" H 4938 5800 50  0001 C CNN
F 3 "~" H 4900 5950 50  0001 C CNN
	1    4900 5950
	1    0    0    -1  
$EndComp
$Comp
L Device:C C18
U 1 1 5F421008
P 4600 5950
F 0 "C18" H 4715 5996 50  0000 L CNN
F 1 "10pF" H 4715 5905 50  0000 L CNN
F 2 "Capacitors_SMD:C_1206" H 4638 5800 50  0001 C CNN
F 3 "~" H 4600 5950 50  0001 C CNN
	1    4600 5950
	1    0    0    -1  
$EndComp
$Comp
L Device:C C17
U 1 1 5F41C516
P 4300 5950
F 0 "C17" H 4415 5996 50  0000 L CNN
F 1 "10pF" H 4415 5905 50  0000 L CNN
F 2 "Capacitors_SMD:C_1206" H 4338 5800 50  0001 C CNN
F 3 "~" H 4300 5950 50  0001 C CNN
	1    4300 5950
	1    0    0    -1  
$EndComp
$Comp
L Device:C C16
U 1 1 5F41C50C
P 4000 5950
F 0 "C16" H 4115 5996 50  0000 L CNN
F 1 "10pF" H 4115 5905 50  0000 L CNN
F 2 "Capacitors_SMD:C_1206" H 4038 5800 50  0001 C CNN
F 3 "~" H 4000 5950 50  0001 C CNN
	1    4000 5950
	1    0    0    -1  
$EndComp
$Comp
L Device:C C15
U 1 1 5F4180C8
P 3750 5950
F 0 "C15" H 3865 5996 50  0000 L CNN
F 1 "10pF" H 3865 5905 50  0000 L CNN
F 2 "Capacitors_SMD:C_1206" H 3788 5800 50  0001 C CNN
F 3 "~" H 3750 5950 50  0001 C CNN
	1    3750 5950
	1    0    0    -1  
$EndComp
Wire Wire Line
	5200 4750 5200 5600
Wire Wire Line
	4900 4750 4900 5500
Wire Wire Line
	4600 4750 4600 5400
Wire Wire Line
	4300 4750 4300 5300
Wire Wire Line
	4000 4750 4000 5200
Wire Wire Line
	3750 4750 3750 5100
Wire Wire Line
	3450 4750 3450 5000
$Comp
L Device:C C14
U 1 1 5F3C44F2
P 3450 5950
F 0 "C14" H 3565 5996 50  0000 L CNN
F 1 "10pF" H 3565 5905 50  0000 L CNN
F 2 "Capacitors_SMD:C_1206" H 3488 5800 50  0001 C CNN
F 3 "~" H 3450 5950 50  0001 C CNN
	1    3450 5950
	1    0    0    -1  
$EndComp
Text GLabel 2800 5700 0    50   Output ~ 0
GAME_ROW7
Text GLabel 2800 5600 0    50   Output ~ 0
GAME_ROW6
Text GLabel 2800 5500 0    50   Output ~ 0
GAME_ROW5
Text GLabel 2800 5400 0    50   Output ~ 0
GAME_ROW4
Text GLabel 2800 5300 0    50   Output ~ 0
GAME_ROW3
Text GLabel 8450 5700 2    50   Input ~ 0
KEY_ROW7
Text GLabel 8450 5600 2    50   Input ~ 0
KEY_ROW6
Text GLabel 8450 5400 2    50   Input ~ 0
KEY_ROW4
Text GLabel 8450 5000 2    50   Input ~ 0
KEY_ROW0
Text GLabel 8450 5100 2    50   Input ~ 0
KEY_ROW1
Text GLabel 8450 5500 2    50   Input ~ 0
KEY_ROW5
Text GLabel 8450 5300 2    50   Input ~ 0
KEY_ROW3
Text GLabel 8450 5200 2    50   Input ~ 0
KEY_ROW2
Wire Wire Line
	3150 5000 3450 5000
Wire Wire Line
	6650 3300 6650 4250
Connection ~ 6650 4250
Wire Wire Line
	6650 4250 7400 4250
Wire Wire Line
	7000 2400 7000 3750
Wire Wire Line
	4100 2400 6400 2400
Wire Wire Line
	4900 1450 4900 1600
Wire Wire Line
	7400 2300 7400 1250
Wire Wire Line
	7400 2300 7400 2600
Wire Wire Line
	4100 2300 6100 2300
Wire Wire Line
	7000 1450 7000 1900
Wire Wire Line
	6700 2800 7100 2800
Wire Wire Line
	6700 2300 7950 2300
Wire Wire Line
	6700 1450 6700 1800
Connection ~ 6700 1800
Wire Wire Line
	6700 1800 6700 2800
Connection ~ 7000 1900
Wire Wire Line
	7000 1900 7000 2400
Wire Wire Line
	7700 1250 7700 3450
Text GLabel 8450 2300 2    50   Input ~ 0
KEY_COL2
Text GLabel 8450 2400 2    50   Input ~ 0
KEY_COL3
$Comp
L Device:L_Small L3
U 1 1 5F255996
P 8050 2300
F 0 "L3" V 8000 2250 50  0000 C CNN
F 1 "6.8uH" V 8000 2500 50  0000 C CNN
F 2 "Resistors_SMD:R_1206" H 8050 2300 50  0001 C CNN
F 3 "~" H 8050 2300 50  0001 C CNN
	1    8050 2300
	0    1    1    0   
$EndComp
$Comp
L Device:L_Small L4
U 1 1 5F2559A0
P 8050 2400
F 0 "L4" V 8000 2350 50  0000 C CNN
F 1 "6.8uH" V 8000 2600 50  0000 C CNN
F 2 "Resistors_SMD:R_1206" H 8050 2400 50  0001 C CNN
F 3 "~" H 8050 2400 50  0001 C CNN
	1    8050 2400
	0    1    1    0   
$EndComp
Wire Wire Line
	8150 2400 8450 2400
Wire Wire Line
	8450 2300 8150 2300
Wire Wire Line
	8450 2200 8150 2200
Wire Wire Line
	8150 2100 8450 2100
$Comp
L Device:L_Small L6
U 1 1 5F25812F
P 8050 1600
F 0 "L6" V 8000 1550 50  0000 C CNN
F 1 "6.8uH" V 8000 1800 50  0000 C CNN
F 2 "Resistors_SMD:R_1206" H 8050 1600 50  0001 C CNN
F 3 "~" H 8050 1600 50  0001 C CNN
	1    8050 1600
	0    1    1    0   
$EndComp
$Comp
L Device:L_Small L5
U 1 1 5F258125
P 8050 1700
F 0 "L5" V 8000 1650 50  0000 C CNN
F 1 "6.8uH" V 8000 1900 50  0000 C CNN
F 2 "Resistors_SMD:R_1206" H 8050 1700 50  0001 C CNN
F 3 "~" H 8050 1700 50  0001 C CNN
	1    8050 1700
	0    1    1    0   
$EndComp
Text GLabel 8450 2200 2    50   Input ~ 0
KEY_COL1
Text GLabel 8450 2100 2    50   Input ~ 0
KEY_COL0
Text GLabel 9150 5000 2    50   Input ~ 0
JOY_B1
Text GLabel 9150 5100 2    50   Input ~ 0
JOY_LEFT
Text GLabel 9150 5300 2    50   Input ~ 0
JOY_DOWN
Text GLabel 9150 5200 2    50   Input ~ 0
JOY_RIGHT
Text GLabel 9150 5400 2    50   Input ~ 0
JOY_UP
Text Notes 9650 5450 0    50   ~ 0
Alpha Lock Return
Wire Wire Line
	6050 5000 9150 5000
Wire Wire Line
	6050 5100 9150 5100
Wire Wire Line
	6050 5200 9150 5200
Wire Wire Line
	6050 5300 9150 5300
Wire Wire Line
	6050 5400 9150 5400
Text GLabel 9150 5700 2    50   Input ~ 0
PADDLE2
Text GLabel 9150 5600 2    50   Input ~ 0
PADDLE1
Wire Wire Line
	6050 5500 9150 5500
Wire Wire Line
	6050 5600 9150 5600
Text GLabel 9150 5500 2    50   Input ~ 0
JOY_B2
Wire Wire Line
	6050 5700 9150 5700
Text Notes 9650 5750 0    50   ~ 0
Actually these must be the\npulse outputs from a 558
Wire Wire Line
	3000 1700 3000 2300
Wire Wire Line
	3100 2300 3000 2300
Connection ~ 3000 2300
Wire Wire Line
	3000 2300 3000 2800
Wire Wire Line
	3100 2200 2900 2200
Wire Wire Line
	2900 2200 2900 1600
Text GLabel 2800 5200 0    50   Output ~ 0
GAME_ROW2
Text GLabel 2800 5100 0    50   Output ~ 0
GAME_ROW1
Text GLabel 2800 5000 0    50   Output ~ 0
GAME_ROW0
Text GLabel 2800 4900 0    50   Input ~ 0
GAME_ALPHA
$Comp
L Device:D_Small D2
U 1 1 5F1AF8D1
P 8000 4900
F 0 "D2" H 8000 5105 50  0000 C CNN
F 1 "1N4148" H 8000 5014 50  0000 C CNN
F 2 "Diodes_SMD:D_1206" V 8000 4900 50  0001 C CNN
F 3 "~" V 8000 4900 50  0001 C CNN
	1    8000 4900
	1    0    0    -1  
$EndComp
Wire Wire Line
	8100 4900 8450 4900
Text Notes 7450 4650 0    50   ~ 0
This is the fix for the infamous\nalpha-lock joystick-up problem.
$Comp
L Amplifier_Operational:LM321 U4
U 1 1 5F20CE94
P 5150 3700
F 0 "U4" H 5150 3219 50  0000 C CNN
F 1 "LM321" H 5150 3310 50  0000 C CNN
F 2 "TO_SOT_Packages_SMD:SOT-23-5" H 5150 3700 50  0001 C CNN
F 3 "http://www.ti.com/lit/ds/symlink/lm321.pdf" H 5150 3700 50  0001 C CNN
	1    5150 3700
	1    0    0    1   
$EndComp
$Comp
L Device:R_Small R38
U 1 1 5F20DB51
P 5300 3300
F 0 "R38" V 5104 3300 50  0000 C CNN
F 1 "1K" V 5195 3300 50  0000 C CNN
F 2 "Resistors_SMD:R_1206" H 5300 3300 50  0001 C CNN
F 3 "~" H 5300 3300 50  0001 C CNN
	1    5300 3300
	0    1    1    0   
$EndComp
Wire Wire Line
	5200 3300 4750 3300
Wire Wire Line
	4750 3300 4750 3600
Wire Wire Line
	4500 3600 4750 3600
Connection ~ 4750 3600
Wire Wire Line
	4750 3600 4850 3600
Wire Wire Line
	4850 3800 4750 3800
Wire Wire Line
	4750 3800 4750 4100
Wire Wire Line
	5400 3300 5550 3300
Wire Wire Line
	5550 3300 5550 3700
Wire Wire Line
	5450 3700 5550 3700
Connection ~ 5550 3700
Wire Wire Line
	5550 3700 5750 3700
Text GLabel 5750 3700 2    50   Input ~ 0
-5V
Wire Wire Line
	4200 4100 4750 4100
Wire Wire Line
	4200 3600 4300 3600
Text GLabel 4200 3600 0    50   Input ~ 0
+5V
Text GLabel 4200 4100 0    50   Input ~ 0
GND
Wire Wire Line
	6300 4250 6650 4250
Text GLabel 5050 3400 2    50   Input ~ 0
GND
Text GLabel 5050 4000 2    50   Input ~ 0
+5V
$Comp
L Device:R_Small R37
U 1 1 5F262F7F
P 4400 3600
F 0 "R37" V 4204 3600 50  0000 C CNN
F 1 "1K" V 4295 3600 50  0000 C CNN
F 2 "Resistors_SMD:R_1206" H 4400 3600 50  0001 C CNN
F 3 "~" H 4400 3600 50  0001 C CNN
	1    4400 3600
	0    1    1    0   
$EndComp
Text Notes 10600 6100 2    50   ~ 0
https://www.epanorama.net/documents/joystick/ataristick.html
Text GLabel 9850 2300 0    50   Input ~ 0
GAME_ALPHA
Text GLabel 10350 2600 2    50   Input ~ 0
GND
Text GLabel 10350 2700 2    50   Input ~ 0
GND
Text GLabel 10350 2800 2    50   Input ~ 0
GAME_ROW2
Text GLabel 10350 2900 2    50   Input ~ 0
GAME_ROW0
Text GLabel 9850 2900 0    50   Input ~ 0
GAME_ROW1
Text GLabel 10350 2300 2    50   Input ~ 0
GAME_COL2
Text GLabel 9850 2800 0    50   Input ~ 0
GAME_ROW3
Text GLabel 9850 3000 0    50   Input ~ 0
GAME_COL1
Text GLabel 9850 2600 0    50   Input ~ 0
GAME_ROW4
Text GLabel 10350 3000 2    50   Input ~ 0
GAME_COL0
Text GLabel 9850 2500 0    50   Input ~ 0
GAME_ROW6
Text GLabel 10350 2500 2    50   Input ~ 0
GAME_ROW5
Text GLabel 10350 2400 2    50   Input ~ 0
GAME_ROW7
$Comp
L Connector_Generic:Conn_02x08_Odd_Even J?
U 1 1 5F38F049
P 10150 2700
AR Path="/5F38F049" Ref="J?"  Part="1" 
AR Path="/5F1062E1/5F38F049" Ref="J15"  Part="1" 
F 0 "J15" H 10200 2075 50  0000 C CNN
F 1 "GamePortHdr2" H 10200 2166 50  0000 C CNN
F 2 "Connector_IDC:IDC-Header_2x08_P2.54mm_Horizontal" H 10150 2700 50  0001 C CNN
F 3 "~" H 10150 2700 50  0001 C CNN
	1    10150 2700
	-1   0    0    1   
$EndComp
NoConn ~ 9850 2700
NoConn ~ 9850 2400
Text Notes 10850 3250 2    50   ~ 0
There are 2 game port headers.\nOnly the Joystick/4A kbd skips MIDI.
Wire Wire Line
	3150 4900 3150 5100
Wire Wire Line
	2800 5100 3750 5100
Wire Wire Line
	3150 5100 3150 5300
Wire Wire Line
	2800 5300 4300 5300
Wire Wire Line
	2800 5500 4900 5500
Connection ~ 4900 1600
Wire Wire Line
	4900 1600 4900 2500
Connection ~ 5200 1700
Wire Wire Line
	5200 1700 5200 2500
Wire Wire Line
	5800 1900 7000 1900
Wire Wire Line
	4100 1900 5800 1900
Wire Wire Line
	6400 1450 6400 2400
Wire Wire Line
	4100 1800 6700 1800
Wire Wire Line
	6100 1450 6100 2300
Wire Wire Line
	4100 2200 5800 2200
Wire Wire Line
	5800 1450 5800 2200
Wire Wire Line
	4100 2100 5500 2100
Connection ~ 5500 2100
Wire Wire Line
	5500 2100 5500 2500
Wire Wire Line
	5500 2100 6100 2100
Connection ~ 5800 2200
Wire Wire Line
	5800 2200 6400 2200
Wire Wire Line
	5800 2200 5800 2500
Connection ~ 6100 2300
Wire Wire Line
	6100 2300 6700 2300
Wire Wire Line
	6100 2300 6100 2500
Connection ~ 6400 2400
Wire Wire Line
	6400 2400 7950 2400
Wire Wire Line
	6400 2400 6400 2500
Text Label 4300 2400 2    50   ~ 0
COL3
Text Label 4300 2300 2    50   ~ 0
COL2
Text Label 4300 2200 2    50   ~ 0
COL1
Text Label 4300 2100 2    50   ~ 0
COL0
Text Label 4300 1900 2    50   ~ 0
JOY2
Text Label 4300 1800 2    50   ~ 0
JOY1
Text Label 4300 1700 2    50   ~ 0
COL5
Text Label 4300 1600 2    50   ~ 0
COL4
Text Notes 3100 4450 0    50   ~ 0
Required
Text Notes 4650 2500 0    50   ~ 0
Keyboard (optional)
Text Notes 7900 1450 0    50   ~ 0
Keyboard (optional)
$EndSCHEMATC
