{ signal: [
    { name: "CLKOUT", wave: "0.1.0.1.0.1.0.1", node: '.a..mc..o...eg.' },
  [ "TMS99105", 
    { name: "A/D BUS", wave: "==z.==zzzzzz==z", data: ["", "(1)    ", "(3)    ", "(1)    ", "(3)    "] },
    { name: "ALATCH", wave: "010..10......10" },
    { name: "PSEL*, BST1-3", wave: "==...=.......=.", data: ["", "VALID CODE", "VALID CODE", ""] },
    { name: "MEM*", wave: "=0...........=." },
    { name: "R/W*", wave: "=1...........==" },
    { name: "RD*", wave: "1.0.1.0.....1.." },
    { name: "WE*/IOCLK*", wave: "1.............." },
  ],
  [ "Geneve 2020",
        { name: "B_READY", wave: "1......0...1...", node: '....n...p...r' },
  		{ name: "B_RDBENA*", wave: "1.0..10......1." }, 
		{ name: "B_A0-14", wave: "xx=..x=........", data: ["addr valid", "addr valid"] },
		{ name: "B_D0-15", wave: "x=x=.=x....=.xx", data: ["addr", "data valid", "addr", "data valid"] },
		{ name: "B_FA11-23", wave: "xx=..x=......=", data: ["effective addr", "effective addr" ] },
  ],
  { node: '.b...d......fh'},
  ],
  edge:[ 'a|b', 
   'c|d', 
   'b-d Memory Read No Waits',
   'g|h', 
   'd-h Memory Read One Wait State',
   'm|n',
   'o|p',
   'e|r',
  ],
  head:{
    text:'Memory Read Operation',
    tick:0,
  },
  foot:{
    text:'After Fig 11, TMS99000 databook p.17',
  }
}
