(module C_Disc_D3.8mm_W2.6mm_P4.00mm (layer F.Cu) (tedit 5EE6CB64)
  (descr "C, Disc series, Radial, pin pitch=2.50mm, , diameter*width=3.8*2.6mm^2, Capacitor, http://www.vishay.com/docs/45233/krseries.pdf")
  (tags "C Disc series Radial pin pitch 2.50mm  diameter 3.8mm width 2.6mm Capacitor")
  (fp_text reference REF** (at 1.25 -2.61) (layer F.SilkS)
    (effects (font (size 1 1) (thickness 0.15)))
  )
  (fp_text value C_Disc_D3.8mm_W2.6mm_P4.00mm (at 1.25 2.61) (layer F.Fab)
    (effects (font (size 1 1) (thickness 0.15)))
  )
  (fp_text user %R (at 1.25 0) (layer F.Fab)
    (effects (font (size 1 1) (thickness 0.15)))
  )
  (fp_line (start 5.05 -1.65) (end -1.05 -1.65) (layer F.CrtYd) (width 0.05))
  (fp_line (start 5.05 1.65) (end 5.05 -1.65) (layer F.CrtYd) (width 0.05))
  (fp_line (start -1.05 1.65) (end 5.05 1.65) (layer F.CrtYd) (width 0.05))
  (fp_line (start -1.05 -1.65) (end -1.05 1.65) (layer F.CrtYd) (width 0.05))
  (fp_line (start 4.71 0.75) (end 4.71 1.36) (layer F.SilkS) (width 0.12))
  (fp_line (start 4.71 -1.36) (end 4.71 -0.75) (layer F.SilkS) (width 0.12))
  (fp_line (start -0.71 0.75) (end -0.71 1.36) (layer F.SilkS) (width 0.12))
  (fp_line (start -0.71 -1.36) (end -0.71 -0.75) (layer F.SilkS) (width 0.12))
  (fp_line (start -0.71 1.36) (end 4.71 1.36) (layer F.SilkS) (width 0.12))
  (fp_line (start -0.71 -1.36) (end 4.71 -1.36) (layer F.SilkS) (width 0.12))
  (fp_line (start 4.65 -1.3) (end -0.65 -1.3) (layer F.Fab) (width 0.1))
  (fp_line (start 4.65 1.3) (end 4.65 -1.3) (layer F.Fab) (width 0.1))
  (fp_line (start -0.65 1.3) (end 4.65 1.3) (layer F.Fab) (width 0.1))
  (fp_line (start -0.65 -1.3) (end -0.65 1.3) (layer F.Fab) (width 0.1))
  (pad 2 thru_hole circle (at 4 0) (size 1.6 1.6) (drill 0.8) (layers *.Cu *.Mask))
  (pad 1 thru_hole circle (at 0 0) (size 1.6 1.6) (drill 0.8) (layers *.Cu *.Mask))
  (model ${KISYS3DMOD}/Capacitors_THT.3dshapes/C_Disc_D3.8mm_W2.6mm_P2.50mm.wrl
    (at (xyz 0 0 0))
    (scale (xyz 1 1 1))
    (rotate (xyz 0 0 0))
  )
)
