(module Card_Edge_2x18 (layer F.Cu) (tedit 5D2B57F8)
  (fp_text reference J1 (at 16.256 -2.54 -270) (layer F.SilkS) hide
    (effects (font (size 1 1) (thickness 0.15)))
  )
  (fp_text value "Module Port" (at 16.51 -8.89 -270) (layer F.Fab) hide
    (effects (font (size 1 1) (thickness 0.15)))
  )
  (fp_line (start 15.24 0) (end 15.24 -45.72) (layer F.SilkS) (width 0.15))
  (fp_text user %R (at 17.526 0) (layer F.Fab) hide
    (effects (font (size 1 1) (thickness 0.15)))
  )
  (pad 1 smd oval (at 7.62 -1.27 90) (size 1.5 15) (layers B.Cu B.Paste B.Mask))
  (pad 2 smd oval (at 7.62 -1.27 270) (size 1.5 15) (layers F.Cu F.Paste F.Mask))
  (pad 3 smd oval (at 7.62 -3.81 90) (size 1.5 15) (layers B.Cu B.Paste B.Mask))
  (pad 4 smd oval (at 7.62 -3.81 90) (size 1.5 15) (layers F.Cu F.Paste F.Mask))
  (pad 5 smd oval (at 7.62 -6.35 90) (size 1.5 15) (layers B.Cu B.Paste B.Mask))
  (pad 6 smd oval (at 7.62 -6.35 90) (size 1.5 15) (layers F.Cu F.Paste F.Mask))
  (pad 7 smd oval (at 7.62 -8.89 90) (size 1.5 15) (layers B.Cu B.Paste B.Mask))
  (pad 8 smd oval (at 7.62 -8.89 90) (size 1.5 15) (layers F.Cu F.Paste F.Mask))
  (pad 9 smd oval (at 7.62 -11.43 90) (size 1.5 15) (layers B.Cu B.Paste B.Mask))
  (pad 10 smd oval (at 7.62 -11.43 90) (size 1.5 15) (layers F.Cu F.Paste F.Mask))
  (pad 11 smd oval (at 7.62 -13.97 90) (size 1.5 15) (layers B.Cu B.Paste B.Mask))
  (pad 12 smd oval (at 7.62 -13.97 90) (size 1.5 15) (layers F.Cu F.Paste F.Mask))
  (pad 13 smd oval (at 7.62 -16.51 90) (size 1.5 15) (layers B.Cu B.Paste B.Mask))
  (pad 14 smd oval (at 7.62 -16.51 90) (size 1.5 15) (layers F.Cu F.Paste F.Mask))
  (pad 15 smd oval (at 7.62 -19.05 90) (size 1.5 15) (layers B.Cu B.Paste B.Mask))
  (pad 16 smd oval (at 7.62 -19.05 90) (size 1.5 15) (layers F.Cu F.Paste F.Mask))
  (pad 17 smd oval (at 7.62 -21.59 90) (size 1.5 15) (layers B.Cu B.Paste B.Mask))
  (pad 18 smd oval (at 7.62 -21.59 90) (size 1.5 15) (layers F.Cu F.Paste F.Mask))
  (pad 19 smd oval (at 7.62 -24.13 90) (size 1.5 15) (layers B.Cu B.Paste B.Mask))
  (pad 20 smd oval (at 7.62 -24.13 90) (size 1.5 15) (layers F.Cu F.Paste F.Mask))
  (pad 21 smd oval (at 7.62 -26.67 90) (size 1.5 15) (layers B.Cu B.Paste B.Mask))
  (pad 22 smd oval (at 7.62 -26.67 90) (size 1.5 15) (layers F.Cu F.Paste F.Mask))
  (pad 23 smd oval (at 7.62 -29.21 90) (size 1.5 15) (layers B.Cu B.Paste B.Mask))
  (pad 24 smd oval (at 7.62 -29.21 90) (size 1.5 15) (layers F.Cu F.Paste F.Mask))
  (pad 25 smd oval (at 7.62 -31.75 90) (size 1.5 15) (layers B.Cu B.Paste B.Mask))
  (pad 26 smd oval (at 7.62 -31.75 90) (size 1.5 15) (layers F.Cu F.Paste F.Mask))
  (pad 27 smd oval (at 7.62 -34.29 90) (size 1.5 15) (layers B.Cu B.Paste B.Mask))
  (pad 28 smd oval (at 7.62 -34.29 90) (size 1.5 15) (layers F.Cu F.Paste F.Mask))
  (pad 29 smd oval (at 7.62 -36.83 90) (size 1.5 15) (layers B.Cu B.Paste B.Mask))
  (pad 30 smd oval (at 7.62 -36.83 90) (size 1.5 15) (layers F.Cu F.Paste F.Mask))
  (pad 31 smd oval (at 7.62 -39.37 90) (size 1.5 15) (layers B.Cu B.Paste B.Mask))
  (pad 32 smd oval (at 7.62 -39.37 90) (size 1.5 15) (layers F.Cu F.Paste F.Mask))
  (pad 33 smd oval (at 7.62 -41.91 90) (size 1.5 15) (layers B.Cu B.Paste B.Mask))
  (pad 34 smd oval (at 7.62 -41.91 90) (size 1.5 15) (layers F.Cu F.Paste F.Mask))
  (pad 35 smd oval (at 7.62 -44.45 90) (size 1.5 15) (layers B.Cu B.Paste B.Mask))
  (pad 36 smd oval (at 7.62 -44.45 90) (size 1.5 15) (layers F.Cu F.Paste F.Mask))
)
