(module Connector_Mini-DIN_Female_6Pin_2rows_BPrepared (layer F.Cu) (tedit 58E946D2)
  (descr "A footprint for the generic 6 pin Mini-DIN through hole connector with shell.")
  (tags "mini din 6pin connector socket")
  (fp_text reference REF** (at -1.27 -6.35) (layer F.SilkS)
    (effects (font (size 1 1) (thickness 0.15)))
  )
  (fp_text value Connector_Mini-DIN_Female_6Pin_2rows_BPrepared (at -0.03 10.15) (layer F.Fab)
    (effects (font (size 1 1) (thickness 0.15)))
  )
  (fp_text user %R (at -1.27 -6.35) (layer F.Fab)
    (effects (font (size 1 1) (thickness 0.15)))
  )
  (fp_line (start 6.7 -4.3) (end 6.7 8.5) (layer F.Fab) (width 0.1))
  (fp_line (start 6.7 8.5) (end -9.3 8.5) (layer F.Fab) (width 0.1))
  (fp_line (start -9.3 8.5) (end -9.3 -4.3) (layer F.Fab) (width 0.1))
  (fp_line (start -9.3 -4.3) (end 6.7 -4.3) (layer F.Fab) (width 0.1))
  (fp_line (start 6.8 -4.4) (end 6.8 8.6) (layer F.SilkS) (width 0.12))
  (fp_line (start -9.4 -4.4) (end -9.4 8.6) (layer F.SilkS) (width 0.12))
  (fp_line (start -9.4 -4.4) (end 6.8 -4.4) (layer F.SilkS) (width 0.12))
  (fp_line (start -9.4 8.6) (end 6.8 8.6) (layer F.SilkS) (width 0.12))
  (fp_line (start -9.81 -5.05) (end 7.19 -5.05) (layer F.CrtYd) (width 0.05))
  (fp_line (start -9.81 -5.05) (end -9.81 9) (layer F.CrtYd) (width 0.05))
  (fp_line (start 7.19 9) (end 7.19 -5.05) (layer F.CrtYd) (width 0.05))
  (fp_line (start 7.19 9) (end -9.81 9) (layer F.CrtYd) (width 0.05))
  (pad 7 thru_hole oval (at -8.15 2.85) (size 2 3.5) (drill oval 1 2.5) (layers *.Cu *.Mask))
  (pad 7 thru_hole oval (at 5.55 2.85) (size 2 3.5) (drill oval 1 2.5) (layers *.Cu *.Mask))
  (pad 1 thru_hole rect (at 0 0) (size 1.6 1.6) (drill 0.8) (layers *.Cu *.Mask))
  (pad 2 thru_hole circle (at -2.6 0) (size 1.6 1.6) (drill 0.8) (layers *.Cu *.Mask))
  (pad 3 thru_hole circle (at 2.1 0) (size 1.6 1.6) (drill 0.8) (layers *.Cu *.Mask))
  (pad 4 thru_hole circle (at -4.7 0) (size 1.6 1.6) (drill 0.8) (layers *.Cu *.Mask))
  (pad 5 thru_hole circle (at 2.1 -2.8) (size 1.6 1.6) (drill 0.8) (layers *.Cu *.Mask))
  (pad 6 thru_hole circle (at -4.7 -2.8) (size 1.6 1.6) (drill 0.8) (layers *.Cu *.Mask))
  (pad 7 thru_hole oval (at -1.3 3.65) (size 4 2) (drill oval 3 1) (layers *.Cu *.Mask))
)
