(module CP_Trimmer__D6.3mm_P6.3mm (layer F.Cu) (tedit 597BC7C2)
  (descr "CP, Radial series, Radial, pin pitch=2.50mm, , diameter=6.3mm, Electrolytic Capacitor")
  (tags "CP Radial series Radial pin pitch 2.50mm  diameter 6.3mm Electrolytic Capacitor")
  (fp_text reference REF** (at 1.25 -4.46) (layer F.SilkS)
    (effects (font (size 1 1) (thickness 0.15)))
  )
  (fp_text value CP_Trimmer__D6.3mm_P6.3mm (at 1.25 4.46) (layer F.Fab)
    (effects (font (size 1 1) (thickness 0.15)))
  )
  (fp_text user %R (at 1.25 0) (layer F.Fab)
    (effects (font (size 1 1) (thickness 0.15)))
  )
  (fp_line (start 4.75 -3.5) (end -2.25 -3.5) (layer F.CrtYd) (width 0.05))
  (fp_line (start 4.75 3.5) (end 4.75 -3.5) (layer F.CrtYd) (width 0.05))
  (fp_line (start -2.25 3.5) (end 4.75 3.5) (layer F.CrtYd) (width 0.05))
  (fp_line (start -2.25 -3.5) (end -2.25 3.5) (layer F.CrtYd) (width 0.05))
  (fp_line (start -1.6 -0.65) (end -1.6 0.65) (layer F.SilkS) (width 0.12))
  (fp_line (start -2.2 0) (end -1 0) (layer F.SilkS) (width 0.12))
  (fp_line (start 4.451 -0.468) (end 4.451 0.468) (layer F.SilkS) (width 0.12))
  (fp_line (start 4.411 -0.676) (end 4.411 0.676) (layer F.SilkS) (width 0.12))
  (fp_line (start 4.371 -0.834) (end 4.371 0.834) (layer F.SilkS) (width 0.12))
  (fp_line (start 4.331 -0.966) (end 4.331 0.966) (layer F.SilkS) (width 0.12))
  (fp_line (start 4.291 -1.081) (end 4.291 1.081) (layer F.SilkS) (width 0.12))
  (fp_line (start 4.251 -1.184) (end 4.251 1.184) (layer F.SilkS) (width 0.12))
  (fp_line (start 4.211 -1.278) (end 4.211 1.278) (layer F.SilkS) (width 0.12))
  (fp_line (start 4.171 -1.364) (end 4.171 1.364) (layer F.SilkS) (width 0.12))
  (fp_line (start 4.131 -1.445) (end 4.131 1.445) (layer F.SilkS) (width 0.12))
  (fp_line (start 4.091 -1.52) (end 4.091 1.52) (layer F.SilkS) (width 0.12))
  (fp_line (start 4.051 -1.591) (end 4.051 1.591) (layer F.SilkS) (width 0.12))
  (fp_line (start 4.011 -1.658) (end 4.011 1.658) (layer F.SilkS) (width 0.12))
  (fp_line (start 3.971 -1.721) (end 3.971 1.721) (layer F.SilkS) (width 0.12))
  (fp_line (start 3.931 -1.781) (end 3.931 1.781) (layer F.SilkS) (width 0.12))
  (fp_line (start 3.891 -1.839) (end 3.891 1.839) (layer F.SilkS) (width 0.12))
  (fp_line (start 3.851 -1.894) (end 3.851 1.894) (layer F.SilkS) (width 0.12))
  (fp_line (start 3.811 -1.946) (end 3.811 1.946) (layer F.SilkS) (width 0.12))
  (fp_line (start 3.771 -1.997) (end 3.771 1.997) (layer F.SilkS) (width 0.12))
  (fp_line (start 3.731 -2.045) (end 3.731 2.045) (layer F.SilkS) (width 0.12))
  (fp_line (start 3.691 -2.092) (end 3.691 2.092) (layer F.SilkS) (width 0.12))
  (fp_line (start 3.651 -2.137) (end 3.651 2.137) (layer F.SilkS) (width 0.12))
  (fp_line (start 3.611 -2.18) (end 3.611 2.18) (layer F.SilkS) (width 0.12))
  (fp_line (start 3.571 -2.222) (end 3.571 2.222) (layer F.SilkS) (width 0.12))
  (fp_line (start 3.531 -2.262) (end 3.531 2.262) (layer F.SilkS) (width 0.12))
  (fp_line (start 3.491 -2.301) (end 3.491 2.301) (layer F.SilkS) (width 0.12))
  (fp_line (start 3.451 0.98) (end 3.451 2.339) (layer F.SilkS) (width 0.12))
  (fp_line (start 3.451 -2.339) (end 3.451 -0.98) (layer F.SilkS) (width 0.12))
  (fp_line (start 3.411 0.98) (end 3.411 2.375) (layer F.SilkS) (width 0.12))
  (fp_line (start 3.411 -2.375) (end 3.411 -0.98) (layer F.SilkS) (width 0.12))
  (fp_line (start 3.371 0.98) (end 3.371 2.411) (layer F.SilkS) (width 0.12))
  (fp_line (start 3.371 -2.411) (end 3.371 -0.98) (layer F.SilkS) (width 0.12))
  (fp_line (start 3.331 0.98) (end 3.331 2.445) (layer F.SilkS) (width 0.12))
  (fp_line (start 3.331 -2.445) (end 3.331 -0.98) (layer F.SilkS) (width 0.12))
  (fp_line (start 3.291 0.98) (end 3.291 2.478) (layer F.SilkS) (width 0.12))
  (fp_line (start 3.291 -2.478) (end 3.291 -0.98) (layer F.SilkS) (width 0.12))
  (fp_line (start 3.251 0.98) (end 3.251 2.51) (layer F.SilkS) (width 0.12))
  (fp_line (start 3.251 -2.51) (end 3.251 -0.98) (layer F.SilkS) (width 0.12))
  (fp_line (start 3.211 0.98) (end 3.211 2.54) (layer F.SilkS) (width 0.12))
  (fp_line (start 3.211 -2.54) (end 3.211 -0.98) (layer F.SilkS) (width 0.12))
  (fp_line (start 3.171 0.98) (end 3.171 2.57) (layer F.SilkS) (width 0.12))
  (fp_line (start 3.171 -2.57) (end 3.171 -0.98) (layer F.SilkS) (width 0.12))
  (fp_line (start 3.131 0.98) (end 3.131 2.599) (layer F.SilkS) (width 0.12))
  (fp_line (start 3.131 -2.599) (end 3.131 -0.98) (layer F.SilkS) (width 0.12))
  (fp_line (start 3.091 0.98) (end 3.091 2.627) (layer F.SilkS) (width 0.12))
  (fp_line (start 3.091 -2.627) (end 3.091 -0.98) (layer F.SilkS) (width 0.12))
  (fp_line (start 3.051 0.98) (end 3.051 2.654) (layer F.SilkS) (width 0.12))
  (fp_line (start 3.051 -2.654) (end 3.051 -0.98) (layer F.SilkS) (width 0.12))
  (fp_line (start 3.011 0.98) (end 3.011 2.681) (layer F.SilkS) (width 0.12))
  (fp_line (start 3.011 -2.681) (end 3.011 -0.98) (layer F.SilkS) (width 0.12))
  (fp_line (start 2.971 0.98) (end 2.971 2.706) (layer F.SilkS) (width 0.12))
  (fp_line (start 2.971 -2.706) (end 2.971 -0.98) (layer F.SilkS) (width 0.12))
  (fp_line (start 2.931 0.98) (end 2.931 2.731) (layer F.SilkS) (width 0.12))
  (fp_line (start 2.931 -2.731) (end 2.931 -0.98) (layer F.SilkS) (width 0.12))
  (fp_line (start 2.891 0.98) (end 2.891 2.755) (layer F.SilkS) (width 0.12))
  (fp_line (start 2.891 -2.755) (end 2.891 -0.98) (layer F.SilkS) (width 0.12))
  (fp_line (start 2.851 0.98) (end 2.851 2.778) (layer F.SilkS) (width 0.12))
  (fp_line (start 2.851 -2.778) (end 2.851 -0.98) (layer F.SilkS) (width 0.12))
  (fp_line (start 2.811 0.98) (end 2.811 2.8) (layer F.SilkS) (width 0.12))
  (fp_line (start 2.811 -2.8) (end 2.811 -0.98) (layer F.SilkS) (width 0.12))
  (fp_line (start 2.771 0.98) (end 2.771 2.822) (layer F.SilkS) (width 0.12))
  (fp_line (start 2.771 -2.822) (end 2.771 -0.98) (layer F.SilkS) (width 0.12))
  (fp_line (start 2.731 0.98) (end 2.731 2.843) (layer F.SilkS) (width 0.12))
  (fp_line (start 2.731 -2.843) (end 2.731 -0.98) (layer F.SilkS) (width 0.12))
  (fp_line (start 2.691 0.98) (end 2.691 2.863) (layer F.SilkS) (width 0.12))
  (fp_line (start 2.691 -2.863) (end 2.691 -0.98) (layer F.SilkS) (width 0.12))
  (fp_line (start 2.651 0.98) (end 2.651 2.882) (layer F.SilkS) (width 0.12))
  (fp_line (start 2.651 -2.882) (end 2.651 -0.98) (layer F.SilkS) (width 0.12))
  (fp_line (start 2.611 0.98) (end 2.611 2.901) (layer F.SilkS) (width 0.12))
  (fp_line (start 2.611 -2.901) (end 2.611 -0.98) (layer F.SilkS) (width 0.12))
  (fp_line (start 2.571 0.98) (end 2.571 2.919) (layer F.SilkS) (width 0.12))
  (fp_line (start 2.571 -2.919) (end 2.571 -0.98) (layer F.SilkS) (width 0.12))
  (fp_line (start 2.531 0.98) (end 2.531 2.937) (layer F.SilkS) (width 0.12))
  (fp_line (start 2.531 -2.937) (end 2.531 -0.98) (layer F.SilkS) (width 0.12))
  (fp_line (start 2.491 0.98) (end 2.491 2.954) (layer F.SilkS) (width 0.12))
  (fp_line (start 2.491 -2.954) (end 2.491 -0.98) (layer F.SilkS) (width 0.12))
  (fp_line (start 2.451 0.98) (end 2.451 2.97) (layer F.SilkS) (width 0.12))
  (fp_line (start 2.451 -2.97) (end 2.451 -0.98) (layer F.SilkS) (width 0.12))
  (fp_line (start 2.411 0.98) (end 2.411 2.986) (layer F.SilkS) (width 0.12))
  (fp_line (start 2.411 -2.986) (end 2.411 -0.98) (layer F.SilkS) (width 0.12))
  (fp_line (start 2.371 0.98) (end 2.371 3.001) (layer F.SilkS) (width 0.12))
  (fp_line (start 2.371 -3.001) (end 2.371 -0.98) (layer F.SilkS) (width 0.12))
  (fp_line (start 2.331 0.98) (end 2.331 3.015) (layer F.SilkS) (width 0.12))
  (fp_line (start 2.331 -3.015) (end 2.331 -0.98) (layer F.SilkS) (width 0.12))
  (fp_line (start 2.291 0.98) (end 2.291 3.029) (layer F.SilkS) (width 0.12))
  (fp_line (start 2.291 -3.029) (end 2.291 -0.98) (layer F.SilkS) (width 0.12))
  (fp_line (start 2.251 0.98) (end 2.251 3.042) (layer F.SilkS) (width 0.12))
  (fp_line (start 2.251 -3.042) (end 2.251 -0.98) (layer F.SilkS) (width 0.12))
  (fp_line (start 2.211 0.98) (end 2.211 3.055) (layer F.SilkS) (width 0.12))
  (fp_line (start 2.211 -3.055) (end 2.211 -0.98) (layer F.SilkS) (width 0.12))
  (fp_line (start 2.171 0.98) (end 2.171 3.067) (layer F.SilkS) (width 0.12))
  (fp_line (start 2.171 -3.067) (end 2.171 -0.98) (layer F.SilkS) (width 0.12))
  (fp_line (start 2.131 0.98) (end 2.131 3.079) (layer F.SilkS) (width 0.12))
  (fp_line (start 2.131 -3.079) (end 2.131 -0.98) (layer F.SilkS) (width 0.12))
  (fp_line (start 2.091 0.98) (end 2.091 3.09) (layer F.SilkS) (width 0.12))
  (fp_line (start 2.091 -3.09) (end 2.091 -0.98) (layer F.SilkS) (width 0.12))
  (fp_line (start 2.051 0.98) (end 2.051 3.1) (layer F.SilkS) (width 0.12))
  (fp_line (start 2.051 -3.1) (end 2.051 -0.98) (layer F.SilkS) (width 0.12))
  (fp_line (start 2.011 0.98) (end 2.011 3.11) (layer F.SilkS) (width 0.12))
  (fp_line (start 2.011 -3.11) (end 2.011 -0.98) (layer F.SilkS) (width 0.12))
  (fp_line (start 1.971 0.98) (end 1.971 3.119) (layer F.SilkS) (width 0.12))
  (fp_line (start 1.971 -3.119) (end 1.971 -0.98) (layer F.SilkS) (width 0.12))
  (fp_line (start 1.93 0.98) (end 1.93 3.128) (layer F.SilkS) (width 0.12))
  (fp_line (start 1.93 -3.128) (end 1.93 -0.98) (layer F.SilkS) (width 0.12))
  (fp_line (start 1.89 0.98) (end 1.89 3.137) (layer F.SilkS) (width 0.12))
  (fp_line (start 1.89 -3.137) (end 1.89 -0.98) (layer F.SilkS) (width 0.12))
  (fp_line (start 1.85 0.98) (end 1.85 3.144) (layer F.SilkS) (width 0.12))
  (fp_line (start 1.85 -3.144) (end 1.85 -0.98) (layer F.SilkS) (width 0.12))
  (fp_line (start 1.81 0.98) (end 1.81 3.152) (layer F.SilkS) (width 0.12))
  (fp_line (start 1.81 -3.152) (end 1.81 -0.98) (layer F.SilkS) (width 0.12))
  (fp_line (start 1.77 0.98) (end 1.77 3.158) (layer F.SilkS) (width 0.12))
  (fp_line (start 1.77 -3.158) (end 1.77 -0.98) (layer F.SilkS) (width 0.12))
  (fp_line (start 1.73 0.98) (end 1.73 3.165) (layer F.SilkS) (width 0.12))
  (fp_line (start 1.73 -3.165) (end 1.73 -0.98) (layer F.SilkS) (width 0.12))
  (fp_line (start 1.69 0.98) (end 1.69 3.17) (layer F.SilkS) (width 0.12))
  (fp_line (start 1.69 -3.17) (end 1.69 -0.98) (layer F.SilkS) (width 0.12))
  (fp_line (start 1.65 0.98) (end 1.65 3.176) (layer F.SilkS) (width 0.12))
  (fp_line (start 1.65 -3.176) (end 1.65 -0.98) (layer F.SilkS) (width 0.12))
  (fp_line (start 1.61 0.98) (end 1.61 3.18) (layer F.SilkS) (width 0.12))
  (fp_line (start 1.61 -3.18) (end 1.61 -0.98) (layer F.SilkS) (width 0.12))
  (fp_line (start 1.57 0.98) (end 1.57 3.185) (layer F.SilkS) (width 0.12))
  (fp_line (start 1.57 -3.185) (end 1.57 -0.98) (layer F.SilkS) (width 0.12))
  (fp_line (start 1.53 0.98) (end 1.53 3.188) (layer F.SilkS) (width 0.12))
  (fp_line (start 1.53 -3.188) (end 1.53 -0.98) (layer F.SilkS) (width 0.12))
  (fp_line (start 1.49 -3.192) (end 1.49 3.192) (layer F.SilkS) (width 0.12))
  (fp_line (start 1.45 -3.194) (end 1.45 3.194) (layer F.SilkS) (width 0.12))
  (fp_line (start 1.41 -3.197) (end 1.41 3.197) (layer F.SilkS) (width 0.12))
  (fp_line (start 1.37 -3.198) (end 1.37 3.198) (layer F.SilkS) (width 0.12))
  (fp_line (start 1.33 -3.2) (end 1.33 3.2) (layer F.SilkS) (width 0.12))
  (fp_line (start 1.29 -3.2) (end 1.29 3.2) (layer F.SilkS) (width 0.12))
  (fp_line (start 1.25 -3.2) (end 1.25 3.2) (layer F.SilkS) (width 0.12))
  (fp_line (start -1.6 -0.65) (end -1.6 0.65) (layer F.Fab) (width 0.1))
  (fp_line (start -2.2 0) (end -1 0) (layer F.Fab) (width 0.1))
  (fp_circle (center 1.25 0) (end 4.4 0) (layer F.Fab) (width 0.1))
  (fp_arc (start 1.25 0) (end 4.267482 -1.18) (angle 42.7) (layer F.SilkS) (width 0.12))
  (fp_arc (start 1.25 0) (end -1.767482 1.18) (angle -137.3) (layer F.SilkS) (width 0.12))
  (fp_arc (start 1.25 0) (end -1.767482 -1.18) (angle 137.3) (layer F.SilkS) (width 0.12))
  (pad 2 thru_hole circle (at 2.5 0) (size 1.6 1.6) (drill 0.8) (layers *.Cu *.Mask))
  (pad 1 thru_hole rect (at 0 0) (size 1.6 1.6) (drill 0.8) (layers *.Cu *.Mask))
  (model ${KISYS3DMOD}/Capacitors_THT.3dshapes/CP_Radial_D6.3mm_P2.50mm.wrl
    (at (xyz 0 0 0))
    (scale (xyz 1 1 1))
    (rotate (xyz 0 0 0))
  )
)
