(module CUI_SJ1-3535NG-BE (layer F.Cu) (tedit 606C98AA)
  (descr "3.5mm Audio Jack Switched")
  (fp_text reference REF** (at 2.03561 -5.47073) (layer F.SilkS)
    (effects (font (size 1.00178 1.00178) (thickness 0.015)))
  )
  (fp_text value CUI_SJ1-3535NG-BE (at 9.55632 4.86481) (layer F.Fab)
    (effects (font (size 1.001606 1.001606) (thickness 0.015)))
  )
  (fp_line (start -1.45 -3.95) (end -1.45 -4.55) (layer F.CrtYd) (width 0.05))
  (fp_line (start -5.45 -3.95) (end -1.45 -3.95) (layer F.CrtYd) (width 0.05))
  (fp_line (start -5.45 0.15) (end -5.45 -3.95) (layer F.CrtYd) (width 0.05))
  (fp_line (start -1.45 0.15) (end -5.45 0.15) (layer F.CrtYd) (width 0.05))
  (fp_line (start -1.45 4.15) (end -1.45 0.15) (layer F.CrtYd) (width 0.05))
  (fp_line (start 13.05 4.15) (end -1.45 4.15) (layer F.CrtYd) (width 0.05))
  (fp_line (start 13.05 -4.55) (end 13.05 4.15) (layer F.CrtYd) (width 0.05))
  (fp_line (start -1.45 -4.55) (end 13.05 -4.55) (layer F.CrtYd) (width 0.05))
  (fp_circle (center -1.9 0.55) (end -1.75 0.55) (layer F.SilkS) (width 0.35))
  (fp_line (start 12.8 3.9) (end -1.2 3.9) (layer F.SilkS) (width 0.127))
  (fp_line (start 12.8 -4.3) (end 12.8 3.9) (layer F.SilkS) (width 0.127))
  (fp_line (start -1.2 -4.3) (end 12.8 -4.3) (layer F.SilkS) (width 0.127))
  (fp_line (start 12.8 -4.3) (end 12.8 3.9) (layer F.Fab) (width 0.127))
  (fp_line (start -1.2 -4.3) (end 12.8 -4.3) (layer F.Fab) (width 0.127))
  (fp_line (start -1.2 -3.7) (end -1.2 -4.3) (layer F.Fab) (width 0.127))
  (fp_line (start -5.2 -3.7) (end -1.2 -3.7) (layer F.Fab) (width 0.127))
  (fp_line (start -5.2 -0.1) (end -5.2 -3.7) (layer F.Fab) (width 0.127))
  (fp_line (start -1.2 -0.1) (end -5.2 -0.1) (layer F.Fab) (width 0.127))
  (fp_line (start -1.2 3.9) (end -1.2 -0.1) (layer F.Fab) (width 0.127))
  (fp_line (start 12.8 3.9) (end -1.2 3.9) (layer F.Fab) (width 0.127))
  (pad TN thru_hole circle (at 11.6 0) (size 2.2 2.2) (drill 1.5) (layers *.Cu *.Mask))
  (pad R thru_hole circle (at 7.9 -2) (size 2.2 2.2) (drill 1.5) (layers *.Cu *.Mask))
  (pad RN thru_hole circle (at 6.1 0) (size 2.2 2.2) (drill 1.5) (layers *.Cu *.Mask))
  (pad T thru_hole circle (at 2.4 -2) (size 2.2 2.2) (drill 1.5) (layers *.Cu *.Mask))
  (pad S thru_hole circle (at 0 0) (size 2.2 2.2) (drill 1.5) (layers *.Cu *.Mask))
)
