(module DIP-14_W17.78m-LVC125A (layer F.Cu) (tedit 5DB676E6)
  (descr "14-lead though-hole mounted DIP package, row spacing 10.16 mm (400 mils)")
  (tags "THT DIP DIL PDIP 2.54mm 10.16mm 400mil")
  (fp_text reference REF** (at 0.635 -3.175) (layer F.SilkS)
    (effects (font (size 1 1) (thickness 0.15)))
  )
  (fp_text value DIP-14_W17.78m-LVC125A (at 7.62 18.415) (layer F.Fab)
    (effects (font (size 1 1) (thickness 0.15)))
  )
  (fp_text user %R (at 7.62 12.7) (layer F.Fab)
    (effects (font (size 1 1) (thickness 0.15)))
  )
  (fp_line (start 16.51 -1.55) (end -1.27 -1.55) (layer F.CrtYd) (width 0.05))
  (fp_line (start 16.505 16.8) (end 16.505 -1.55) (layer F.CrtYd) (width 0.05))
  (fp_line (start -1.27 16.8) (end 16.505 16.8) (layer F.CrtYd) (width 0.05))
  (fp_line (start -1.27 -1.55) (end -1.27 16.8) (layer F.CrtYd) (width 0.05))
  (fp_line (start 10.855 3.75) (end 8.62 3.75) (layer F.SilkS) (width 0.12))
  (fp_line (start 10.855 11.49) (end 10.855 3.75) (layer F.SilkS) (width 0.12))
  (fp_line (start 4.385 11.49) (end 10.855 11.49) (layer F.SilkS) (width 0.12))
  (fp_line (start 4.385 3.75) (end 4.385 11.49) (layer F.SilkS) (width 0.12))
  (fp_line (start 6.62 3.75) (end 4.385 3.75) (layer F.SilkS) (width 0.12))
  (fp_line (start 4.445 4.81) (end 5.445 3.81) (layer F.Fab) (width 0.1))
  (fp_line (start 4.445 11.43) (end 4.445 4.81) (layer F.Fab) (width 0.1))
  (fp_line (start 10.795 11.43) (end 4.445 11.43) (layer F.Fab) (width 0.1))
  (fp_line (start 10.795 3.81) (end 10.795 11.43) (layer F.Fab) (width 0.1))
  (fp_line (start 5.445 3.81) (end 10.795 3.81) (layer F.Fab) (width 0.1))
  (fp_arc (start 7.62 3.75) (end 6.62 3.75) (angle -180) (layer F.SilkS) (width 0.12))
  (fp_text user 1OE (at -3.81 0) (layer F.SilkS)
    (effects (font (size 1 1) (thickness 0.15)))
  )
  (fp_text user 1A (at -3.81 2.54) (layer F.SilkS)
    (effects (font (size 1 1) (thickness 0.15)))
  )
  (fp_text user 1Y (at -3.81 5.08) (layer F.SilkS)
    (effects (font (size 1 1) (thickness 0.15)))
  )
  (fp_text user 2OE (at -3.81 7.62) (layer F.SilkS)
    (effects (font (size 1 1) (thickness 0.15)))
  )
  (fp_text user 2A (at -3.81 10.16) (layer F.SilkS)
    (effects (font (size 1 1) (thickness 0.15)))
  )
  (fp_text user 2Y (at -3.81 12.7) (layer F.SilkS)
    (effects (font (size 1 1) (thickness 0.15)))
  )
  (fp_text user GND (at -3.81 15.24) (layer F.SilkS)
    (effects (font (size 1 1) (thickness 0.15)))
  )
  (fp_text user VCC (at 19.05 0) (layer F.SilkS)
    (effects (font (size 1 1) (thickness 0.15)))
  )
  (fp_text user 4OE (at 19.05 2.54) (layer F.SilkS)
    (effects (font (size 1 1) (thickness 0.15)))
  )
  (fp_text user 4A (at 19.05 5.08) (layer F.SilkS)
    (effects (font (size 1 1) (thickness 0.15)))
  )
  (fp_text user 4Y (at 19.05 7.62) (layer F.SilkS)
    (effects (font (size 1 1) (thickness 0.15)))
  )
  (fp_text user 3OE (at 19.05 10.16) (layer F.SilkS)
    (effects (font (size 1 1) (thickness 0.15)))
  )
  (fp_text user 3A (at 19.05 12.7) (layer F.SilkS)
    (effects (font (size 1 1) (thickness 0.15)))
  )
  (fp_text user 3Y (at 19.05 15.24) (layer F.SilkS)
    (effects (font (size 1 1) (thickness 0.15)))
  )
  (pad 14 thru_hole oval (at 15.24 0) (size 1.6 1.6) (drill 0.8) (layers *.Cu *.Mask))
  (pad 7 thru_hole oval (at 0 15.24) (size 1.6 1.6) (drill 0.8) (layers *.Cu *.Mask))
  (pad 13 thru_hole oval (at 15.24 2.54) (size 1.6 1.6) (drill 0.8) (layers *.Cu *.Mask))
  (pad 6 thru_hole oval (at 0 12.7) (size 1.6 1.6) (drill 0.8) (layers *.Cu *.Mask))
  (pad 12 thru_hole oval (at 15.24 5.08) (size 1.6 1.6) (drill 0.8) (layers *.Cu *.Mask))
  (pad 5 thru_hole oval (at 0 10.16) (size 1.6 1.6) (drill 0.8) (layers *.Cu *.Mask))
  (pad 11 thru_hole oval (at 15.24 7.62) (size 1.6 1.6) (drill 0.8) (layers *.Cu *.Mask))
  (pad 4 thru_hole oval (at 0 7.62) (size 1.6 1.6) (drill 0.8) (layers *.Cu *.Mask))
  (pad 10 thru_hole oval (at 15.24 10.16) (size 1.6 1.6) (drill 0.8) (layers *.Cu *.Mask))
  (pad 3 thru_hole oval (at 0 5.08) (size 1.6 1.6) (drill 0.8) (layers *.Cu *.Mask))
  (pad 9 thru_hole oval (at 15.24 12.7) (size 1.6 1.6) (drill 0.8) (layers *.Cu *.Mask))
  (pad 2 thru_hole oval (at 0 2.54) (size 1.6 1.6) (drill 0.8) (layers *.Cu *.Mask))
  (pad 8 thru_hole oval (at 15.24 15.24) (size 1.6 1.6) (drill 0.8) (layers *.Cu *.Mask))
  (pad 1 thru_hole rect (at 0 0) (size 1.6 1.6) (drill 0.8) (layers *.Cu *.Mask))
  (model ${KISYS3DMOD}/Housings_DIP.3dshapes/DIP-14_W10.16mm.wrl
    (at (xyz 0 0 0))
    (scale (xyz 1 1 1))
    (rotate (xyz 0 0 0))
  )
)
