(module Front_Panel (layer F.Cu) (tedit 5ED705F3)
  (fp_text reference REF** (at 0 0.5) (layer F.SilkS)
    (effects (font (size 1 1) (thickness 0.15)))
  )
  (fp_text value Front_Panel (at 0 -0.5) (layer F.Fab)
    (effects (font (size 1 1) (thickness 0.15)))
  )
  (fp_poly (pts (xy -50 0) (xy -50 -3.048) (xy 50.076 -3.048) (xy 50.076 0)) (layer F.Fab) (width 0.1))
  (model C:/TI99/geneve2020/kicad/lib/packages3d/_box.wrl
    (offset (xyz 0 1.5 -4))
    (scale (xyz 100 3 19.25))
    (rotate (xyz 0 0 0))
  )
  (model C:/TI99/geneve2020/kicad/lib/packages3d/screw_iso_1580-m3x10.stp
    (offset (xyz -44 3 4))
    (scale (xyz 1 1 1))
    (rotate (xyz 90 0 0))
  )
  (model C:/TI99/geneve2020/kicad/lib/packages3d/screw_iso_1580-m3x10.stp
    (offset (xyz 41.3 3 4))
    (scale (xyz 1 1 1))
    (rotate (xyz 90 0 0))
  )
)
