(module Phono_3_Stacked (layer F.Cu) (tedit 5FA32FE9)
  (fp_text reference REF** (at 7.112 -20.626) (layer F.SilkS)
    (effects (font (size 1 1) (thickness 0.15)))
  )
  (fp_text value Phono_3_Stacked (at 6.096 -23.166) (layer F.Fab)
    (effects (font (size 1 1) (thickness 0.15)))
  )
  (fp_line (start 0 -22) (end 12.7 -22) (layer F.SilkS) (width 0.15))
  (fp_line (start 12.7 -22) (end 12.7 0) (layer F.SilkS) (width 0.15))
  (fp_line (start 12.7 0) (end 0 0) (layer F.SilkS) (width 0.15))
  (fp_line (start 0 0) (end 0 -22) (layer F.SilkS) (width 0.15))
  (fp_line (start -0.65 -22.15) (end -0.65 -0.03) (layer F.CrtYd) (width 0.12))
  (fp_line (start 13.35 -22.15) (end 13.35 -0.03) (layer F.CrtYd) (width 0.12))
  (fp_line (start -0.65 -22.15) (end 13.35 -22.15) (layer F.CrtYd) (width 0.12))
  (fp_line (start 13.35 -0.03) (end -0.65 -0.03) (layer F.CrtYd) (width 0.12))
  (fp_line (start 2.95 -22) (end 2.95 -19) (layer F.SilkS) (width 0.15))
  (fp_line (start 2.95 -19) (end 9.75 -19) (layer F.SilkS) (width 0.15))
  (fp_line (start 9.75 -19) (end 9.75 -22) (layer F.SilkS) (width 0.15))
  (fp_line (start 8.15 -19) (end 8.15 -22) (layer F.SilkS) (width 0.15))
  (fp_line (start 4.55 -19) (end 4.55 -22) (layer F.SilkS) (width 0.15))
  (fp_text user "MIC PWR" (at 11.684 -6.35 90) (layer F.SilkS)
    (effects (font (size 1 1) (thickness 0.15)) (justify left))
  )
  (fp_text user MIC (at 1.27 -10.16 90) (layer F.SilkS)
    (effects (font (size 1 1) (thickness 0.15)) (justify left))
  )
  (fp_text user GND (at 4.826 -15.494 180) (layer F.SilkS)
    (effects (font (size 1 1) (thickness 0.15)) (justify left))
  )
  (fp_text user ROUT (at 10.16 -4.064 270) (layer F.SilkS)
    (effects (font (size 1 1) (thickness 0.15)) (justify left))
  )
  (fp_text user LOUT (at 2.54 -4.318 270) (layer F.SilkS)
    (effects (font (size 1 1) (thickness 0.15)) (justify left))
  )
  (fp_text user RIN (at 10.16 -0.254 90) (layer F.SilkS)
    (effects (font (size 1 1) (thickness 0.15)) (justify left))
  )
  (fp_text user LIN (at 2.54 -0.508 90) (layer F.SilkS)
    (effects (font (size 1 1) (thickness 0.15)) (justify left))
  )
  (fp_line (start 5.08 -12.192) (end 7.62 -11.43) (layer F.SilkS) (width 0.15))
  (fp_line (start 5.08 -6.858) (end 7.62 -6.096) (layer F.SilkS) (width 0.15))
  (fp_line (start 5.08 -2.032) (end 7.62 -1.27) (layer F.SilkS) (width 0.15))
  (fp_circle (center 5.08 -12.192) (end 5.334 -11.938) (layer F.SilkS) (width 0.15))
  (fp_circle (center 5.08 -6.858) (end 5.334 -6.604) (layer F.SilkS) (width 0.15))
  (fp_circle (center 7.62 -6.858) (end 7.874 -6.604) (layer F.SilkS) (width 0.15))
  (fp_circle (center 7.62 -12.192) (end 7.874 -11.938) (layer F.SilkS) (width 0.15))
  (fp_line (start 7.62 -12.192) (end 8.89 -12.192) (layer F.SilkS) (width 0.15))
  (fp_line (start 8.89 -12.192) (end 8.89 -12.954) (layer F.SilkS) (width 0.15))
  (fp_line (start 5.08 -12.192) (end 3.81 -12.192) (layer F.SilkS) (width 0.15))
  (fp_line (start 3.81 -12.192) (end 3.81 -12.954) (layer F.SilkS) (width 0.15))
  (fp_line (start 5.08 -6.858) (end 5.08 -7.874) (layer F.SilkS) (width 0.15))
  (fp_line (start 7.62 -6.858) (end 7.62 -7.874) (layer F.SilkS) (width 0.15))
  (fp_line (start 7.62 -2.032) (end 7.62 -2.794) (layer F.SilkS) (width 0.15))
  (fp_line (start 5.08 -2.032) (end 5.08 -2.794) (layer F.SilkS) (width 0.15))
  (fp_circle (center 7.62 -2.032) (end 7.874 -1.778) (layer F.SilkS) (width 0.15))
  (fp_circle (center 5.08 -2.032) (end 5.334 -2.286) (layer F.SilkS) (width 0.15))
  (pad 13 thru_hole circle (at 2.54 -3.54) (size 1.524 1.524) (drill 0.762) (layers *.Cu *.Mask))
  (pad 12 thru_hole circle (at 5.08 -3.54) (size 1.524 1.524) (drill 0.762) (layers *.Cu *.Mask))
  (pad 11 thru_hole circle (at 7.62 -3.54) (size 1.524 1.524) (drill 0.762) (layers *.Cu *.Mask))
  (pad 10 thru_hole circle (at 10.16 -3.54) (size 1.524 1.524) (drill 0.762) (layers *.Cu *.Mask))
  (pad 5 thru_hole circle (at 1.27 -13.7) (size 1.524 1.524) (drill 0.762) (layers *.Cu *.Mask))
  (pad 4 thru_hole circle (at 3.81 -13.7) (size 1.524 1.524) (drill 0.762) (layers *.Cu *.Mask))
  (pad 3 thru_hole circle (at 8.89 -13.7) (size 1.524 1.524) (drill 0.762) (layers *.Cu *.Mask))
  (pad 2 thru_hole circle (at 11.43 -13.7) (size 1.524 1.524) (drill 0.762) (layers *.Cu *.Mask))
  (pad "" np_thru_hole circle (at 0 -6.08) (size 1.7 1.7) (drill 1.5) (layers *.Cu *.Mask))
  (pad "" np_thru_hole circle (at 12.7 -6.08) (size 1.7 1.7) (drill 1.5) (layers *.Cu *.Mask))
  (pad "" np_thru_hole circle (at 12.7 -17.51) (size 1.7 1.7) (drill 1.5) (layers *.Cu *.Mask))
  (pad "" np_thru_hole circle (at 0 -17.51) (size 1.7 1.7) (drill 1.5) (layers *.Cu *.Mask))
  (pad 9 thru_hole circle (at 2.54 -8.62) (size 1.524 1.524) (drill 0.762) (layers *.Cu *.Mask))
  (pad 8 thru_hole circle (at 5.08 -8.62) (size 1.524 1.524) (drill 0.762) (layers *.Cu *.Mask))
  (pad 7 thru_hole circle (at 7.62 -8.62) (size 1.524 1.524) (drill 0.762) (layers *.Cu *.Mask))
  (pad 6 thru_hole circle (at 10.16 -8.62) (size 1.524 1.524) (drill 0.762) (layers *.Cu *.Mask))
  (pad 1 thru_hole circle (at 6.35 -13.7) (size 1.524 1.524) (drill 0.762) (layers *.Cu *.Mask))
)
