(module SO-20_5.3x12.6mm_P1.27mm (layer F.Cu) (tedit 5F04DFBA)
  (descr NS)
  (tags "Integrated Circuit")
  (attr smd)
  (fp_text reference IC** (at 0 0) (layer F.SilkS)
    (effects (font (size 1.27 1.27) (thickness 0.254)))
  )
  (fp_text value SO-20_5.3x12.6mm_P1.27mm (at 0 0) (layer F.SilkS) hide
    (effects (font (size 1.27 1.27) (thickness 0.254)))
  )
  (fp_text user %R (at 0 0) (layer F.Fab)
    (effects (font (size 1.27 1.27) (thickness 0.254)))
  )
  (fp_line (start -4.725 -6.7) (end 4.725 -6.7) (layer F.CrtYd) (width 0.05))
  (fp_line (start 4.725 -6.7) (end 4.725 6.7) (layer F.CrtYd) (width 0.05))
  (fp_line (start 4.725 6.7) (end -4.725 6.7) (layer F.CrtYd) (width 0.05))
  (fp_line (start -4.725 6.7) (end -4.725 -6.7) (layer F.CrtYd) (width 0.05))
  (fp_line (start -2.65 -6.3) (end 2.65 -6.3) (layer F.Fab) (width 0.1))
  (fp_line (start 2.65 -6.3) (end 2.65 6.3) (layer F.Fab) (width 0.1))
  (fp_line (start 2.65 6.3) (end -2.65 6.3) (layer F.Fab) (width 0.1))
  (fp_line (start -2.65 6.3) (end -2.65 -6.3) (layer F.Fab) (width 0.1))
  (fp_line (start -2.65 -5.03) (end -1.38 -6.3) (layer F.Fab) (width 0.1))
  (fp_line (start -1.325 -6.3) (end 2.3 -6.3) (layer F.SilkS) (width 0.2))
  (fp_line (start 2.3 -6.3) (end 2.3 6.3) (layer F.SilkS) (width 0.2))
  (fp_line (start 2.3 6.3) (end -2.3 6.3) (layer F.SilkS) (width 0.2))
  (fp_line (start -2.3 6.3) (end -2.275 -5.225) (layer F.SilkS) (width 0.2))
  (fp_line (start -4.475 -6.415) (end -2.65 -6.415) (layer F.SilkS) (width 0.2))
  (fp_line (start -2.3 -5.225) (end -1.325 -6.3) (layer F.SilkS) (width 0.15))
  (pad 1 smd roundrect (at -3.562 -5.715 90) (size 0.6 2) (layers F.Cu F.Paste F.Mask) (roundrect_rratio 0.25))
  (pad 2 smd roundrect (at -3.562 -4.445 90) (size 0.6 2) (layers F.Cu F.Paste F.Mask) (roundrect_rratio 0.25))
  (pad 3 smd roundrect (at -3.562 -3.175 90) (size 0.6 2) (layers F.Cu F.Paste F.Mask) (roundrect_rratio 0.25))
  (pad 4 smd roundrect (at -3.562 -1.905 90) (size 0.6 2) (layers F.Cu F.Paste F.Mask) (roundrect_rratio 0.25))
  (pad 5 smd roundrect (at -3.562 -0.635 90) (size 0.6 2) (layers F.Cu F.Paste F.Mask) (roundrect_rratio 0.25))
  (pad 6 smd roundrect (at -3.562 0.635 90) (size 0.6 2) (layers F.Cu F.Paste F.Mask) (roundrect_rratio 0.25))
  (pad 7 smd roundrect (at -3.562 1.905 90) (size 0.6 2) (layers F.Cu F.Paste F.Mask) (roundrect_rratio 0.25))
  (pad 8 smd roundrect (at -3.562 3.175 90) (size 0.6 2) (layers F.Cu F.Paste F.Mask) (roundrect_rratio 0.25))
  (pad 9 smd roundrect (at -3.562 4.445 90) (size 0.6 2) (layers F.Cu F.Paste F.Mask) (roundrect_rratio 0.25))
  (pad 10 smd roundrect (at -3.562 5.715 90) (size 0.6 2) (layers F.Cu F.Paste F.Mask) (roundrect_rratio 0.25))
  (pad 11 smd roundrect (at 3.562 5.715 90) (size 0.6 2) (layers F.Cu F.Paste F.Mask) (roundrect_rratio 0.25))
  (pad 12 smd roundrect (at 3.562 4.445 90) (size 0.6 2) (layers F.Cu F.Paste F.Mask) (roundrect_rratio 0.25))
  (pad 13 smd roundrect (at 3.562 3.175 90) (size 0.6 2) (layers F.Cu F.Paste F.Mask) (roundrect_rratio 0.25))
  (pad 14 smd roundrect (at 3.562 1.905 90) (size 0.6 2) (layers F.Cu F.Paste F.Mask) (roundrect_rratio 0.25))
  (pad 15 smd roundrect (at 3.562 0.635 90) (size 0.6 2) (layers F.Cu F.Paste F.Mask) (roundrect_rratio 0.25))
  (pad 16 smd roundrect (at 3.562 -0.635 90) (size 0.6 2) (layers F.Cu F.Paste F.Mask) (roundrect_rratio 0.25))
  (pad 17 smd roundrect (at 3.562 -1.905 90) (size 0.6 2) (layers F.Cu F.Paste F.Mask) (roundrect_rratio 0.25))
  (pad 18 smd roundrect (at 3.562 -3.175 90) (size 0.6 2) (layers F.Cu F.Paste F.Mask) (roundrect_rratio 0.25))
  (pad 19 smd roundrect (at 3.562 -4.445 90) (size 0.6 2) (layers F.Cu F.Paste F.Mask) (roundrect_rratio 0.25))
  (pad 20 smd roundrect (at 3.562 -5.715 90) (size 0.6 2) (layers F.Cu F.Paste F.Mask) (roundrect_rratio 0.25))
  (model SN74LVC245ANSR.stp
    (at (xyz 0 0 0))
    (scale (xyz 1 1 1))
    (rotate (xyz 0 0 0))
  )
)
