(module SOIC-24_5.0x15.24mm_P1.27mm (layer F.Cu) (tedit 5F04DFAA)
  (descr "SOIC, 24 Pin (JEDEC MS-013AD, https://www.analog.com/media/en/package-pcb-resources/package/pkg_pdf/soic_wide-rw/RW_24.pdf), generated with kicad-footprint-generator ipc_gullwing_generator.py")
  (tags "SOIC SO")
  (attr smd)
  (fp_text reference REF** (at 0 -8.65) (layer F.SilkS)
    (effects (font (size 1 1) (thickness 0.15)))
  )
  (fp_text value SOIC-24_5.0x15.24mm_P1.27mm (at 0 8.65) (layer F.Fab)
    (effects (font (size 1 1) (thickness 0.15)))
  )
  (fp_line (start 0 7.81) (end 2.61 7.81) (layer F.SilkS) (width 0.12))
  (fp_line (start 2.61 7.81) (end 2.61 7.545) (layer F.SilkS) (width 0.12))
  (fp_line (start 0 7.81) (end -2.61 7.81) (layer F.SilkS) (width 0.12))
  (fp_line (start -2.61 7.81) (end -2.61 7.545) (layer F.SilkS) (width 0.12))
  (fp_line (start 0 -7.81) (end 2.61 -7.81) (layer F.SilkS) (width 0.12))
  (fp_line (start 2.61 -7.81) (end 2.61 -7.545) (layer F.SilkS) (width 0.12))
  (fp_line (start 0 -7.81) (end -2.61 -7.81) (layer F.SilkS) (width 0.12))
  (fp_line (start -2.61 -7.81) (end -2.61 -7.545) (layer F.SilkS) (width 0.12))
  (fp_line (start -2.61 -7.545) (end -4.425 -7.545) (layer F.SilkS) (width 0.12))
  (fp_line (start -1.5 -7.7) (end 2.5 -7.7) (layer F.Fab) (width 0.1))
  (fp_line (start 2.5 -7.7) (end 2.5 7.7) (layer F.Fab) (width 0.1))
  (fp_line (start 2.5 7.7) (end -2.5 7.7) (layer F.Fab) (width 0.1))
  (fp_line (start -2.5 7.7) (end -2.5 -6.7) (layer F.Fab) (width 0.1))
  (fp_line (start -2.5 -6.7) (end -1.5 -7.7) (layer F.Fab) (width 0.1))
  (fp_line (start -4.68 -7.95) (end -4.68 7.95) (layer F.CrtYd) (width 0.05))
  (fp_line (start -4.68 7.95) (end 4.68 7.95) (layer F.CrtYd) (width 0.05))
  (fp_line (start 4.68 7.95) (end 4.68 -7.95) (layer F.CrtYd) (width 0.05))
  (fp_line (start 4.68 -7.95) (end -4.68 -7.95) (layer F.CrtYd) (width 0.05))
  (fp_text user %R (at 0 0) (layer F.Fab)
    (effects (font (size 1 1) (thickness 0.15)))
  )
  (pad 1 smd roundrect (at -3.4 -6.985) (size 2 0.6) (layers F.Cu F.Paste F.Mask) (roundrect_rratio 0.25))
  (pad 2 smd roundrect (at -3.4 -5.715) (size 2 0.6) (layers F.Cu F.Paste F.Mask) (roundrect_rratio 0.25))
  (pad 3 smd roundrect (at -3.4 -4.445) (size 2 0.6) (layers F.Cu F.Paste F.Mask) (roundrect_rratio 0.25))
  (pad 4 smd roundrect (at -3.4 -3.175) (size 2 0.6) (layers F.Cu F.Paste F.Mask) (roundrect_rratio 0.25))
  (pad 5 smd roundrect (at -3.4 -1.905) (size 2 0.6) (layers F.Cu F.Paste F.Mask) (roundrect_rratio 0.25))
  (pad 6 smd roundrect (at -3.4 -0.635) (size 2 0.6) (layers F.Cu F.Paste F.Mask) (roundrect_rratio 0.25))
  (pad 7 smd roundrect (at -3.4 0.635) (size 2 0.6) (layers F.Cu F.Paste F.Mask) (roundrect_rratio 0.25))
  (pad 8 smd roundrect (at -3.4 1.905) (size 2 0.6) (layers F.Cu F.Paste F.Mask) (roundrect_rratio 0.25))
  (pad 9 smd roundrect (at -3.4 3.175) (size 2 0.6) (layers F.Cu F.Paste F.Mask) (roundrect_rratio 0.25))
  (pad 10 smd roundrect (at -3.4 4.445) (size 2 0.6) (layers F.Cu F.Paste F.Mask) (roundrect_rratio 0.25))
  (pad 11 smd roundrect (at -3.4 5.715) (size 2 0.6) (layers F.Cu F.Paste F.Mask) (roundrect_rratio 0.25))
  (pad 12 smd roundrect (at -3.4 6.985) (size 2 0.6) (layers F.Cu F.Paste F.Mask) (roundrect_rratio 0.25))
  (pad 13 smd roundrect (at 3.4 6.985) (size 2 0.6) (layers F.Cu F.Paste F.Mask) (roundrect_rratio 0.25))
  (pad 14 smd roundrect (at 3.4 5.715) (size 2 0.6) (layers F.Cu F.Paste F.Mask) (roundrect_rratio 0.25))
  (pad 15 smd roundrect (at 3.4 4.445) (size 2 0.6) (layers F.Cu F.Paste F.Mask) (roundrect_rratio 0.25))
  (pad 16 smd roundrect (at 3.4 3.175) (size 2 0.6) (layers F.Cu F.Paste F.Mask) (roundrect_rratio 0.25))
  (pad 17 smd roundrect (at 3.4 1.905) (size 2 0.6) (layers F.Cu F.Paste F.Mask) (roundrect_rratio 0.25))
  (pad 18 smd roundrect (at 3.4 0.635) (size 2 0.6) (layers F.Cu F.Paste F.Mask) (roundrect_rratio 0.25))
  (pad 19 smd roundrect (at 3.4 -0.635) (size 2 0.6) (layers F.Cu F.Paste F.Mask) (roundrect_rratio 0.25))
  (pad 20 smd roundrect (at 3.4 -1.905) (size 2 0.6) (layers F.Cu F.Paste F.Mask) (roundrect_rratio 0.25))
  (pad 21 smd roundrect (at 3.4 -3.175) (size 2 0.6) (layers F.Cu F.Paste F.Mask) (roundrect_rratio 0.25))
  (pad 22 smd roundrect (at 3.4 -4.445) (size 2 0.6) (layers F.Cu F.Paste F.Mask) (roundrect_rratio 0.25))
  (pad 23 smd roundrect (at 3.4 -5.715) (size 2 0.6) (layers F.Cu F.Paste F.Mask) (roundrect_rratio 0.25))
  (pad 24 smd roundrect (at 3.4 -6.985) (size 2 0.6) (layers F.Cu F.Paste F.Mask) (roundrect_rratio 0.25))
  (model ${KISYS3DMOD}/Package_SO.3dshapes/SOIC-24W_7.5x15.4mm_P1.27mm.wrl
    (at (xyz 0 0 0))
    (scale (xyz 1 1 1))
    (rotate (xyz 0 0 0))
  )
)
